<?xml version="1.0" encoding="UTF-8" standalone="no"?>
<!-- Created with Inkscape (http://www.inkscape.org/) -->

<svg
   xmlns:dc="http://purl.org/dc/elements/1.1/"
   xmlns:cc="http://creativecommons.org/ns#"
   xmlns:rdf="http://www.w3.org/1999/02/22-rdf-syntax-ns#"
   xmlns:svg="http://www.w3.org/2000/svg"
   xmlns="http://www.w3.org/2000/svg"
   xmlns:sodipodi="http://sodipodi.sourceforge.net/DTD/sodipodi-0.dtd"
   xmlns:inkscape="http://www.inkscape.org/namespaces/inkscape"
   width="210mm"
   height="297mm"
   viewBox="0 0 210 297"
   version="1.1"
   id="svg8"
   inkscape:version="0.92.2 (5c3e80d, 2017-08-06)"
   sodipodi:docname="eurttyh.svg">
  <defs
     id="defs2" />
  <sodipodi:namedview
     id="base"
     pagecolor="#ffffff"
     bordercolor="#666666"
     borderopacity="1.0"
     inkscape:pageopacity="0.0"
     inkscape:pageshadow="2"
     inkscape:zoom="0.73263312"
     inkscape:cx="-10.954961"
     inkscape:cy="679.1271"
     inkscape:document-units="mm"
     inkscape:current-layer="layer1"
     showgrid="false"
     inkscape:window-width="1920"
     inkscape:window-height="1017"
     inkscape:window-x="-8"
     inkscape:window-y="-8"
     inkscape:window-maximized="1" />
  <metadata
     id="metadata5">
    <rdf:RDF>
      <cc:Work
         rdf:about="">
        <dc:format>image/svg+xml</dc:format>
        <dc:type
           rdf:resource="http://purl.org/dc/dcmitype/StillImage" />
        <dc:title></dc:title>
      </cc:Work>
    </rdf:RDF>
  </metadata>
  <g
     inkscape:label="Layer 1"
     inkscape:groupmode="layer"
     id="layer1">
    <circle
       id="path3699"
       cx="100.73065"
       cy="115.76042"
       r="90.147324"
       style="fill:#00ffff;stroke-width:0.26458332" />
    <ellipse
       id="path3699-2"
       cx="144.56624"
       cy="84.37101"
       style="opacity:0.28999999;fill:#378080;fill-opacity:1;stroke-width:0.16388276"
       rx="66.651237"
       ry="46.777733"
       transform="matrix(0.83858552,0.54476998,-0.55512259,0.83176855,0,0)" />
    <path
       style="opacity:1;fill:#00e46e;fill-opacity:1;stroke:none;stroke-width:2.50999999;stroke-miterlimit:4;stroke-dasharray:none;stroke-opacity:1"
       d="m 89.56279,71.287313 c 0,2.692606 -4.828853,2.007494 -5.724313,4.34063 -0.89546,2.333137 -1.133928,7.75469 0.541312,9.449066 12.184871,12.324057 -2.803738,-34.806088 -5.624839,4.179349 -1.187956,16.416632 -4.306966,4.839167 -6.888033,1.53253 -1.503385,-1.926006 -4.770927,-0.545697 -6.888032,-1.53253 -2.117105,-0.986834 -4.023678,-2.414804 -5.62484,-4.179349 -1.601161,-1.764546 9.742999,-8.19935 0.180172,-9.087925 -2.488356,-0.231217 -5.363173,-2.009165 -5.363173,-4.701771 0,-2.692606 0.49517,-5.257757 1.390629,-7.590893 0.89546,-2.333136 -3.587034,-17.796448 -1.985872,-19.560994 1.601161,-1.764545 9.285979,10.169676 11.403084,9.182842 2.117105,-0.986833 4.444742,-1.53253 6.888032,-1.53253 2.44329,0 4.770928,0.545697 6.888033,1.53253 2.117105,0.986834 0.05113,8.915329 1.652296,10.679874 1.601161,1.764546 6.869455,-2.634858 7.764915,-0.301722 0.895459,2.333136 1.390629,4.898287 1.390629,7.590893 z"
       id="path910"
       inkscape:connector-curvature="0"
       sodipodi:nodetypes="sssssssssssssssss" />
    <path
       style="opacity:1;fill:#00e46e;fill-opacity:1;stroke:none;stroke-width:4.16617632;stroke-miterlimit:4;stroke-dasharray:none;stroke-opacity:1"
       d="m 128.09206,169.32238 c -9.5451,23.57037 -8.28086,1.69964 -10.25524,-6.78877 -1.15003,-4.94422 -6.32944,-7.16398 -8.7796,-11.48367 -2.45018,-4.31968 -4.39707,-9.03583 -5.75992,-13.8624 -1.36286,-4.82662 17.40973,0.36371 4.62426,-13.6814 -3.32694,-3.6547 -6.4432,-10.19119 -5.14686,-14.31557 1.29633,-4.12439 3.2155,-7.39674 5.57605,-9.782772 2.36056,-2.386048 16.25155,-48.268694 19.31345,-48.847764 3.0619,-0.579054 7.93465,27.894172 11.33502,29.19069 3.40038,1.296535 -5.76063,19.799347 -2.38466,23.040096 3.37597,3.24075 21.09511,2.13216 25.39205,4.62199 8.38621,4.85933 -10.17998,15.53565 -19.47115,25.4121 -3.89651,4.14196 27.37417,-0.33713 27.48675,4.42006 2.64924,47.82987 -20.8814,-10.27257 -41.93015,32.07741 z"
       id="path910-4"
       inkscape:connector-curvature="0"
       sodipodi:nodetypes="cssssssssssscc" />
    <path
       style="opacity:1;fill:#00e46e;fill-opacity:1;stroke:none;stroke-width:3.05983448;stroke-miterlimit:4;stroke-dasharray:none;stroke-opacity:1"
       d="m 42.662206,164.56329 c -9.5451,12.71414 -8.28086,0.9168 -10.25524,-3.66195 -1.15003,-2.66697 -6.32944,-3.86433 -8.7796,-6.19443 -2.45018,-2.33008 -4.39707,-4.87403 -5.75992,-7.47754 -1.36286,-2.60353 17.40973,0.19619 4.62426,-7.37991 -3.32694,-1.97139 -6.4432,-5.49725 -5.14686,-7.72199 1.29633,-2.22474 3.2155,-3.98989 5.57605,-5.27694 2.36056,-1.28707 16.25155,-26.03671 19.31345,-26.34907 3.0619,-0.31235 7.93465,15.04645 11.33502,15.74581 3.40038,0.69936 -5.76063,10.68001 -2.38466,12.4281 3.37597,1.7481 21.09511,1.15011 25.39205,2.49316 8.38621,2.62118 -10.17998,8.38011 -19.47115,13.70759 -3.89651,2.23422 27.37417,-0.18186 27.48675,2.38423 2.64924,25.8 -20.8814,-5.54114 -41.93015,17.30294 z"
       id="path910-4-3"
       inkscape:connector-curvature="0"
       sodipodi:nodetypes="cssssssssssscc" />
    <path
       style="fill:#f9f9f9;stroke-width:0.26458332"
       d="m 55.862,194.26862 c 13.5442,7.70023 28.852886,11.75872 44.43295,11.77964 15.54467,-0.0389 30.81514,-4.09683 44.32856,-11.77964 h -11.09519 l -12.49969,5.87339 -9.69069,-5.87339 c -3.13272,9.05077 -6.94363,7.25061 -11.09518,0 -3.121405,-4.90447 -7.368809,-0.23791 -11.095194,0 0.716343,8.55356 -6.968848,0.82914 -11.095188,0 -2.476726,-2.54515 -4.661069,-5.69943 -11.095189,0 z"
       id="path3699-1"
       inkscape:connector-curvature="0"
       sodipodi:nodetypes="ccccccccccc" />
    <path
       style="fill:#f9f9f9;stroke-width:0.25913939"
       d="M 139.72139,34.605664 C 126.41045,27.520928 111.56534,24.153438 96.633985,24.831629 81.739105,25.567991 67.279987,30.307033 54.660676,38.588462 l 10.632599,-0.497851 11.725711,-6.428344 9.539459,5.432645 c 2.61254,-9.182222 6.342033,-7.554873 10.632588,-0.49785 3.202367,4.759472 7.071817,-0.09297 10.632587,-0.497851 -1.05465,-8.512801 6.6426,-1.141001 10.63259,-0.497848 2.48301,2.431453 4.71205,5.484544 10.63259,-0.497851 z"
       id="path3699-1-8"
       inkscape:connector-curvature="0"
       sodipodi:nodetypes="ccccccccccc" />
    <path
       style="opacity:1;fill:#ffffff;fill-opacity:1;stroke:#aeaca1;stroke-width:0.62552249;stroke-miterlimit:4;stroke-dasharray:none;stroke-opacity:1"
       d="m 54.073773,89.762471 c -0.965824,1.136079 0.316096,2.537639 -0.568696,3.833144 -0.884791,1.295506 -2.423906,2.584873 -4.494639,3.796324 -2.070735,1.211445 -11.628911,-5.587717 -7.684356,3.328791 0.887508,2.00617 -14.905175,-7.099658 -10.137846,2.43054 1.122885,2.24471 -8.509026,2.59306 -10.76001,1.02357 -8.027342,-5.597026 -6.793809,-0.34532 -9.381051,-0.50812 -2.8510104,-0.17941 -5.8743897,-3.11439 -7.0111784,-1.89458 -0.9904679,1.06278 -9.373806,-1.51948 -3.65039257,-3.135792 1.90122217,-0.536914 1.16172087,-2.476861 0.56869001,-3.833144 -1.34195623,-3.069133 1.09865666,-4.581153 4.49464646,-3.796325 9.2156195,2.129782 5.9905645,-1.925245 7.6843525,-3.328785 7.329074,-6.073162 8.687826,-3.479984 10.137845,-2.430539 4.486337,3.246972 12.623659,2.308374 10.760013,-1.023574 -1.12409,-2.00972 12.373113,-3.158602 9.381054,0.508121 -1.279452,1.567948 4.999189,2.571234 7.011181,1.894578 6.889881,-2.317136 6.224178,0.108299 3.650387,3.135791 z"
       id="path976"
       inkscape:connector-curvature="0"
       sodipodi:nodetypes="sssssssssssssssss" />
    <path
       style="opacity:1;fill:#ffffff;fill-opacity:1;stroke:#aeaca1;stroke-width:0.62552249;stroke-miterlimit:4;stroke-dasharray:none;stroke-opacity:1"
       d="m 108.90446,120.75759 c -0.96583,1.13608 0.31609,2.53764 -0.5687,3.83315 -0.88479,1.2955 -2.42391,2.58487 -4.49464,3.79632 -2.07074,1.21145 -11.628914,-5.58772 -7.68436,3.32879 0.887508,2.00617 -14.905175,-7.09966 -10.137846,2.43054 1.122886,2.24471 -8.509025,2.59306 -10.760009,1.02357 -8.027343,-5.59702 -6.79381,-0.34532 -9.381051,-0.50812 -2.851011,-0.17941 -5.87439,-3.11439 -7.011179,-1.89458 -0.990468,1.06278 -9.373806,-1.51948 -3.650393,-3.13579 1.901223,-0.53691 1.161721,-2.47686 0.56869,-3.83314 -1.341956,-3.06914 1.098657,-4.58116 4.494647,-3.79633 9.21562,2.12978 5.990565,-1.92524 7.684352,-3.32878 7.329075,-6.07317 8.687827,-3.47999 10.137846,-2.43054 4.486337,3.24697 12.623658,2.30837 10.760013,-1.02358 -1.124091,-2.00972 12.37311,-3.1586 9.381053,0.50812 -1.279451,1.56795 4.999187,2.57124 7.011177,1.89458 6.88989,-2.31713 6.22419,0.1083 3.6504,3.13579 z"
       id="path976-8"
       inkscape:connector-curvature="0"
       sodipodi:nodetypes="sssssssssssssssss" />
    <path
       style="opacity:1;fill:#ffffff;fill-opacity:1;stroke:#aeaca1;stroke-width:0.62552249;stroke-miterlimit:4;stroke-dasharray:none;stroke-opacity:1"
       d="m 146.82419,83.560138 c -0.96583,1.13608 0.31609,2.53764 -0.5687,3.83315 -0.88479,1.2955 -2.42391,2.58487 -4.49464,3.79632 -2.07074,1.21145 -11.62892,-5.58772 -7.68436,3.32879 0.8875,2.00617 -14.90518,-7.09966 -10.13785,2.43054 1.12289,2.24471 -8.50902,2.59306 -10.76001,1.02357 -8.02734,-5.59702 -6.79381,-0.34532 -9.38105,-0.50812 -2.85101,-0.17941 -5.874389,-3.11439 -7.011178,-1.89458 -0.990468,1.06278 -9.373806,-1.51948 -3.650393,-3.13579 1.901223,-0.53691 1.161721,-2.47686 0.56869,-3.83314 -1.341956,-3.06914 1.098657,-4.58116 4.494647,-3.79633 9.215624,2.12978 5.990564,-1.92524 7.684354,-3.32878 7.32907,-6.07317 8.68782,-3.47999 10.13784,-2.43054 4.48634,3.24697 12.62366,2.30837 10.76002,-1.02358 -1.12409,-2.00972 12.37311,-3.1586 9.38105,0.50812 -1.27945,1.56795 4.99919,2.57124 7.01118,1.89458 6.88989,-2.31713 6.22419,0.1083 3.6504,3.13579 z"
       id="path976-8-7"
       inkscape:connector-curvature="0"
       sodipodi:nodetypes="sssssssssssssssss" />
    <path
       style="opacity:1;fill:#ffffff;fill-opacity:1;stroke:#aeaca1;stroke-width:0.62552249;stroke-miterlimit:4;stroke-dasharray:none;stroke-opacity:1"
       d="m 158.01953,148.56539 c -0.96583,1.13608 0.31609,2.53764 -0.5687,3.83315 -0.88479,1.2955 -2.42391,2.58487 -4.49464,3.79632 -2.07074,1.21145 -11.62892,-5.58772 -7.68436,3.32879 0.8875,2.00618 -14.90518,-7.09966 -10.13785,2.43055 1.12289,2.24471 -8.50902,2.59306 -10.76001,1.02357 -8.02734,-5.59703 -6.79381,-0.34532 -9.38105,-0.50812 -2.85101,-0.17941 -5.87439,-3.1144 -7.01118,-1.89458 -0.99046,1.06278 -9.373796,-1.51949 -3.65038,-3.1358 1.90121,-0.53691 1.16172,-2.47686 0.56869,-3.83314 -1.34196,-3.06914 1.09865,-4.58116 4.49464,-3.79633 9.21562,2.12978 5.99056,-1.92524 7.68435,-3.32878 7.32907,-6.07317 8.68782,-3.47999 10.13784,-2.43054 4.48634,3.24697 12.62366,2.30837 10.76002,-1.02358 -1.12409,-2.00972 12.37311,-3.1586 9.38105,0.50812 -1.27945,1.56795 4.99919,2.57124 7.01118,1.89458 6.88989,-2.31713 6.22419,0.1083 3.6504,3.13579 z"
       id="path976-8-7-9"
       inkscape:connector-curvature="0"
       sodipodi:nodetypes="sssssssssssssssss"
       inkscape:transform-center-x="11.920395"
       inkscape:transform-center-y="-64.282779" />
    <path
       style="opacity:1;fill:#ffffff;fill-opacity:1;stroke:#aeaca1;stroke-width:0.62552249;stroke-miterlimit:4;stroke-dasharray:none;stroke-opacity:1"
       d="m 83.624637,166.26126 c -0.96583,1.13608 0.31609,2.53764 -0.5687,3.83315 -0.88479,1.2955 -2.42391,2.58487 -4.49464,3.79632 -2.07074,1.21145 -11.62892,-5.58772 -7.68436,3.32879 0.8875,2.00618 -14.90518,-7.09966 -10.13785,2.43055 1.12289,2.24471 -8.50902,2.59306 -10.76001,1.02357 -8.02734,-5.59703 -6.79381,-0.34532 -9.38105,-0.50812 -2.85101,-0.17941 -5.87439,-3.1144 -7.01118,-1.89458 -0.99046,1.06278 -9.3738,-1.51949 -3.65038,-3.1358 1.90121,-0.53691 1.16172,-2.47686 0.56869,-3.83314 -1.34196,-3.06914 1.09865,-4.58116 4.49464,-3.79633 9.21562,2.12978 5.99056,-1.92524 7.68435,-3.32878 7.32907,-6.07317 8.68782,-3.47999 10.13784,-2.43054 4.48634,3.24697 12.62366,2.30837 10.76002,-1.02358 -1.12409,-2.00972 12.37311,-3.1586 9.38105,0.50812 -1.27945,1.56795 4.99919,2.57124 7.01118,1.89458 6.88989,-2.31713 6.22419,0.1083 3.6504,3.13579 z"
       id="path976-8-7-9-9"
       inkscape:connector-curvature="0"
       sodipodi:nodetypes="sssssssssssssssss"
       inkscape:transform-center-x="11.920395"
       inkscape:transform-center-y="-64.282779" />
    <path
       style="opacity:1;fill:#ffffff;fill-opacity:1;stroke:#aeaca1;stroke-width:0.62552249;stroke-miterlimit:4;stroke-dasharray:none;stroke-opacity:1"
       d="m 195.21699,107.75654 c -0.96583,1.13608 0.31609,2.53764 -0.5687,3.83315 -0.88479,1.2955 -2.42391,2.58487 -4.49464,3.79632 -2.07074,1.21145 -11.62892,-5.58772 -7.68436,3.32879 0.8875,2.00617 -14.90518,-7.09966 -10.13785,2.43054 1.12289,2.24471 -8.50903,2.59306 -10.76001,1.02357 -8.02734,-5.59702 -6.79381,-0.34532 -9.38105,-0.50812 -2.85101,-0.17941 -5.87439,-3.11439 -7.01118,-1.89458 -0.99047,1.06278 -9.37381,-1.51948 -3.65039,-3.13579 1.90122,-0.53691 1.16172,-2.47686 0.56869,-3.83314 -1.34196,-3.06914 1.09865,-4.58116 4.49464,-3.79633 9.21562,2.12978 5.99057,-1.92524 7.68436,-3.32878 7.32907,-6.073165 8.68782,-3.47999 10.13784,-2.43054 4.48634,3.24697 12.62366,2.30837 10.76002,-1.02358 -1.1241,-2.00972 12.37311,-3.158595 9.38105,0.50812 -1.27945,1.56795 4.99919,2.57124 7.01118,1.89458 6.88989,-2.31713 6.22419,0.1083 3.6504,3.13579 z"
       id="path976-8-0"
       inkscape:connector-curvature="0"
       sodipodi:nodetypes="sssssssssssssssss" />
  </g>
</svg>
