<?xml version="1.0" encoding="UTF-8" standalone="no"?>
<!-- Created with Inkscape (http://www.inkscape.org/) -->

<svg
   xmlns:dc="http://purl.org/dc/elements/1.1/"
   xmlns:cc="http://creativecommons.org/ns#"
   xmlns:rdf="http://www.w3.org/1999/02/22-rdf-syntax-ns#"
   xmlns:svg="http://www.w3.org/2000/svg"
   xmlns="http://www.w3.org/2000/svg"
   xmlns:sodipodi="http://sodipodi.sourceforge.net/DTD/sodipodi-0.dtd"
   xmlns:inkscape="http://www.inkscape.org/namespaces/inkscape"
   width="210mm"
   height="297mm"
   viewBox="0 0 210 297"
   version="1.1"
   id="svg8"
   inkscape:version="0.92.2 (5c3e80d, 2017-08-06)"
   sodipodi:docname="moen.svg"
   inkscape:export-filename="C:\Users\melvin\Documents\GameProjects\PlanetEscape\Assets\Planets\moen.png"
   inkscape:export-xdpi="96"
   inkscape:export-ydpi="96">
  <defs
     id="defs2">
    <filter
       inkscape:collect="always"
       style="color-interpolation-filters:sRGB"
       id="filter1646-8"
       x="-0.012"
       width="1.024"
       y="-0.012"
       height="1.024">
      <feGaussianBlur
         inkscape:collect="always"
         stdDeviation="0.90147324"
         id="feGaussianBlur1648-7" />
    </filter>
  </defs>
  <sodipodi:namedview
     id="base"
     pagecolor="#ffffff"
     bordercolor="#666666"
     borderopacity="1.0"
     inkscape:pageopacity="0.0"
     inkscape:pageshadow="2"
     inkscape:zoom="0.7"
     inkscape:cx="302.79437"
     inkscape:cy="643.30843"
     inkscape:document-units="mm"
     inkscape:current-layer="layer1"
     showgrid="false"
     inkscape:window-width="1920"
     inkscape:window-height="1017"
     inkscape:window-x="-8"
     inkscape:window-y="-8"
     inkscape:window-maximized="1" />
  <metadata
     id="metadata5">
    <rdf:RDF>
      <cc:Work
         rdf:about="">
        <dc:format>image/svg+xml</dc:format>
        <dc:type
           rdf:resource="http://purl.org/dc/dcmitype/StillImage" />
        <dc:title></dc:title>
      </cc:Work>
    </rdf:RDF>
  </metadata>
  <g
     inkscape:label="Layer 1"
     inkscape:groupmode="layer"
     id="layer1">
    <ellipse
       id="path3699-5"
       cx="100.91965"
       cy="115.19345"
       style="fill:#ff6600;fill-opacity:1;stroke:#c21818;stroke-width:3.28883505;stroke-miterlimit:4;stroke-dasharray:none;stroke-opacity:1"
       rx="94.243141"
       ry="93.109215" />
    <circle
       style="opacity:1;fill:#ff9955;fill-opacity:1;stroke:#808080;stroke-width:3.16499996;stroke-miterlimit:4;stroke-dasharray:none;stroke-opacity:1"
       id="path1650"
       r="14.967093"
       cy="73.502434"
       cx="52.060581" />
    <path
       style="opacity:1;fill:#ff9955;fill-opacity:1;stroke:#808080;stroke-width:4.95368195;stroke-miterlimit:4;stroke-dasharray:none;stroke-opacity:1"
       d="m 136.30749,65.904455 c -12.79072,4.9e-5 -10.68646,9.474294 -10.68662,22.56023 -1.1e-4,13.086135 -2.1043,24.828555 10.68662,24.828605 1.89849,-0.007 3.78887,-0.25375 5.6286,-0.73328 0.85674,9.35146 7.17071,16.41449 14.68385,16.42587 8.17276,-1.4e-4 14.79803,-8.30071 14.79807,-18.53996 -0.005,-8.93324 -5.09396,-16.59178 -12.10521,-18.21749 0.0991,-0.872995 6.9543,-6.286671 6.95809,-7.16553 -1.6e-4,-13.085937 -17.17268,-19.158396 -29.9634,-19.158445 z"
       id="path1650-5"
       inkscape:connector-curvature="0"
       sodipodi:nodetypes="ccccccccc" />
    <path
       style="opacity:1;fill:#ff9955;fill-opacity:1;stroke:#808080;stroke-width:5.38550472;stroke-miterlimit:4;stroke-dasharray:none;stroke-opacity:1"
       d="m 122.81491,134.49187 a 26.293324,24.66805 63.010842 0 0 -33.913678,-12.23493 26.293324,24.66805 63.010842 0 0 -10.049285,34.6247 26.293324,24.66805 63.010842 0 0 3.580245,5.34774 16.80039,19.301843 63.010842 0 0 -7.672959,22.61567 16.80039,19.301843 63.010842 0 0 24.823933,6.21093 16.80039,19.301843 63.010842 0 0 10.663634,-20.85346 26.293324,24.66805 63.010842 0 0 2.51931,-1.0862 26.293324,24.66805 63.010842 0 0 10.0488,-34.62445 z"
       id="path1650-5-8"
       inkscape:connector-curvature="0" />
    <path
       style="fill:#c87137;fill-opacity:0.99215686;stroke:none;stroke-width:11.96220493;stroke-miterlimit:4;stroke-dasharray:none;stroke-opacity:1;filter:url(#filter1646-8);opacity:0.36"
       d="m 160.30902,229.46815 c -10.17218,-14.17931 -65.943835,65.70202 -50.49457,157.66076 -3e-4,188.17097 152.54192,340.71407 340.71289,340.71484 179.31853,-11.41417 344.71134,-153.85427 287.8227,-203.28967 -59.59298,0.0541 -98.29707,-46.20927 -122.49428,-49.74425 -24.19721,-3.53499 -33.88755,35.65839 -58.31018,18.05447 C 533.12295,475.26039 509.19087,382.60513 439.41308,405.84932 243.43452,471.13316 258.14746,333.4859 160.30902,229.46815 Z"
       transform="matrix(0.26458333,0,0,0.26458333,-20.410715,17.764881)"
       id="path3699-3"
       inkscape:connector-curvature="0"
       sodipodi:nodetypes="ccccsssc" />
    <path
       style="opacity:1;fill:#ffccaa;fill-opacity:1;stroke:#808080;stroke-width:3.16499996;stroke-miterlimit:4;stroke-dasharray:none;stroke-opacity:1"
       id="path1650-2"
       r="14.967093"
       cy="64.166664"
       cx="91.470238" />
    <path
       style="opacity:1;fill:#ffccaa;fill-opacity:1;stroke:#808080;stroke-width:3.16499996;stroke-miterlimit:4;stroke-dasharray:none;stroke-opacity:1"
       id="path1650-27"
       r="14.967093"
       cy="90.133385"
       cx="57.730225"
       d=""
       inkscape:connector-curvature="0" />
    <ellipse
       style="opacity:1;fill:#ffccaa;fill-opacity:1;stroke:none;stroke-width:1.52686381;stroke-miterlimit:4;stroke-dasharray:none;stroke-opacity:1"
       id="path1650-22"
       cy="173.33061"
       cx="-62.101933"
       transform="matrix(0.5495896,-0.83543478,0.80749674,0.58987203,0,0)"
       rx="7.2870364"
       ry="7.1544652" />
    <ellipse
       style="opacity:1;fill:#ffccaa;fill-opacity:1;stroke:none;stroke-width:1.77171171;stroke-miterlimit:4;stroke-dasharray:none;stroke-opacity:1"
       id="path1650-22-0"
       cy="159.42052"
       cx="-74.293015"
       transform="matrix(0.63921061,-0.76903172,0.86572409,0.50052153,0,0)"
       rx="8.1182108"
       ry="8.6467581" />
    <path
       style="opacity:0.36000001;fill:#e6ff55;fill-opacity:1;stroke:none;stroke-width:3.16499996;stroke-miterlimit:4;stroke-dasharray:none;stroke-opacity:1"
       d="M -122.46429,102.34225 H 0.75595093 V 120.4851 H -122.46429 Z"
       id="rect1923" />
  </g>
</svg>
