<?xml version="1.0" encoding="UTF-8" standalone="no"?>
<!-- Created with Inkscape (http://www.inkscape.org/) -->

<svg
   xmlns:dc="http://purl.org/dc/elements/1.1/"
   xmlns:cc="http://creativecommons.org/ns#"
   xmlns:rdf="http://www.w3.org/1999/02/22-rdf-syntax-ns#"
   xmlns:svg="http://www.w3.org/2000/svg"
   xmlns="http://www.w3.org/2000/svg"
   xmlns:xlink="http://www.w3.org/1999/xlink"
   xmlns:sodipodi="http://sodipodi.sourceforge.net/DTD/sodipodi-0.dtd"
   xmlns:inkscape="http://www.inkscape.org/namespaces/inkscape"
   width="210mm"
   height="297mm"
   viewBox="0 0 210 297"
   version="1.1"
   id="svg1056"
   inkscape:version="0.92.2 (5c3e80d, 2017-08-06)"
   sodipodi:docname="Panel.svg">
  <defs
     id="defs1050" />
  <sodipodi:namedview
     id="base"
     pagecolor="#ffffff"
     bordercolor="#666666"
     borderopacity="1.0"
     inkscape:pageopacity="0.0"
     inkscape:pageshadow="2"
     inkscape:zoom="0.7"
     inkscape:cx="577.25235"
     inkscape:cy="477.56718"
     inkscape:document-units="mm"
     inkscape:current-layer="layer1"
     showgrid="false"
     inkscape:object-nodes="false"
     inkscape:snap-nodes="false"
     inkscape:window-width="1920"
     inkscape:window-height="1017"
     inkscape:window-x="-8"
     inkscape:window-y="-8"
     inkscape:window-maximized="1" />
  <metadata
     id="metadata1053">
    <rdf:RDF>
      <cc:Work
         rdf:about="">
        <dc:format>image/svg+xml</dc:format>
        <dc:type
           rdf:resource="http://purl.org/dc/dcmitype/StillImage" />
        <dc:title />
      </cc:Work>
    </rdf:RDF>
  </metadata>
  <g
     inkscape:label="Layer 1"
     inkscape:groupmode="layer"
     id="layer1">
    <image
       y="99.201096"
       x="206.73906"
       id="image1068"
       xlink:href="data:image/png;base64,iVBORw0KGgoAAAANSUhEUgAAA4QAAAHjCAIAAAD0QkanAAAAA3NCSVQICAjb4U/gAAAgAElEQVR4 nOzd55Ik15Un+HPOFa5CpCwJEASoemba2uYJ9l32KfbLvtHOs/SYzc5Yz7YRzSYLharKShHSxRXn 7AePzIwsRYAsIMiZ8yMsmBnp4REVft39f4Vfx//y+veg1C2DKCIAgJSM6ZASiRERRAQQwAQAwAUA MEUAJrGH/cDqJ4UCACB4/wwJU67j9phyQ8IAJEAAJOPywAf5nOrngcACAECCAEIIgAIkkCEjiWEw nMqBq5DrxI4RHhYe9b+J8bjxjmR4I+3l+tIYkzEBgHHUDdFaC0AAAIK3r2TYHUno5/rI6sB0Syul lFJKqYPRMKqUUkoppQ5Gw6hSSimllDoYDaNKKaWUUupgNIwqpZRSSqmD0TCqlFJKKaUORsOoUkop pZQ6GA2jSimllFLqYDSMKqWUUkqpg9EwqpRSSimlDkbDqFJKKaWUOhgNo0oppZRS6mA0jCqllFJK qYPRMKqUUkoppQ5Gw6hSSimllDoYDaNKKaWUUupgNIwqpZRSSqmD0TCqlFJKKaUORsOoUkoppZQ6 GA2jSimllFLqYDSMKqWUUkqpg9EwqpRSSimlDkbDqFJKKaWUOhgNo0oppZRS6mA0jCqllFJKqYPR MKqUUkoppQ5Gw6hSSimllDoYDaNKKaWUUupgNIwqpZRSSqmD0TCqlFJKKaUORsOoUkoppZQ6GA2j SimllFLqYDSMKqWUUkqpg9EwqpRSSimlDkbDqFJKKaWUOhgNo0oppZRS6mA0jCqllFJKqYPRMKqU UkoppQ5Gw6hSSimllDoYDaNKKaWUUupgNIwqpZRSSqmD0TCqlFJKKaUORsOoUkoppZQ6GA2jSiml lFLqYDSMKqWUUkqpg9EwqpRSSimlDkbDqFJKKaWUOhgNo0oppZRS6mA0jCqllFJKqYPRMKqUUkop pQ5Gw6hSSimllDoYDaNKKaWUUupgNIwqpZRSSqmD0TCqlFJKKaUORsOoUkoppZQ6GA2jSimllFLq YDSMKqWUUkqpg9EwqpRSSimlDkbDqFJKKaWUOhgNo0oppZRS6mA0jCqllFJKqYPRMKqUUkoppQ5G w6hSSimllDoYDaNKKaWUUupgNIwqpZRSSqmD0TCqlFJKKaUORsOoUkoppZQ6GA2jSimllFLqYDSM KqWUUkqpg9EwqpRSSimlDkbDqFJKKaWUOhgNo0oppZRS6mA0jCqllFJKqYPRMKqUUkoppQ5Gw6hS SimllDoYDaNKKaWUUupgNIwqpZRSSqmD0TCqlFJKKaUORsOoUkoppZQ6GA2jSimllFLqYDSMKqWU Ukqpg9EwqpRSSimlDkbDqFJKKaWUOhgNo0oppZRS6mA0jCqllFJKqYPRMKqUUkoppQ5Gw6hSSiml lDoYDaNKKaWUUupgNIwqpZRSSqmD0TCqlFJKKaUORsOoUkoppZQ6GA2jSimllFLqYDSMKqWUUkqp g9EwqpRSSimlDsaO/0cADCAIAIBy/+cxq/KHXvmJGLu//P466UMLfOK93v88f/ZTqb8SA+BH/rS3 IRgASMZFmZF2v35itbcr/fRinza+Vm4LxviR9n8eycf+AeovN+5tdPu42wUFAQTutyoyCH1819w/ ZjxY5mPbbn/fv/3T/id5QJD3ln/nveiHParPDd/fXvsl5J1yBT/BcZ0fvuMP3MpaHn5KKAAgAPyp L/nTEeNvcZ8luT/TqR/LjhsTBQghIACAFwCAjAAAJgMAMIHguyH17tf9eDFuCUKA23R7d3YxsvcS fDf7EoBhYASh3cLjAgxg5f4otXvJeGDZrXz/4PVu0bxd+f0ynyz9CmD3hRICEd4HU5RxazAI0e33 nwkywrhVGXcl4f0AwbfLAPy4fZUEAHBMnCjgsgBAJsh3JQEAbv9qGca//hVxV70PAWS3ywkBIAiB ENx/zePRAQDz7gXywVonPazm7CUPZLqtV/BeCUEBI/f15NuNzrArYzS+0fikIDMyjYVP8HaB8WDB ex/m048genz4jMYv/7bGstvoQrDbjnxbrgDAjod+xrvjO/ywYPr+9nr4KmSQvXXuSu/dx/vkqwBI tDx8RgzIgDJ+24yASIIkSLdnaoFdnqNxv749m3xkm753rBckeKdB7b18crskvLPkD/0n7D7brmDs PrkwACAw3WaM20+ijWY/1P2etp8dxxPD/tYaf737jwHy3c97/wG8+9eP2V/b+3+6+0j7vwo+WO2n 1/++d1pn1Q90tzPtvu27I/heQ9ReZn3wzPsL/Li3vi1Lu5rJXbRFyLjLwePz2hr6E7uNdEL3qeJ2 6wrSfri8S4dw99/OOwd+FgRBlt1KgIEYgZEyQUYSBMGx4kM81nwImPYqtYBjlXQXUlH2j0IopLv7 3wB5sN3/XLbbtZE+CIL7jx95lXz8UWj/8eFHe6e99t21/TXdOOqDUHZHkk+fjXen+PsFfsiO/LPt 77ctsnsRBPfOcTT214kmjh/Hjt/r/rmcb5s2YWzuehgHGe5bSe9aVe/+ereGfR+suo6rAgBAIASR +wZMlF1L7V3nyl0qHRtIEAFv12DgtuKtPhMCANltBbht5MbbczwAsAG43ffeaQ3d3yF31VABI3uv /TGpUcZWeQAhIQYUQIBEkBF4TCl7Tey7d9eWjJ/d/mAJwQQAsIuYY7HA2+57gv19GlkAMhEIiYxP USYQIEFAIABAJAQQpEyQCADYCD5oZtu9KwES3DdC0F1DrMD7gebTj+rz+tGHZxJC2XW+EcCf2zpj ixSQAAoR3D3Ce49EY4PWeIi4b+yHd8Z+oAAxoJBWcX8Cd8eBH1gqPrTdxyOAvPPX+8EYn271/Gs2 6ycGIenIwb+Shduc/04evf95L4mO7rbxbg9+b9O+s3+j3DevvmMXUAQIId+ufOyyH1u/CHdRBgBE 3m1vuyuJP/yAp+Xl0z52kBhbH3GvtopANHajyAcaPnk/II5uKzCffVTNWDtiBCN/1YFG/TljvHsH 3/Wm3XWjCwCgyK5L/f1e+729cAypt6mVhPJ9F9jeoxDcVY0QjBAI3qWK/WK5e8n9m77zgybRnx/u 8scHK4oPG7Dxdswxyt2vMHbjChIKjzv7/bCxh8cZvK8b0/4a7p6/L71Ce232D950/1V6PDmI3SZ+ 8Nz71YYP7uM/+RmeAFh47IW/9aE33RUmTRw/1O4Cpg9+Ye9XLFDA/tl+lr1GMoG9LtR3+mr2Ti0E kAEQwAgYYcNg+b771ebbFd4etYwACUR4UF7vzpMfO3zoYeXPGmsOIHDbQw4wNkgDwN2g8f1hNwBW fmhN4C9owEYAIwIAksHcjgod68OUCQCssADEcczxx+s86rO4u15gvwzs79wILO+dDz65OcgwoeBd hTMjIMkYNYyAzTiuDnfdYu/XfO/LFQl9sJ7zo4aBop48PqNxeOg7uz2+UxX5qP0T0AeT5QdHDYK8 k1QeVodR7p96r1n0nVPee9ckqJ/ah3pVH7RzfrA+81472f4af5rTAd7l0Qfv+Td3TdXfEbv/y4MW R/7A87CXNd/fxrse29uf76qV/N4g4v0a5/tXvbzjnWunPvimegnbZ/TnLwmU+yGDd2f6+0Eae6+9 r5nIB84a4xt97BE+VNhIdl1y42LjQALd+382vNdTAe8Oz2C5bZQal70byAMwXmdGKCTIe4+AsGsG QRAQRBQSYOTbvlpBAUIUERLMe6UC4T7W3FVCdiVHPpBZ1c8PAWR3udLtPop3A68+FvL4rtorSAB8 21ZKuHemeOcqyQdtpffrGd9U4J0mttthyj/+4hX1cxj3YhQQ/Auy3c/ROPohe90++wVe/WD2vgtN wADAbfMYjY0Tt5VGuRvqhfcNZu/IeD9Gh+8iwm7w1/1idBtP7+rM+weFRJAIMoMgJAIGsLcbdrxm BQBwvHCKAG5XtYuke2t7MOrgYbJRn/ZgYMZ9wwaSEAIZebepY38wqLzXdLqrnOwtv59QPzK668Hy fHutEhGI3L8F74YN7EoFEBvWQ8DPaXequKs8oOz1ugrfXslOd0+iIIgZd0cU2F3nBMBItLtMlZkA gJkAeXcYYSRGzkSMfBuFGYD26ir3Y8tpN2jkfryJNnYe1v3gy3Fbw7vhEABAgHAc4PGB2Q8EP74F x36bvfk64KML0zhS+b5m+9GV6mHk58f0bicb43jZ2a7H8xN78a7Se6D9XA8vn4e9a6Qk2PWx4Zjt ZHe9CNyO4Ny/hAXGZpD3aqX3L4f759+vuY6p966Y7V8ClQjgNl7cXeDP+02zD8eh0sM/abn4a+wu VPrQ8AzcpQlAIeDbybv2zgF3Hbh3zZaw10wO73S67a35g4+wVyTet9cySuOJaryaDZF1KpbPjT7U 9/TOnDhCAg9H3d2OqLgtTnc7+44AIPPtq+7makEAEmYEEkYAAgIEAs64mzaF5K403td6CIAf7voI TLsOnh93SNCpnT63B/XK27kO+OEZ4W76J2C8q8PAO4/0karmfTnAXW3k7i/7i+2GjdH9ySTjg0se Se6n4xlnY/hUCFafz11mgNvNRMAM8LB/lh8O831/jMc4CoN/ymFa+wXy/t1p76B3W7D57ipM9QOR pDx0fUoJEYmFAA1gHIIH2i5XmNgbSywkADEbBi+U2wGGVBt3XE+G9dYxmCwwRAyJspTGlc4jSx5C GkLoemdsDhEFcogWCWJufFlZj0MqhCboTMguic8Q1q1F8NYAp6HbWoLK2cIQxiBDn7fbQmTmC+l6 7IdKwOWMmeMQUKAoCiIiACJiZpQH6QfgfvIp9QmMLMj702btWiszG0Dps0mCfczbvkbr2XTLzVEz 4yHlIZW2wCQFWscoQ5r4qiAXN31ug2OyjBJy6kLhCgsm9dEKWSEJ2QrFdqhdCZE9WocWkzS+GroB QnKCRgAzF+SsEA/JgjEJOCaI2RtfGCuZJWVE3cA/FX73VxERY0wOkXO2xqQYEYRTn/ptaNdNYevC hrbFnDxJv11OygJzTn1rJFvMDllSTygx9LHb5qEjCZ6YIOehkxwssKS+sJCGrrREwkPXFt5yjsCR kJvaWpPb7U3pwKHEbmsBgDmnwRkAjNbwpPSpbyUOxAlz5ND3m5WRDCl4AiNZ4mAkewILbPYm+VCf BSJmYWOQCNqh7UOHBtBilrTcLOtJNT4jyF3omFKGKChVUxlnsuRtty2qYrFaCEqUyMQZczNvtsN2 02/YSCbIAjEnV/g+DNYbdJgxg5UoAR1nDBkD2NyHTRvWN5sbsOKrwpU+5Jg4ucKut6vEMUrMkNEi GogcsyQiDROfGSKCoCErAiEEAvTWhNCnlETEextCP4TOWsvMKQeB3A+tddS2G4GcUhiGLucY4wDI LKnrt5vNyloyBvu+HYaBiLptyylXVRVjHNrOGyspc0zMPL6pJTMMQ0qpbduyLAFgu93GGInIWhtj RMQQAgAYY4qiQMSu68qyZOaqqgBgGDoU7rabad3EGMe1ld73fT/+aowRyX/m61B7zP/5f/9fZIyz FgFyiAawrqq6qhpf1L4syzLHSIB1UYoIAeYhHk1nDnCzXBXGVsYdTaaGgRgq5wvjwrbtNtt5M3l8 elY4Z42JIXLOZ8cnhiinnIeAAg6pMNYyxH7AxFVRFNZVZbXZrjFzbf3p/AhZFm8vTcjPTs+P66lD St3A7TBz5elkXljHIZV1nTlzzinlGCILkzHvhpIHsVTzyqcgju1ZiMhIiYAJCAUsGclZYpwUzbSc NL4uvYt9V7nCW1sVJSbGzAVZzDyrGmLhED3QrGrqonRkvLHeOhBx1jqkwjlHRjJzypC58sXQdgYw hwgidVkKSOFc7bzEnHLCzI6xNM5Z64wprKMkGLPkLEjWGk8WAUUHY3xOiICCcjvMzozPoFjkQhIZ NJKZ0BmDSDyb1KVzk6owxCn0Q7ee1OXJ8XyzXZ2fnoHkoWunTd00xdBvDcJsWocwOISz+dF8UnGM hqRwllAqYyrvMIbSGc5ZJPdDbwylOBDIdFIZlBR7EgbJABzjcHI0Z+HC27Jwfd8akBSH2HcnRzNL wCk0VXE0m8wmtSWQHCWnwtnZpHGGhq4Nfcc5ofV6iPiE276Q3WjfcSAPjkOCcRwxxTaLy+JYSLDr ekC01jAyGpjMJ9bb1WpV1dV4mCFjyJiu20xmjbEmchTi5Xqx3CybyYQcNk1T1mVZldtu2zQNOcuc i7J4/ORxFu6G4AqfhZPEYejLukRDrrRDCmVTbDZr69E4Wq5vJtP66fMns+NZP/Tfv36ZJU3nE+ec 9cZ5P51OEIk5j7O2iAgDszCh5tG/xAd3ISbOBOtuAwBgCEUYxFrz6NEjAuz6rSHTNE3hfYhDTvH4 5KTwLud0dnZa13VdV0RYVeV0Oq3rGkCaZnJ+ft7Uk2EYhmGoytIXRUxx0jRlWeacvffO2L7vy7J8 9uyZdw4Qu64TkadPnrDIbDpNKfV9LyLT6bQoihBCXdfDMDx9+hQRY4wppZxzXdcpxRSHnLMAGmOm 09kwDOOFdM+fPY0xgnBZV4/PH7V9P/RDVVectXL7Q9nNZgOGrLUAYJDKopjNZlNTG+ASbAC52dxU RWmtffnm1dD1E2e/ODntt62J6fnZOQDUpsyzjIC//7ffr1arZ8+ePfv6GQL2EKZVue7a11dvM+fj ZrIlXIRBQEqirx9/+f3Fd6vVcjKZ/OLZFwXYFiKDNIW/ub5uiL6Ynt20q2oOZ81sWtalLXhyerm8 3ixX583RtGnIu3yMlzCYwvV9H3MGyEA4toyKppK/iOzGfTLig14xZLRgqrI+Pz6pcAYgBcDK2HXb QYDzk/PrfL1arYrC5QxP6hOu+OLiovTl+ew8QhzCYIxhkDf5elrPGlsDAEMCgL7rFotFHnJliy+e fNnl7ma5TEPadu2zp49r7y8uLkCstaYx5enxiQPfQm+BQtW3682624SQBQkyh2GwZaVX0/9E7vpV BcEaEyULZDKIIpDZWzufFRi5Kaksy66HP373XVnC80f2+OixczAEWxU4mfiyhPnszFogB2epurpY zwvX1HQ6OakbaCO8ePl2XtePzqu4mZUlbDu42XZ5uSzrett3RHR+PHEGUpDJBIcBbm7Wb6+vnj2e vr3qyJi69jkMnCNzPJkfPXnSXF/3NK2PjjwAWAttW1xfc1EUx8dFYaEdYJg1fd9fLTdROGv++Hzq uiaLkWM/tGXtT06PiCDkrmtbstYV7tn5k5T4j/++YeSu2/7Hf/oNEvzx319tNptvfv1FP0SDtihw u41Acnp8SgYQgBmcg8VqdfrotCzLt2/f9kM3mU3OHp2mlJCknlTD0PWp++LJ08lk8vq1e3x2zgiz xh+dzOfHs7Ism6YMPRtDhLBZ9zFnHoRzNsYYRzmLZNaKyeclIojIzGCMtXZIsSjc8+fPry8vlqsb Y8yXXz5n5m//8G8A8Ozx46Ojoz/84Q+PHz+q67qpiyHGm5ubq6urX371Td/3VVUz82KxGkI3DAMi btuNMeY//O43zrlvv/325uZm6PrJZPLN11+dPz6PMdW1/Zd/+fblq1e//e2vvccUpO/79Xr97bff nh7Pv/rqq3/913+9uLgQkS+fP728vPxus8opHR0d/e53v0spvXzxpz+++FNZT375y1+enp7/j//x P0LfPn/+/NfffN23W2NMBqnKasj8+vXFob/svzMWx7qpNcACRDHG9XrNRTwtJxl5uVluVuvZo9og xW5IIaK1xJJTKq2bmeri5u26v2qa5mR2PK0bb+yj83MD+O13f+j7/pe/+uakmqdZvFksHJAng5kl s7PWABiGJ2fnJycnKcWL6zeZ+fmT509n58Ni7ZKYlDeXN9PJ5NHkeLm4eX35YjqfIUhl3PnsaLlc Xi1uYmFC45bbVeJsjAEgAkSRlJIx5tDf7d+lDx57USCEUDlbl2WBrg/dsOnKgkLfQcxFVVbgTyYz bnuOeVJVc6gQ8Sa/sYkt8Gaz7Ybee7/tuxwDsSDwarPimE6OT1xZL9M1Zj49OZpC5Y3hJr958yYP oXZVA4WkDIQiEocAIhHTzeXNfDorfGEbSpxDHgwYtDaydov8NG5Ha8nt2D5EFGEAcMZCwsyRAEoP s4b+8O8X1tGzZ2dPzk5iTiHBzdX1dts103nb9qtlaJrm5HTuC3hzscwJCWEyoZzg+u3N1ZVklJx6 wFoyXN/cVL5q5uW0qS7XN227cdbnHJ0BAlguLomnVVVWjjxiY2FTuq7tK++PZs3V1VXpzeNHszDA 4vLy2ZfPHMIfv7ssXRlyiH2cTWuH8Paqb9fto6cn86ZcbduYDvtF/68mcXbkhr6LOZ5Mj+qJAYDH Tx/96//3e++xnlTVEUCm+XK2Xa+MG6fugyySRYyFuImrblWW5WqxZuarmytr7aMn8+2Kr66Wfejm p8fGUz9s27YtT06KyrY32+12+82vnr180c3m82Y6CUNwzhnvLt9erP+0PT0/Q4TtdrPdbsuybKpm td6GPsYYc87j4BMiiyiCP3bIsfo0Gk/NzMwi1hrMKecMALPZzBlbl/7Zk0cxy/fff8+cj46O3rx5 03UdEb158+bm5oYM1HVNRC9fvjw+PjbG/OlPf1qvt2Mj6DAM46rOz2YA8MUXX/R9v16uvv7668eP z1+8ePnq1avzx4+22+20aVDk9evr1WIxn8+fPXt0fX2NiGXpcs6LxeL09LRpmpTSixcvAGA+nzdN aQ303cm///EPBGyttdYSUdd1m83qv/+3//bo0fmjR49ef/+y3XbXN5cphdUq1WV12G/874j1VQmE CQSEUSTHOISwhdWjr2ab9er1998Pw/D46MRZV1hXliWnAJYScEghQFxv1+vlqh26yWx6fHoMhF0c Xly+XGyWtvAXlxdnR8dHRdXiiuNgES1iBiiNFYgkMptMCODVq+8Xi4X1Di2dnp7VdU2JnXUxxrZt +5PUHM26oW/jcL1aQuZfPv+CnWFLVLg+hpQSg1hrEXDsoL/rrN1vJNMq7g9EIgC4fwcmABiHTwka Aco5ppTYeWYIIc3nVc9Dacqj2fF2vTlpjgRyTAkGJkfMAhm8LZxxaVhXvizIpyGur1eS+biZO2NL 8r70s3r63eUL49xkNi1N4Wrn0ETIQ85oCyHDYBLSEOPNetMN8cmjs7qoXOryduglOetMVbGmiZ+F ADCIAdndQSkwJ2GG5UYu376t6/Lp0zMiSt0QQxqbQ5xBAt6sVl3X1U1JVFxfX/ZJJs0s4CxyFo8Z eN21ghkcbiL/23f/7m3xq9/8uj7ydl2sbhYNYhqCZAgpvH31fbuqv/ryF7OmukIYAjig1zfX06ae T6rLN7GaTUoPF6/fbtZLZ56DAKdAviDgnAKnsF7Jxevvhy4cHU+Kxls9RnxuIQRXOjJm0kxOTo6G EBbLZdnUzbzu2l5I2iUj4tHJPITu+RdP+z45sUREREOEbhiGPqbISDaG/ub6wlo7n82vrm6uL6/K ush5qLxtZo3xZjKprYN+aG8WV6F/Wtf148ePQgh/+tN3ZVnmLI/OH6f4ar1erxbLvu+tdV988QW7 6tXL1954ESFEACMZxvlLUS8y+NxSSsY4otznCGCccyGE169f/+KLZ7PZrGkaERDgZlIbZ4qiuLy8 IqLpdLbZbFJKRsz11eLq6goAv/nmGyL34sXLGHLTNNb6YRicMcfz6etXl6vV6unTp8+ePL74/iWn YBCcM/P59M2r71+/fv3Lb76Ocbh6++a//7f/99GjR2cn/8f56cl6vV4v11Xh/+kf/9N2u92uV5IT pzibTo/ns1cvXznnyrKcTCbG2m67bquqLH1d14vFAjPXdXV+fnp9fX3x5q2ry0ePHoUUhy4c+iv/ u2FjTpxhyBGzNOSscxnEAxGQZLbWGmOqqvJgEDHE3iKWUDRV1a7WFsyzR4/T0YlxVjhfX17NjuZV VYlI2dRFVV5dXs18NZtMPBBmdkQOqM+cYyzAe+8t0XK57Pv+5OyUAa6vr5+ePZlOJjdv3lqg09PT 1Wr1+vXr54+fPHv8tJdEpb+6uooAGWV2dlLXUx5ussGUEhCGxACAiMYY7aT/SyCTfGD2PUGoqir1 XYwRgeqqdsbV3q4kSz+4wm+3W6zqWTMzSNbazWZjkLz3VVUVVNR1BkOCQNYapMoW1hKdP3LGVr7Y bjaQclm7CVRLIG9dg6Uz1gHEkMbGEmMMETnrSygjtc65ruvCkGpXElkRiSED4jjaRH1mQoDvNjkz 7/Y1AKBdJVA4Qu7j0yfPj0/mBcGr9SbnPKmts6dZIGcY+jxpZkk4howNTCYzHIIxhhmcM2ePj4yF P75My9UKgI9q+vrrr71zVeWHAQCgLMvCeu4DCswn/pe/+MW0qcqyWK02hiD07IiGru/X2/mz6byZ HE1noQdgmU4bg4gIj87Om8Ytl7bbtgapqtyXz78AgLry222MKSCUP/fX+7+0oigEGS3VdWm9WW3X Qxpm5bysi23XiuRNt+GUHj8+6ed1eeRf/vFyNp0Tkffeezg+PjbHAACbzRBC8N43TeM9ICIippTI QFHDs+ePU0oGkBx47733r169evz4sW3g7dtNGHLh6fpqOZ/Pv/zm6WY5WDIhhJSy92VRkDU+hOCs t8YxAzNzTOMkDdrD9nnths8ZggyRs7U2BL64uPjVV794/vy5M3h9fZOBT09PWYSZx+GeiFjXzW9/ +7v5fPLixfeLxZKIiGxZloWvrBlbtCOiIZJnz571bbdYLJ4+fXp8fGyt/cMf/jCWqH/6x98NEf75 n/+ZAJ2x//AP/1AVpfeemReLBREdHU2t/WosXdbaq6srETk6OprP599++y0Z/A//8Jv5fH6zWBZF Udf1eNlTXZeh7TabzTAM471oY4zb7XbbtVVRH/or/7thBREQhBFQ0NA4g4IgdqFj5qIohmFo2xab hpk3m82j+VGCPncdpWQ4WuaqKCpXvbl6093cTMpiVs1r7y5fXYS+nCqQA78AACAASURBVFblvKk9 ohF2hCyMkp1BTnHRXqPkyhZDMWRJm25D3s2O5haMydKtNiEOHBMCbJarP/aDc+7s/PzxyeOU0sDx 8ua6T7GHl3Zat30rImgoJCYiiw7xQ4kKALR99AcY72X17s1IREJOLpseAnfQt0MoaLlZZYMJKRtz s96cH5d1PV0uFimlo9nM+jIzbDm0IXYpxJQ2XU8CZ8ecCayYqZ8w8Ga5HdrgjwsGfnL2BIEYZFI2 fd/nIXhXVbYUsH3bO0NhOrTLDQ9pUtTIkoYBYnZIGcEiOTIDaMvoT+TBSEpmRkQRyZyNkLXWUBaB x2d+tfbbzbDdSBi4aaZDgO+/v0YyXTe0fSACZm7boa5rBNevl8XcH1WwbeHNizcsst4uATj1vcDk uJnO52bbweuLy3azIWsJ0HsPGTjBtKnm03K7ja+/f2Wsc4ayQOmKMAycpo/Pz52Dy8vFGGI2m+14 OcJ6nbuuCyGMjf3GmLo2iNC2bdd1WGoY/ZySpH4bjaeicCzZOXNyelRPfd3Wq02Lhrz3by/enPBx M63XV5sQAqIRwbbtl9d91w1xCMMwWOvbTWeQDFpEKH3pnB9iByCbm65t23EkItEpCkjm1WL9+PzJ 9jJvVlsDLnQph+3l5fX8eHZ0NJtP5zc3N23fD13PZeWMyYIExiIlYRAiQES9Gvrzc85tuo4cEVHK eezpDiGs1+uzs1MU/v3vf48I3/zm14njxcUFM5dlLQIvX75aLpd1XYaQJpNZ27acAcHkLIgmpTRO FPfFs+ezSTmtSk6x9I7Z/Orrr5fL5dXbt8v16s2b1//5P//Tr7/5+rtX38cUIMFXX35BRK9fv/7j H/7tq6++Mgib1fL6+rqqqtPT0267qcvi9PioLs0Xz5567wHg8ePH1zeLcbzBarWKw9A0FQAYY+6a TjNiTjrC48exMSfnnLcWSMhaSTnFhMDGF64RykO7WS0260kze/T8ab1pTqczAsog9aRhwldvLyzR ydnZ7PRkk4a3i2ux9OT8yWQ23fZd7QoUWSwWq9Xq+NGZda6ZTWfHR5NmIjl//+Y1lf5ocvSr3/5m 03ebdnt28uimvckhFZOanNu026Pj4/kX08ViEUJIKAxxuVqdn54dn58B4ZubqwHAGGPGYa8hjd0r IgJ4d28XDaA/FAkhiOwNbribtrMLHSIWZenAr6VtY+fK2lflph8iJF8Xb5bXZaomtrnc3jRVnT1G y0PuOZtkmEWsc2f12erqxlm37dZvL9/ms9zUTdEUR/5oNptdLi+LukopGWdPjo4vV9eMXGAxqZtM wGHwzpTk6qoEODo/OSOQmKMEQETJHPohDsFa+/7stvr4lz2O7ub5fTCHKAAIMRKwIIhzjsgAwdUa 2nXoup4MxCRDyCwwmR5t2raoGldOxjlTqnpiLIQhF9Vk6MO6hzDkmGA6n7q67Pu+mR5dXGxe/vG7 b77+ta+scUVRJAHabNppXRkPVzeb66s3z58+mzXVo2dffPfie7LQd+JcMYS4WeezEzMk2GyHNsSj 6RFY54wPvB26ODk6zkz1zG9X/Ic//fvZ8dnjZ/OinFRN6jR+fNL+PKx3hwnem5z4doL7u5s+Q4xx fnQ8n89FRDLlyG+/X5yfH4UuAWNBfrNcb1fb4+PJn/743dAFA+iN98ZP6tKS28omp+SMnU9nbdtu t1sJZ0RkkcS5aTO5vLx89eqVtdZ7P58ee1sQmMxCRP22r4s6D2zI/vrXzzeb9PL1yy++OocIL168 7Ld9+aw0BQiPY6BlvPIVEazzBJgFmbVy+9mggHMurqK1DgzCwMzJWiuSX1+8OT2dG6DFYgFE3lEe zIsXL9q2n0wCEUynU+eciGy3l0REaKuqKgocJ1Fyzjvn+r579uzZm4ur7WrjvVssls7Z519+6Qp/ fnq+2qxev36z2bQp5RxiWVRX15f//D//9fjkaLNcu7I4PT37/s3bf/mX/4mWckinj84nk+nZ42yt e/32ervaZGAR+c2vv768ul4ul78k+u2vf42IKcTvtn+aTqfGuOvrxc3NTd1MrC8ndZOz9tH+UNYg cdrdwmaIAQWMMSBwNazTEFpJflJvcnixvJjMpifzcwK52i7e3NzM5/MAtvPm1ZvXXzbFeVFuHa04 xeUiGTOrp00xJYCbmysBmB6fXN4s5qcns9lZgLjmdLO4Gbx9cXV53bXHx8eTcl6Xkz7066G9uLg4 Pz1bwACNv+pWpin8rJ7ZEwZ+dfGKCtvlUJZ+iPHLx79YQbjYLpbLJYdovbNkmFkQ76+mF3gYR7Vw fNTuXgcCgBlEkI0gIDAIGwRTOCHqYWjquqqLLLlqbH+dGXnbbZORy+3iTb5KJvsSA8Dr9RVZ+4vj uXMWxDh0GWK2eQObnsJGury6OPNn7qg2ANewvcnt4sV3RHR0cjyZTMzEhGEYoDuezxNk7y1k3qRV UfmymmeIi7RdLpft0LMB6+3Y0JVzhv1p8/Xxr3iU3eQKIjD2NQhABhHgLBkIXU5ikJJIiqmuy22C PMDVYokCiNIP3Xldi4fmhPx04hysVvDm9RUQgjWLLfQMQ+TJpOkS1DPzfPLYOGg7WG7errap8g01 s397ffGr3z6bHE8XXXDWhj6HzG2AAHaxyeU6To6riEU5P1lsIYkkY5i5zXLVQowQyWXjN5FL420D k7pp5o1xcLMeFi0wkLjyatOV3dyVxvgqd/FHTcTxsaltP9dsHn+T67+9JbeIIAiwIOBYjRUBFsMA LJIlcQbIdVXUZc0RLi+vLi4uiKiaNI2dwUBVUckgtZlcvrwK69gto7OuQDQZuU/9Jk3O7aScg51L hJcvL7vt9uTkJAZIYQhD78uiW8XGT8/m+ebmxhclD4hsJKEzdrNsq6La5A3nXDZN6GEyt7+bfJU2 sFisIENTTYCxXTACICJLioBoEBGjdCTAd/fz+sHf24/1Y7fjj33fj63/p5iS+f17HL7/Hl3XGWNC Ss5ba0lyzAgxxrbvl6s+d0PXDujt28UaWUKIaExRNX2QR0+etW17cjL5RffNf/2v/3XTLcnZi6vV 9Gi6Wq1S4Ax8cnJkrX3z+uL6erHZrETwH//xP56dPVquN08ePz8+PfvFL79crdp//f2/laVv2367 aYchrtabvg99GFab9vzx2cnZo9cXrwpXhpi6IVZ1I2i+/fb3lxdXzhlr7eNHT45mx8MwSOZf/uKr ce6nly9ftv2wWK3LoqrKelJPt93YYavDPH4o/C+vfz/+dFfhHds/JlWd83ilShIRQzSO2yPOjqjv +5RS2dRAuB16BiEiEbFAlshk8WiOJtPj2ZEFO/Dw+vLtzXIhlkzhmZCs2c2+xIKIDskAIgCLJJR1 15ZlWVVV33YhhLosvfd923nvx8tTJk2TUtput0gGynKbhjzOx2FMYh5Hs43R5MHkRLf3mlKfQGAA WCARsTUZMY9hFBEhMwJ553Y/Ixpjum3bTCcpxG7orbUZRFJ2ZeHILNarwrpxzjZm9tYxcN/301kj jF3XAYC1djcuYDyT3d3CERGQUQATOGtZJMbIzGjN2PYZQgBEsWS8I2NEZIghhFA4rxv5M7o7vwjC OKEkCVAuU3sCsSJhAMgJmdk4X3pHwDH03ntrzdBtAZiIum7bVBOyJuccY3a2KOqambdtSwgi2Vov knPIZeWt8evN0hlfVH7oY+ZYFnXkGEIqS2/RDqEz5FhS1w5VXRS+2rZrYSxKR2hTDpzBWDTkBHJO 0seehHzlvfEhB0kiJBZthgwZGJmEGNmiBUN94g/ehOmnvp/Cx0LDeDR7348dy/hj1//R+d7RwF7s EAQAFgRGMMxW2EepAxcDFzET57Iu1t3akGsmVYrcDy0IkQFhNBZBKHPkDJkjCBmLANA0dQhxGHpj bEqRWSaTxhgrwm3bGUN13bTttuv6uq6NMdZaztD1WxAqSodgQuyFsaoLBNN2mxTZF5bQxjTMZrOc c845hMDMTT01xmw2m3HYCSIiyf623t0I7G/e56q0/DXr2Q+ju9vpPVwgEa/T+npYBhTjkRIDcLYS U5pW8zQEGSIQZjvO2pENoKALIVRVNV4sP550xhNK0zR93/d93zSNtXZ8ctpUfduNpTfGWNe1c265 XDrnEJGIcs7r9bqqqqOjo+vr6yGG6XRqjNlut865cT1VVbVte35+vlgsENF7v1qtxrHIy5vF06dP F4uFiDRNM472iTGOX9F0Ol2tViIymUxWqxUQahj94fD/ebMLo3e9crs9jwUAzG1QAB6zAsTQF0VR Ot91XTv08+MjXxZvr67GmxMYRAsEmYnFG1v5wlqLiF0Ytn2XQZgQCNHZYRjGqRFEJA9RRCwSOTtI doUfk8dY/lKITdNwSkRkcNf6NV6fCwBDZjRkrSVrRSSlBABoaPy0+wMf744oOpTjEwwYQAZJREwm G8yADMzGmJwSZ9lNfy4yHhcgMxiySBlERJAIAVLOOaWyqgzRMAzjDS0sEqMYZ2McvC+dc+NMxQg0 jvcqisIXDgBijDHG8eoBK2YsQuNGB0MAsNvQhEQEhsY2miwsIkYnifys8EEevQ+j3J9BrJAzIgqb lBIDElGOwRk0xhCBIWROOWeBbMCElBDRlxWhiTHnnMGQNxRTsMYBSugDIljrUooWjRAURcnA69UG UJp6Yiwh0NB3Xdd775pmEsLQ94P3jsjEGIhMVZUi0HVtStk5a61jYGDI4zXSuPtfVVSbdkNA9aRG wdVmBQx10yT58B1Bf+xJ+nO1YH3MT73+jyIEgLs7c+6FUTYM74VRKSq/2axSYueMtd5aAqCUQkpc lj7GzJzKsmZOMeay9F3XpRyqsilK13chpsG70lhcr7ZHxzPO0HYbQw6QOYP3vu97RHSusJZizMPQ GeOqqmCG29vY8jhP0+1fTUrJOVcURUopxttWjPHEgYgoD7/bDx9PfuqW6Y/5qcvbjy3n43wD78fQ 3c8PF07EW95e9YsBmBxQYkQRjzGl2k9yiCaLcTZgDikisDfW+nq9Xt/d92i73QLAbDYb73IkIkVR jLdrEhEiGrqtMWa8/AgRx2rGfD4fhmG8ch8Ry7Ich2SEEJp6Ok4dNV4PN84zNTagWGv7vr8tJ3E2 mw3D4Lxh5rZtx4mf2radTqcppaZpbm5uxoEEY2zdbrdVVQ0x/tBN8r89e1fI5LYY3f4uAMAiu+qi MwYJCF1pu66z6MppE4H7MIgh650vixBCigkNusIZhhhit1mNIcMW3tdVBkmcA2fOCQizMI83IC0c IhIgEKY+eGs4xZBTYavCVACAhrwth2FAgygyxOC9n0ynDCBdPx4/mHlsxEVDhmg8uOz3yY8/ahL9 NAERYQRhZkAGI8gMIBwjABhj0CIAIMs4V5zzrh8GdM6Md1EzZJDaMBCA8Y5jSjmXVWWMSTFaS2Bo G1rgTOgCZzFUlNXdgK02DONxxDsrkJk5ZIiQERDNrrdYRAChnDbjFo8xppwBwHrnvU9Bd/7P767r fhz+IiLIIixyWycxxmQZZ7QurDOhH1IIZekJUJCqqkFEDIGZBSlk7mMiQO9d5JQArLFF4dD4NPSA xhcGgPq+JcNgAIw1jtC6buhizMYgGYfOIdnAnQBV0ylkCJxzhsBs0TIRGSLvhpi9t2hNCr0QOmeM ccypT9mXFaIJKQNQUdUiGDIDmh81kudzhZLPFQ5+8vULoOz9VUBQBICFkQGYkXe9HGMTxma1Nc55 70QyM+QsiIBovPdd1xFZY1zXDcagtX677ay1mIUZhj4zw6Q5IqLr62vnCmGTcwKxxjhr7XjNSlFU wzCEkIwpiqIiopQ4JQ4hIYoxDlFSSszJWj+bHcUYESMRiaCIyTkBiHMWAZEEABAF0QD8mdumHOrO wx97389VWfqx/y4DwA+HweEn33eMfXd7GCICIhGt1+uj6cwDbdrtAKmoSgQe2q7tU1VVOecY43ht UAgh5zzGkqZpxmbL8bZJxpimacawKCJ1XXvvY4zjo3Nu7E8YJwdNKVVVVZblcrkEgOl06r0XkZxz 27bjLUDHHtqxRVZEuq7zxXS8d/qYgL33ZVmOYcN7XxQFM+ecx1s6OedC0jHHP5TdL3y7YgQAAM5b EZHMLCLCyMLAIujLgofQxVQaa8sqpTQMkciu11s0xjsviH3KhsE6V9T12IgVYhIRBhFCREKEsixj zswsADw2qjNzzCgkgSmjA0tBjDFkS0gQUghDMJVx1jnKJCb2qe07X5UMwjnnnMfoDCwpxF0301hv 2/sHax/upyEgCu6mThkvAkMUkd1tBWj3J0ABBGYmY5KwFSHCDMKcgSBx9taFFMMwMAg5m3KOKXlf JM5IBIRDDHG8XVvhQwjW2RzC2HgGhM45YUggGYE5304BCCSAiCiwXK3GaYetc0jEzMCSYxpbbtRn gQI4Dm1BgfEWkAjjALvMLMzCGTKDtcYYum29JuOME0Gwrkhx6EMUJGMMAApSjJkZrCuctWSMMIUh td0QYsxZOKey8GVVttsejI1ZCNH5Eg3ExJkB0JAx3jlBbvuQsiDZrg+WHJLNmUPMTGSsB0IWSVkc EKJhwZwFkDPnlCIzlKUHNCEEAKmqAoCGYaAfeTL+WHf252rp/NHd6D/1+nf/rF3T6N2L3xkvSGMT BiFHLk3pXJFSyCIwXvMM6LzvUmu9sWRiHpDIkmvjtvQODHKSLAkAQh9FhJO40qeQY0wEhsDkyClm IjLWOONT4tBH58gaJ5hD3ztXADChBeCYckqZQMAhCnlb5JzjkADI20JE4pAMWYCxTZRBCMY+gY9f Tf83N2b0Y6v5yPM/dj0fvAx4PDYYeHBafT+YPnjTj6x/zKMlWeddFthsNghc+SIFHm8Wv9ls7tpB x7bPYRjGYCoiVVUZY5bLZVUVAGC9t9YKoisKBlhtNjHGIUbnHBGllMZr4dGYxWKBaKqqMsa1bQsA RVEQWQBCpBAGgIGIrPXGuOl02odgnWOAIUYBQGP6EMauPzTGOJeGIaRERAzQDcOhKi1/jywB3l85 uxfdxvhPiLvZzsdJXDK3fW8KDym3feetq6qKmYcYxjEZcHt0Y4NCmISNMTFkZjbGAKI1Zrwt5Nio vpsdRnYXRwBRUVgRcWQs0q5nFiClNNZaEFEQxrI4duaiNUAILERkiYAImENKBpE/NGZUR3B8GgEK IAHKOJQfcLwBtfd+7MIaOzLGbYeI471khRAA0BAAjDcgcIUfn3HOAkAIIXF2gCklW3gyNqWExpC1 IaVuGAoAICqqipmT5Dj0AIyIRd2MvScWxyq1GEAi6rbt3We+y80iQkh/C9eh/6/xeBs+784qCABG AAHRWhELSZh5HG8HQCICSGOT+ThUhozzBTrvu64rioIIkSNZctYjUoyhrHwB1VioDMhYflKWmNPY 0MXMaCClJJJ9WaEA///s3VlzHFmSKGZ3P0usuWAHtypW9TpjM9Z99XB/iExP+gV6uCaZfpZML/oh kt3F7vTMna5mcd9ArJkZy9lcD5EAEwTAIrpYndVF/wx2CCQCGck8JyI8/CyZEiPw0NteVADQdZ2n SETKEDMzgtZ2yKagIkYCQm0zjMPntIFCS8wuRIBI2iCijwmRbZ7FW35owk99sbkpKPxc+/3rnv/i LLocSIwAgLQ8EkEjETERI3NV1EjUdV1KSWtNZGKMQ1OpqlFKCYCqqhouBHU9RkStaejrZOamaYjo 7t37p6enzKCUGT6/p+t6RMyyzHtvTGYMDGN+hsuQUmbIVzGzUtZaYi6H8crO9VmWISpmNkZrrYOP zjnC84aPw/VumMKAP3Vf2mcbPrGW5x+6UvGaB2/ywSd1LxPoKeV5EZ1XqLIsY6aQIkLK81wZHEKF IXM5jPc1xng/pLd5GK85XJ4AIISgtR4GDQ4Lfg1/NRqN5vM5nC9Dnuf5+ceG4xDIeu+dc8P5Yeiy z7IMAGKMWuthR0QUHZelHTaw1hpjhrPfsF/nnPdeaz20zL7vh9WgxKfQw63qpdnmDAAQvCciREIi GhZyJWLgPgRlNCFCYoiJFACDSlCWRR+8c46Zh4xV9KFpmqKuAiellcmyGOPQtbrsQ1/GM5iGXRJe DAklxCHd5YMHABpWPCcMKXbRgwJEQMTlSkCgFGBICYCJAAAV4vCxwqtHokxg+kHEw5kkJY6oE0MC GmbGJhhqhDnGiAyoYOgyj84rWEaoQ650uJAMV5dh4I73frjBiD5AYmNsDJFDzIxBZtd1BDCMCV52 4qRlq2TC6ELwfvgsY4U03OsQYJmXKaUY4sUdi1KKkFJIP4cw7pdRXlg5cBgYMEZOQRGf56RTQgRI KcUsL4caiSm2wQ89+MPl5DxmBQAYpq0Mi5ZfDPBSSMO4i8VisbxNjTGltJrtTsA+Brjo7xuGMGo1 dLwMvX7DNkPMSiv3tMNehquRPx/L9X4RhiHjG68f5vFTB50f6da89vFlhvEne/4Yrw/Clr0l5yu+ pfO2ETkyA6WUEsaYYmRIKSXWWqcQfe8AwCidQkwxaq3bRTOEFCmlIXQYOlIvdhGcTylFHxJiu2iG OQxEhAyQWJO6+H6YBauQhjmwSKhJtYvm4jbJDnmymPq+B0iQGBIgAw2rljEbrd9PoDxfiWWZFsXr 34efNoS82U37vW03/Wd5no8tuDBkBy4/OHyewDDO6jyDsLyb7XxnlWbmxWLhMCqlELBt28iKmZVS Q1Tnzw3VOgz2HaajKaXquh6W4hoeDCEQkdb6ol0NE5hSSkPb6/u+zGoiGjri8zy/+J8O5XBvg4hD +yQC7/0we3sYKgDnKy4PZ7mL08jF7m7qeRBX4f/15E8XP6x2tQxv7vJ45vNIkZA1dc4pxFyZ4cwy vOk+BGMMKhruXRBRkwJCUNR1HRFZpYegxGoDAENydLkMDyEADPlRfT5lakh/DtFtnudN01hrhy2V UsNeNCliGJZzcsEPN9/DK189ePDyMfFzuMz/PEsAGMZLAQekqHRCiswRkLuuM8Yo0iklIlJKYeIh fb48CBVprUOKyJCXhev6kKKm5SFqSA2LG6tMK62HTElZVkP6qizLcA4RrV0O7okxolJDs9FaK6SU EseEiMmHi9TsRVqUz6e1EUNCKX9seSHhMuZABgLGmPentaUJ8RDGkdY2AcQYQ4qRk9VGKRzOA4To o7M68yFwSjCcuJEIEBUF54EwheUVAhGjD5FTXVa9d8NvrbWkVQrRx2C1iZyG8eXRBxe8JmXzTCG5 4DkmVIQMPgaFpK1JIYYUITEQEmACRgZUBIlNZpHBBY8MymhI7JzT+naZwp96Qsltg8jP9fw3vX5c 5sDf732IR0PyCtDGlEUoPWeei5BU5JDg4m5kmAcNAMPIv+FSPVzLh2+GLtQhNm3b1hhT13UI4eTk pK7rYTQeIhpjjDFDCDL04Q5n/ouZjheLqzDzMM1lGC+Y0pArVd774fZ2iI2KovA+DLETLoPRtDyf XF2v6Gfptu3zcz3PTc9+7XCXQGke58fuzBPojNBHgBRUct5nqgi90wlMZoPi3juElBvrQiLSQ8OI MWZZRkRd113UNQBorYfQ0xiDyM45AMiybAhVh8vHcGkoy9I5N2Q9l5/a1PlhTOowSLRpmiGEiDEO O724hR7WtA+8DHYBYAhth19dhKRDum1ozMPkp1u9/18y/L8f/csPbzTMXQBggKSWS3tQAlqJ89Ky i+19EmX41fm0S8DzD/VZHWw0bDyUw7w8dcONxLVJTWTAy90o1x4bV7sRUMrrSgBAUAyRICJGUhEp DsmH5UlqpRqu7Zy5KaC52PjSp40un231spqW9XpdxV97mrzYdHVe59rfyV9MufrewrK2GGMZF2OM JQEjIzAxQjqvR15+pPfywCSGhEyMF60CABjoattb2f5SCX/D9i8+BZ2fzBkhITAsPyrDhJhFKFwq PdgQdQK4ZdD8UyOA85Z5+YUxXU6Cpkt/Ia6zerm/8EHqZ1VQYZEW79pjzG1ghz5mmWlTzwCKDTHo BIzgKTECQhqWer3VS7pV5ydeu3DGR137X/74LsRHrN7kaHX5pH+T80hlebEfItHVwHF4Sjr/tJaL Or7Y10XFD9WjhkplSHCRk7u0zQd5u+vDzCuu/V98cHP7c8g5/TzLoRb4/MqMQ9UgwE1LP6/Albd6 tYTLl3mVrtv7sATLUCJQev964ObjefUehlfC0NWdSvnjSz4PEAfIQAzx/PvhyEQGQkiYAGC4P1yp fab35TLTdL4lXeyFLp8oVks4r+XVs9BPdBSIT3HtIfmDB+z6YVq5jlyeU/A+EpV+1U9FAOnWg99u 7HlAGKYnwHKqwvlPt3tNt4oUARjTp+e+EwIy3XYX4iNWe3j0Byf9j0sImCIMpxsGhvf3x++fHQBW zkfqImV1/vj79T7Po1I4D0yRQfFysw+D0RvE818N21zbsD44OdJ1Fzwp8SKYO49Kl28Xw7Ccz411 MNTmzXV0+f1nZBhG9wHzSgkffn8e5dyIgc9nZ65u9XfSsfZ3ICHgcq3hRAwJ6aOX6uG0noY6u2gO y5uNZcmrZwPg98/2fnu4fHNy/iSrhnj0pyjFx6VLtynLarzIFQxH9VASIACf37b8PPByxcL3P9/o InsqbeJjzu9GLz9y08Y3X0Q+VzB6660RPz2YHu6If8oX9MVZHRai4SIK+YRbnKvJg9U/+eDPhwvJ 1TD32qvZag/+xVOtlte65T2Z+Pwums0PJ9eX16sfu8cPdjT8iHLR+AnQlbtBOo8zh/zoFcuDGy+n xj/Il6eL5zx/6g+So9dsfxHunO/pJ80Ei5t8eFfAy96MYaWLi7FYy98i4vntx8+GJD5/joZZHszL IR+8fAz4Jz8cb/n8P/HqB1+a1QleevjnalT3KWeQ9zeY+GF8cNOzXc2/Xpy8huCV6XadZVe74K/Z 5sqLISmvKwEAhlzjcBsAMPS5flCfq+/5Rcu5eOdXN8aVX73Pz1G7QQAAIABJREFUiL/fI6VhaMf7 cngkXXTTfzCte/hzXtn11Rr/mV38/r6tHrjXJg6HlOel7fnST9f5oZz3x17J7dwq2bk6GEBcdbX/ 4aLqEd5PIj5Pi348j37TPj6li27FDbPdb5JWP6Ht2n3h5RGlEnv8TawtGL11QksaxOd0acwofFok +sEA//exy5XgAPk82lgZ4Q7ndRgvPzOudN+n8w1umqt0NS6B8wGgF6/52kkJH2xz8Y2UV0sE4JXK hU84+FZby8c3Tuep7qHrbmgMy++vlrR8xtUBA6u7uDbovMifXW0JUt62vBatDCBeDfWQgX+gH//9 th8mOpfTR6520RMMi5DjX1ve9JzXlcRJ7mQ+4qLaPj4a6v3ZYznA7pPr669w6/Zwk/OmO7yMW8a4 4kdaX2ZUrNOlbvoPkpqDq/V/MYXoIpLl85Jh2U3zfvEXBj4fDPpBqAoXebLzv4+4DEmX4ea1uz/P uFx7pVgNdofXuVqubnPT/068h8DDrDKE5bCdlbTHUIsf3C0MP60GFxfv9gfT4vF9iIkrm1/3IuA8 R7uyTVrpvb3hb5Z7/8FFrKT8xKW+PuVouYhAL3rdl81gyKeubJng4jJ/KXRBIDifOUvL0YYE72fo EywjXYBblu+f4dNKYolCbpTwvN74vIYRAOhi5MzqmNFlCQoBhxXxP6H863z6839w5qJLT3J+9gKA 9+v6y83J54M3fwLTZ5vAdGu3bXVyfvicLgWjnxKJXutWCbMbn+T8mpfwxkaBV75ZDUdWI9GP7ehy zCRuluA8cDzPXP/w4Xf1Xb02ZPzr3vwPMuIXeW6xDivtAS/SFmkYcfFJfiBBJf5ufHCG52W1rozS wGGVr0+/H/jr3Op+4wfb3l81ukB8go+dtwkxvQ9GefgMwL9FMHrb55e7k8/pw276D1z/Zp9nJa8u istDI7vczvDq9+cbqBu2fJ9Ou/YFrLga5r5/gFdyqNdlUqUp/QBm4AjMiEwEmAiQhk/HG34NAOd5 6iGnleDKu0o35LARgC5V3kdP+jeP5vl4Jf5E86y/wBIALg+hu3KdHn7L6ryz+3LVYPpIHZ9vmd5v zACY3mdPzx8ZSuQPH/mk8srzfLyUMOTj0nkvFsByCNZqLjnRRZ9Hgr+D0durtS0x6N8IrjShVQnP l63F94/89NkjqfR1+nA2/Sf9zV/1q79isx8Jr5TilhK8H71FAAmZGOLKgLEf9uNby49xtQ1I+deV N0srJXx0iOmnuYga116Km31k+NYg4XDbmm4a4v8zJrX/8/L31n7Ej/VjOkeEEEIIIYT4USQYFUII IYQQayPBqBBCCCGEWBsJRoUQQgghxNpIMCqEEEIIIdZGglEhhBBCCLE2EowKIYQQQoi1kWBUCCGE EEKsjQSjQgghhBBibSQYFUIIIYQQayPBqBBCCCGEWBsJRoUQQgghxNpIMCqEEEIIIdZGglEhhBBC /O0QAwAwAjLg+YMJb/4D8Uun1/0ChBBCCPELlxASA8OlABRWfuTzHwFA4tIvjWRGhRBCCPGTYwQ4 T4telXCZHMUbNhC/YBKMCiGEEEKItZFgVAghhBBCrI0Eo0IIIYQQYm0kGBVCCCGEEGsjwagQQggh hFgbCUaFEEIIIcTaSDAqhBBCCCHWRoJRIYQQQgixNhKMCiGEEEKItZFgVAghhBBCrI0Eo0IIIYQQ Ym0kGBVCCCGEEGsjwagQQgghhFgbCUaFEEIIIcTaSDAqhBBCCCHWRoJRIYQQQgixNhKMCiGEEEKI tZFgVAghhBBCrI0Eo0IIIYQQYm0kGBVCCCGEEGsjwagQQgghhFgbCUaFEEIIIcTaSDAqhBBCCCHW RoJRIYQQQgixNhKMCiGEEEKItZFgVAghhBBCrI0Eo0IIIYQQYm0kGBVCCCGEEGsjwagQQgghhFgb CUaFEEIIIcTa6HW/APGzg4gIgIjn3yMArvtFCSGEEOKXSTKjQgghhBBibSQYFUIIIYQQayPBqBBC CCGEWBsJRoUQQgghxNpIMCqEEEIIIdZGglEhhBBCCLE2EowKIYQQQoi1kXVGxYeYmQEAGACZGYAZ eFh2VAghhBDi85LMqBBCCCGEWBsJRoUQQgghxNpIMCqEEEIIIdZGglEhhBBCCLE2EowKIYQQQoi1 kWBUCCGEEEKsjQSjQgghhBBibSQYFUIIIYQQayPBqBBCCCGEWBsJRoUQQgghxNpIMCqEEEIIIdZG glEhhBBCCLE2EowKIYQQQoi1kWBUCCGEEEKsjQSjQgghhBBibfS6X4D42UFEBEDE8+8RANf9ooQQ QgjxyySZUSGEEEIIsTYSjAohhBBCiLWRYFQIIYQQQqyNBKNCCCGEEGJtJBgVQgghhBBrI8GoEEII IYRYGwlGhRBCCCHE2sg6o+ISRGTmix+ZGYAZeFh29G+P+Ie3WZVkRdS/M7esYFnyVgghfnEkMyqE EEIIIdZGMqPiZ00ynb90UsFCCPGlk8yoEEIIIYRYGwlGhRBCCCHE2kgwKoQQQggh1kbGjAoh1odv eT+M6ad5HUIIIdZGMqNCCCGEEGJtJBgVQgghhBBrI8GoEEIIIYRYGxkzKn7W5PN5fuFkDKgQQnzx JDMqhBBCCCHWRjKjQgghfhLM1/dtIN6uD+NzPY/4+3JTvd/kpvZw2+f5XKR9fjoJRoUQQvyiSPAq xN8XCUaFEGsko4KFEOJLp1cvBR+c5um6y0T65GsB8Q9sfPH0eGXjm17VR16t+KzSlfL9e88r2/DN FXG1+Vy75bXNDM5bGsKNO1lPv8uXhonfv/cJABICAQEGAJOGQeeIq2vXD7V1U/nh0188hpfqExkY EK/UMp7vYvn95Zd3XQNjRkDGj78qKT+lvGqotIv3/eJY5mu3vjRF4YMtPvM8Nma+bkZE+iAzygjI yxIwXf4IBvopXtiXjd6XTAwxwfnHXmD6ub3hF03hc7wg+vn8v362CIzxACbLUekQmVCnCBAh9EGh NkpHH3zbGaRcm77tOMTRaFTYLDqvkYjBtZ1SSmvtvE/MZVlmWWaVttpATDElQKzyom9aH0JizrLM e8/MJrOQaQ+JGFKIvusNKYgJEVVuqbBBgYfEAMxMRG3X6SILCoICXWRd12kk4lt8ARMwMcjXTV/A CIyQMCVMAAwYABMAa61DCKR07zxobEOPVkViYzUAh+AhRqtU8j55jwjKqETsOCQFlOlI3EcXUsi0 JmaIcdieQ4jBW6U0IjhPIUbnqjzXiqxSvuvYewg+11oD+K7TiIXNukWDiYP3eZblWaaIgveLZq40 JebhiwHk60d/ESMlpIQpUQSMgJGBEkKiGNCDUWiyxJjS8jLfu9D0DkkX9YiUiYBKazLaeZ8QjLVn s1mIkZSyWbZoGlTZ6aJDY8nayExaz5tGGZPlBShtbK5s1vngE5OxnXeklA9h0bvWBwYibQJgl1Lr gy3KGNiQ8SEoraNzhihyYGJG1pktqyowzOYNKMqLwuSWkVvX+egTMgOQ0QyQEKS8qRyu0IzMyAig +NLlBAGQlxsjJ4LUtm1RFCmB1pYYy6zgAGVWGbIcACJrVMyQEsTIzgVlLCP5mOJwEGMCTD70DJEU jMZV3/chRR+TzYuQOEYusoxjzK12XQMpWK2NUrnJ+6ZToIlVpi1ErvKysIXWuu/7lIAZEyApwwjK aMZ08TVcGYmRGGWO7w+h23wBASql+uCBkLIsASpjURERheCC66zWubVWaw7sXfQ+lvVIGetCZCRt Mx9T70NkYCSbF5EBle6cJ22INKLiwK51hS0IwPe9QgzOITMyQ0pd05RZqUBp1MhsFFpNKYQYIwC5 ELW2KSWOEVJETgoBOZZ5boxxLkAEYrLKQgQFKtOZVZYDY0JDBhOWWYkJhwc16qKous4Zk52cnHkf iXRKkGVFSimltDqYhCEyxPXV4/qp/+X//E8ppZCi870ipRSmyFrhZDQJwfVtWxbFuB4F77wLRZG7 4JvFAgA0Ke9cDFErxcw+BmstIbZt28zmruuH+x1tjXedYQJMVT3y0WFkRaBJ930bGTSBZioyk2WF 0pjb3PVt13YxekO6yK1FnYI3qFGBQhWDwwQWUTMpUonTpydJlzUvOdUbMSLAEI5SImLEIevBROSc U6RiCFppRWizrJsvmqYx2lhlgFN0gVPKsjzP7HzRECEiMScEUoooIQIEFzglazNE8D4opTTplGLy 0WhV5iVzSgyz+UxrY63N8zw4l2JQpBExuADMZVFUdZ1idH0/W8yJqK5rQiJSKS1vQGVw2OeAAMgI xEMzGI41jWw4amAC1giEgAjIzInDeFzn1vR92y7mwMkoYk59343Go65tiTDP8tFotFgsvPd5nrvg i7JQSsXoU0xZbqbjUd+13gXXdSFErRQB+uiIsMzyGIJSKitzpQgDx+B9SkoTpxRCiE1TFjloNNZE 59t2MZrUWqmU0mK+8M7nmTXGRu+PT45S9GVZjOrKWpNi6vsOEhMRI+CQM5PycomwPHkOGVAEHDKg wx0sMRCASmAT6wg6MQEAksls33UpceectoYBGSDEaDKNinwIiEBaISQgOJvNSamqLkiptl2ggqLM Y4r1qD45PXa+R6KyrDrXIaqiLIPrldZt3wCyC64oC1Q0m8+MzUlRXlS9c5GjC54UxRRSSqSV0ToM JwpEF1xKCQkBGJEBcPi/IixPhRfXDXGdW5xmE6WeXR97RgalAIGRQ4zAKXhfFAUhd12bQuLEgJBn mdKmaRvX9TazRuneOQKcbkytNotm0S4aBt6YTAGBAL33HKK1dthd7zoAqOsaAGazWVVVdV0jotZm Pp8zs1JEAIgcYirK0trMeccpIUKmDXNSCCYzkGDRzEOEuq4VUowRAPI811rPZrO2beu6ZmZmHrJs zjlrbQghpXR8cqa1yfO8KPKqqpqmQcSmaZQiAEDEi+vU8C9+wTc/OnAABSEGhqhszpBCdJr0wcGb qi5SCsfHh5mxpJBQORfrqpjP54og00YTAEBKKQJ3bVuWeegdxFDkFhNDisCsNaWYSCcIIQTHnBii BmDvY9vmVUWEbjFnowNh33eb9US5MFZakY4+RuciYwqONeeauO1KAACmpjekvOtR6Ui3S4BLkPIJ CJjh/EaNGJKPBpRFw5jAJYVgHOdo0Noqr6JPzOic16RVRLfosqRiH5GRkAljiI6YbGH7FJCQSKeU eh9H1kLCvu8NmcTQOd/3TjMhEJH2vidEk+UhhJhYK8MphpCMUYtZwwmKrGRGTMuvvuuUUsNrllr+ DBgAgJYd4hcPEjElxJSAISEyoQJMDEkBz4/fVnmmvEvea5XnSiMiBGbvQtdCilpbRYjAzFyVBSwa TKE9m9uMVIzHr4/Go9FiNptOtosy7zoX+1Yp0CmkLnqlEBGVIYAQI6aoAFSKBmyWaY4hIkNwKXkP wWhgn+Ynx8aYzBZoTAgJQ9CMWqlyMnGu84tFF2NKiUjnSpVl2fQ9MSCAlFfLWwVljAQMpNlHRxqV USl0LvU60yH2AQJRxswRHSIaZQAghTjaKJxzZ4teKQXEJtOkcdHOs8KiAm0VkAbDCcO8OwmQu9AZ JsbAqCL7yB6AE3jGkMC72HW+qaoiUyakvusbrTWgQmRmRlSKyCgNAENmfPWk8ekD0r5st7r4JsAE kIiW12yOKYWoNcUYu77JjbXaMHOMXhmdUkiRkVNuNRFaTV0XOKV2MQ/O5daAVou2dV0TXJ8ZAymk hFmWOd91vc+yLIQQguv7tq7LENzxcde27XSKSqNWuusaq1VeZEQEAN57pZRCCsElHHKXMXAqiypy cgGccwo5Ju98DNFprW2mARMSK40xRqVRaQSXhgetNbvlZghhcXaaOPRKtU1z9+7dpsEY42okCgDD cIUvuS9f/c//+/+WG43MGrGwNjof+76wWV0Ud/f2NqcbudLJ+Uyb/Z3dSVUrwExp9mF+fGpQTeuR JT0qqzIvqixv54vC2Pu7++OiKpSpspxTNKR2pht937d9R4jTsrLaGCKIqShyDZQBbYzGk8lkYzoN TZd8KG22UY5ybXJjy6IosrxvWw2kmDeqUaWt7x0CxBhZE0sO7PNBAB4yHchEjIiKGYBTSJnJyywr bW5B+6ajAKOyNtbGyO2sGZd1lVfT0Ti3hWK0yhqgOq92N7dGeR07xy6VNp9MNkip4CIAGGVH9ahv nVFqc7pVFoU1OTDkWZGY63pMiN18sbWxWRUlMlVZUWY5Jo4uEmO3aEdlPS5LDarIMgPke0+0zNZI ZvRzwOUd+7LvkokJWSOb6BFZEysCImDmZLQaFabUMC5NldsqN9w7Dn5UFnlmqjwfjaq6KE9PTowi QhV96NtOE9R5XpeZgrizMR3X5aSqpqOaIE3rUeh7TH46Hk1H5ajMjSFg9DH2wSXfj8tiUlchOGCv Cbank4ywd13ClFu7PR1vbkyJOXrPPmTWbowmBNAt5mWe+64l5Gk9Kgs7rcebGxMIcTabaaUZkRgA Qcqr5cVN3nCQXWRGYSUzahKqxCYBMIQYYvJ5kU+3pjGF1rd5ldtcMaXWNcpgWRekMbPaZroLnU9u NB1vbG3Uk7r33ensLCvyzZ2ts8VsPJ2MpuOmXUQOk61pWZfGqo3NKWoMyW9sbehc5VWujA4cfAoR QjWqEgRlVQCnLJWj0uZZ2zeckjZ6+C8oRcyMjPh+1PIQeF+cQCQz+nkkSg58H3tAZE4ACRCZY13X +/u73aIhQEQ0xmRZtrW5hUTHxyf37t4t8+Lo6Gg6nmxtbdVlRYQck9YaEud5vrWx6VxPgNpoa7Kt ra3FYg4ADx8+9N53XRtC2Nramk6n+/t3siybz+ez2Wx3d288GR0dvrPWKGWyPO97t7G5sbuzY4zO bbaxMc2z7OjkOCU21tSjSZZlRZ5VVWWMWSwWbdt+8803RVEcHh5aa2OMdV1vbm4654ZhS/v7+9qo s7PTrc2Nnd3dyWg8Go9GVf3u8FCTGrK5SEiAMLQ+/KKbmrY+ZsboBJhQ9V67UGflznTz7sZ+E+Ya 9b27k+fwbD6f71V1acsITEA++qePnwDAg609bY1PMSPbxE4tuvF4fGe804Ueas5s/u8vH3eu39vc KW3+4vBt0zQVmXE96r0Lzruuh5i2qvHdnT1WpMnAZPft0WudYHO6obVOgAFgHtt5OyeA2hZ3trYA AFKYu04pkwBudTtBX3Jt/5CEALA8KgAAmAAjACCjQq0QVaKdjS0F6k2E2cmpsuWd+3eP52fY8YO9 BwoUAUdg5vj8+cvtzd26HhtUADCxxex03vbN/sbuu9nR7Oi1zc3mxuZoVC2OFtubW9uTHYbAjHGy 4X3sF01tyvHG9rE62BtvGzBpBBnYDrozfQZAd8Z7f3r0p4mutjc3nQ+FySKEN8cHL2bvhv+LhKKf Bw8TO4YfCBmAARk4gkGNqDFx5AScrNFbm5OvN7ba1nFCbc3Ll6+dj199vc0ATQdZATFB6vvN7R2t 4OBo1i2aZjHb3Nm6cyf/7/9yWlm9c2+0mCcAGNXkPVD0RbG9t2N9hJAgAfz5yYELHmIwCJvjalxV XXs2Wyw4mZ3J3VkK3i12dnZskdeZ0QBf7RVvD/3Tx0+bk5MHO/vKwKPZDHxnmDc3Nh5+PQkJIIHV cJgV+u27mQsEgAxSXlvG8wMr4cW5dGXeCV/kTwkgMSYg9uxH+WiyWXrwJy+OTbmxsTVtmubJ4+Oq LHb2tmYnM6O0tfm8n29MR/t39xCBCKYb9cHBYVEUm5vl/r0NzCA0MOvOrLVf/WqbHbStL0tz8OY0 UrH/7RbwFkQAhhD2/u3fvjPK7D/YPj7O3h68brr5/fv37329ExbQf9d3TVca5brYdU1ui+B9Zgww nU/RS8DEmJYN/gvuOf0Et87lIQACh5QAAYm01qNx9U//+LsX48mL589ePH127969e1892N7aOTo6 ahfNb3/9q2Y+Pzh4883XD7Z3N4NLLgRk/sv33798/nxv+84f/vn33z168vrly7P5fGdnb3dna3Z2 4r1/cO/u6fGRI3X3q69/+9vfhhCqyjp3//vvn7x79+5X3z5k5pOjQ0SsR6Nvf/3rg4PDsq52tzeJ gD0rha5rm75rFi0zP3z4cH9v0rVRa1IKHz9++uc///nOnb2+71+8eBaCizFMJqP9/b3FYjaEp/v7 u6fHJ69fhn/6x99Xo7yZ9ybLovfM8fWL18OMLWYghgSADAmA8MtNjmpFGH2AEBnA914h7exu7W3s HJ68OT48IoDxeDw/OdVaG1QnJ0cvX76u6/rbrx5O69GbV69D07EPT188L4qi6/vZ2Vlt8pk+e/Py FSRWRcYavPcW1J16gwCeLp6mpp/s7B841/d9D9FqU1VVabK3b9+eLGZo6OzsbGM0DmV1dnJyPDtr OLTeWa2ZeVzVubUAUNf1/F1LhBJ0fEZDZ9zlQdSUABCj0Tq4GDiO7TgHo7bSs3nfzVp2KfWxb/sU 08nRUbtYpMTG6NC60X6NEZ6+eKJQ3bt3t9jIn796oRhMUqlz2maltiXl6OPIVgbw7ZvDvu+393an Wf2OMsNowbrWPfruL1lW7G3v9NC8fPnadf3W1lZbLHzbQ5U48OL49Ng559xJc0Yjk+QTJj+btHp8 DcMFkQkAiYEUcQJm5hRTCkRZXeo3b4/fvXme2WLv7p0U+xiCc/Fsvnjx6i0po7Q9Pj3d2NrsXTo9 OyaGqshmpyd39vejd2enh/MZLc5m+/v703ry/NXhy+fPv/766/ncPH3xNIRg8sI5ZmajiSBlWmca kD1GV1Z5nmGvuDB6b3fUtOn0+HR2era9vb25WcR7dx99/zilMK60Mcr53jvXdtlsNnn77uDk6Hg0 mUYfOhcA7ZAgk/JquWwT+OG8pcsQgBkgASgArXVKKXIMzOUo0xnaytRbGnQBBrLC5KU+OfG5sVVl mGM9rkMK3333Xd/7rY2trnOz+fzdIf3mNw+O3rRvD143zXyyMekW/tmzZ4vFIjPFfD631nTN7qtX r46Pj7c2d+7evbu9u3F6OgMFTMGFNivMaFIBgq6gqLO+7yNGVIAOFCAqC4yXPpl2Obk7SST6eSkY xuZSSoGURmRALvOCAB7c3w9d9+TR91tbW/f27yiDx8fouq5v28Vi4ftea/365dsXL14AwO9///uH X32VQuCUiODhV18RwPG//Aszl2VZFEWMUSnlnKuq6te//vXJycmTJ0+G0Zxd55qmaZompZBSOj06 cT793tq+758+f/ZqNH748CuD9P33f4EU5/N5ijxbzOfzeTsZ/Zf//P9lWfbw4UOt9Xw+b9vWWjud TheLRQghz/OqqogohGCtLcsyOM8xOudOnp189913eZ4j4snJCaEmQEDAxHz5+PpiabK263sNkGVZ 5xeolClyBnz68hXHRJAic0hxXE8KUxyHk9Ozs5hSgGSLPC8LWxVIpDNLRqsUq1E93dzIs7yeTijx Wdectp02JgTvez/Rxf5o0zlHEbwPfYqmLvM8ByICqkzuqDtrFzHGoihG5QSImug1cM5xMZsbpctR PVssAKCua3V85FM6v2P/VDIS6COIYTl0heFyLzcpZXzyRASAszDP82J3Z+/d8VGRFZOYOtuOVR3z UJgsRmaObeNCiK7vj46Orc52drwhQ4zchZHO9ydbRVXaiDkoHYECswth0Tezmc9rs10WaGzErlnY PD9dzFVBpqg73/XAaI3O8wA83d6abGwYnZX1CJqm98EW5QL8ck0oqejPYbUnYRg9uPwihYiJGZgR ESClFCIA5qrenGZZkY+qrGtT5yhTcQEb2xudDzGByk0+Ut4rUKCNIcLTxfysg2xctd4dHrzb3tgs pvXhwp11c7BkqgwzLEal1uQShHYxTEH13vvQI2VVmVdlNhqNNAGmlFmlAA7fvZ2dzObz+evDN3/8 n/7DZKeoTscdu4XXnmIyaEweFesKNs02WgJUzUnrOTLZW51PvihXuqHofW/2clGkxFfOsUqprutm s9l0czyZTEyu2j6S5npclGXe9/7s7MxqDVj50PvQT6rqzp07s9nCde7o6KiuxpPJJEZomqbruqIo JpNJPjK2sCY3CowyOs+zvLKJ2YU+QWQEbXXn2t73nWtDCtu7u3mZvXzxZjQajaejdt72fZ/rEi0C QGat935I6V5eyExawmfGHJlZEREiMXBMiSMRHZ/MjDEbGxvffvvt9vZ213UYVNs1k8k4y2xR5OPx aDSqT06O37590/f9fD77j//xP965s//8+fOjo7OiKPb395qmaToXY0TkEJxzDhFH41pp+suj74aw sizLGONiMUPEb765n1IK0fvAVamzLGvbtm+7+/fvam1evXqVW2OMqaejtu+m02kIYXNzkwiLIidC a41SlFLUWiGCUkSEzvXeO60VEfZ9N1/MlNU+haIu9+7uhxBiSDSfDxNtEdTqcLIEzOdDX75AmrRK PYM2eVk454dJKyf9LC8L3zsC3N7dadu+a5sF+8nW9j+NxiEEn+LhyXEXvA9BGb25s12W1cHhwexd M+9bZc3G1mahbDp99/T5ydd7XwHTy+cvHtx9cH/vztHRSUpJK5sQ0Nh51z55c5o/wN3R5vbGRgfp f3z/7828bSZNnld38pwB583Mz/vc2pEZvTx5jkwbo43SFsl1bnVsj/hxEoKGa4ZIJYAEjIhZnjsI z1+8uLu/v7mzHTj1ve86tzibNaFDxI3pVtd3JycnxpgQOSvyrx9+a601edHMFx6SUmpUjPL7mTJ6 sVgY0JmxHJNV+puHD733iOj6PvROITHirF10KdSKeoitc6AIFZ62i6KquxD/8uSxtfb+3bv723dV doDdYtEcreGN++VKAATpapsYpiBETgCskQDAR++C2xqPJ6NR7/28bd+dnDIzEUw3x8DQOj6bz969 e9d3kYg4+a5xCrCuR0UBzHx2dmat/Yff/yom+Ld/e8Sl7+nDAAAgAElEQVQJsixLKYWQtre3S4uv jufWeg4QOXjvU0p5Djs7O1WlIcGQsNXW9H08Pj3JlN3e3p6387ZdAI+IgAFihAQJAGxuFs3sbN6P RtnO3hYzxBipD00rOYofcO1Ip6vnYEYApuCctqrv+75p7b3xeDxGxOPj443xZGNjo67rxazpmgam WwiADC9fvgRirezXX9/tmth1LoV4fHx8/+6OtVYhzedzpWh7ezKu68lkwgmfPHk+Oz2L/s69u3fv 3LljjQkxHR68CyGMJlnXVRyTMcZmqmkarfXuztbsdH4we5frEgC6rsOsGP5TCQkgEUNcjoVN0k3/ eQ13kjScTzAxwzDr3Fr76tWrOzu7v/71r40xr1692trdyfO8D37RtfP5/ODo8OTkJCHUdZ0QUkrz tgGA6dYmET1+9nRUVve+uv/s6Us+N6yyUpbl8fFx0zQxxhjSaDTa2dl59OiR977v03g83tqevj04 8QH6vtdaRx8QMcaotc7z/GR2Njubk1bGGCK6f/9+jIGI5vP5MOFpPp+/e/euqqphqaa2bZ1zWZYp pdq2NdZOptO2bbd3dr755puz2Sy4cDaftYvm/ToVDIwAib/wSEb3LigyzDg7m3NC0uT6sD3ZPs1P Xzx/ub21lZe1zaujGDM0L4/ekNa7462Fnz9/82Jnazsr8mevnx+eHPfOTSYTVsAKutg//suj6IPO i5D46Pj06692ANWTZy8efHVvZ2/71fFxSAykGamqx6Xil6/ePPn3Jw/u3dm9t1eqnLTOTPH90yev 37y6u7N/enpCpO49+Nonf2fnHgKG6O5t7//rX/6MuYZ0zcnixs+o/bLr++OG8SrDTAVmGC4PwzAw JArIje89hKTp8fNn//Cr39TTkbH25evTelQqjSG6//Yv/3U8Hi/apnNu2+yqzGqKjHjUnB6fHocU tDVnzem7o0MgrOu6CU3v+5CCi75v283JJgD8+dGfW9eFFDJTJULKDBgVgAOmPnlkNCpvfdeFvpyM Qgj/73/5z3fv3v323sOegp+FCExEuNIGeJm9E7eH6YNBD4QJAIb1wYlIKSKirp/3nlGZg8PZ00d/ QVT//M//fG//wWw2a5v49u3B69evq2oUU8qJSqQYoj8929jYatrOkjIMtSk7mv3ud7/pFvHJkyeL o7PxeBpjBJc8+qdPHzMnMtms5XK8gQycUJHpO3j27BlpKrJ8b2c3JOic37Dq3oOvH/2Pv1iltcGN ehwCuKbNN3YVQ3M6q6qqXzRlnk2r7PGj54eHx5PJ5PDweLKxDYBJmsonIIbzURwEy4wXMAMwDwHH 8C8RaaWQbLvoTg66nbuT+Zl//PKxZrWztQ2Bj4+OjNIaqZ31ucm70B29Oz49mU1Gk9/+7tv93TuP //J4urnJAUbV6EUfirzc2dpp5u7xoycxxszW3vsyzxTB4clsPJnokt48ent6fDrZ2Oxn3C66yWiy Od0Chl99+03TdmBhNBod6xPnOku5UgqQeVjPGoCBAdJyYhbT+YLF4ia3eHOYWWuNHmOMzKyUTjFe LFF8cHAwKsq7d3ePjs6ePXu2vbdLRE3TDF2vNstskYfTk0XXItF4Y7q1vfn9o8fzxaKqqpPT05OT kz/84Q/ffPPNsMSSUsoYM5vNEseHDx/s7+//6U9/qqvRdDrd3Nx8/PhxURRN0zx58uTpsyekbFnX w18hAxERYErJGDMajWJIIcUQQtv2j77797dv3/zxj3+8d+/e7373u7Ozs9FoNISkw+qHDx9+/fz5 6F//9V//+Mc/1nX98uXLedsYaw+ODv/7f/1vOrOFzQ9PjkdlxQiwHJgMCYBo2Vf/xXbZa2RgAEQk VEAxRm7b9jRf7O/v58bmWcaI8/ms6foGQgL8y1++8w/dzsb2dGtz0TZHzeloOqmnk947ADg4OHDB j6vx7p19DjEi6TgJIfUxsdJNt3h9eHTH3tnZ3FicHKcEs9OzmBd3du7uf/X17OhMAScgRGpc36Uw 3dkyebZVj5FhOp3mJntzctR0LTJUebE73Xzw4MF3B2/l2vEZ0TCKny8OiWUo0vQdKUVGG8iLcfXy 5Oj54ZvpdKoBs8wunPcpVKN6d383LyvT5k3fe0xn86PD48Nlei2kzOqew+H89OD0mIxmq01dUpF5 ZGWz77/79+dvX//2N7/duXenffF87rpab+RVOesaH50GrTPLzAyc53lV1q/SawZ4ePfhnTt3QvBN bH0MF8tlrEafEon+GOd9Dxej6GBYoiUB+xgDB6sNGW2tRcS8qL96+BsAYITTWeO7UFi1v7Ofm7Kq qtls9uLFi+Zstrs7/s0335ZFfXB4QqgWM0iBq7yyShPBnd07O9NdZj48POYIdZF9de8rRPZMdNZ3 IbbOJ6SEmABCxMVi3uj2/v29rBo9f3NA9eje3rj+wz+dnc73duoU4PT4xPchOD8ZmYdfPaxH1cnJ SdsukOHBvfvT8UZdV7kt3h6dUFZLa7nJRS+UOv9ODTOiAQBp6Kof5qQzxGUwiti3rvedzQ3EBB5i 51Of2nmrdjcg4tnxqW9c/e1IZ5QC/+rbX2mrT+sza3JQUOi8KioNBAlc03dN75ybVbOqKL6688Dm Rbdw87YhTr7jg9dvnz978dtf/XZvZ7c5bRFV8jAdb2yOJlbrw1fHZ/M5ENylu3VR7uzsNGdtdIEU GmMcOwBESICYEGmZshrOJtIebnKLRb4BABFDCADASIhIqK1VQ1PJ88w5d3R0pJQ6ODhIKQ2LdwJi nucxxhBC23X7+/tFUczn89/85jfPn7/89z//+Xe/+93u7tb3jx+/evXK2OwffvePQ17Te28MZlk2 m81evHj9+9//Ps9zBCqKom1bZo4xLhaLR48eaaO2d/a11tbarut875xz9XiCiLPZLAITqrZrnXPT 6WRnZ+frr7+6c+fOmzdvnj59eu/evfv37//hD38IITRNE0KYzebffPPNxsbGzs6OMebV2zd93ytr 7kx3UkpEtFg0gdMwLCQyw/kkjXj+Fn3+Wvo7of7X/+M/IYNiNESYGGLiEIP3G+PpuBxn1rq+b9sW AMbjcYyx6zsiNR5NADAm3tzYKm0VOZVFbaxtut4aW+WV1qYqK22zWdMs5k1ubB/DIrq577roIc8O jg5jijazyQcLVBaVB04KIqc++i4FXeUmK7IiK22ZiF0MbXBvjg+Pm3nTd8NNjON42ra3Gwb65db1 D0NgBQiQACJQAmIiBAYkbpqmrsqYElv20Z+cnvTBIUJRFBGiC6EorDU5WsyyUuWqDR40zPuuCz0Q BYiRWWUqr/LT2amDqDKDhqiwffIqM2DprJn1wYEhynRS4DD2ENq+6buWEGym+65tmwUCG9I2t8dH hzGEcpRrpKaZLZp5H/rWd6wA6fwiIl8/5uviaEEAHMYRE4BG1jGgIpsickqKiAi0Qq2tUWZjYo2x fQ9nswUATaal0qAwyyxZnafIZVGNR5owzyzZvAQwDJQSV1VV1YYTlKUpS2tt1nVBaVPk1hqTV4a0 bjqeNW1ISQGWWYGgj87OeudtXhDlzaJr2j4ggqoQMbOWAF6+fNM0nVamLOui0ERZkVOelcxAZKwl a22WgTGVD9AFlszoxyADLmc6IiMCMC1zh8NHXKgEOoFOrBJgigQqxsApaq2UsSnQ2WzezBdW29jD 7Hi+mLUaldVZdKltuhR5NB7XoxKiOXx5/Pzpc9f5UTUa1ZXrYopxVNZ1OaqqMrN5kZsyz4FNilxX pe+i63ujrNY5JPQuBB/6zilUzaJ/9fxV3/eLxSKGqNBwwq7pvPMKFSDzsAQmAkBipJUDAH/gQ8q+ 6K+hSSRA/pSvhNynznFAIhc9aqWtjilopYMPz5+/8H0/1FHTNPVo/O7g3enZ2Xhjw8d48O7d1s7O aDweT8Z5Ub549erV69fHp6dFWYYE746OfIxd004nU+fc8fGJ92E8nrx+/bpZNF3XV1U9Go339rb7 3r9+/fb16zdbW1tZZufzeZ5n1uaT6fTsbOaDN9rs7u6cHB0dHr4zWiNRXdVINBpPlSJr9BAIvX37 1jm/tbVVllWMaXNzkxmePXvetu3e3t5kMmnb9tmz52ezWUhpPJloY7Qxk+nUZrYoi3fvjoeEzwdf 9AWffPD/+f5fh/VXFRIyRx+QwShsm35Ul9577z3EFDhNR+NF12qt5vP55nTqve+6bmtry8d4eHxk rS3qajabKaUKmwU3LJaBnqjrur3pdh/6uXNADAE0QghJZzofj89OjrgJ47pkpcsyf/38mS3yhe91 kWmtkw+lttEHpZQyeta3ZDQxRB9GWeFjcETxuiE9qx+09eGvYHmCkfKDkhgMAnACCKAiEbOKw5vZ N+3Ozt7Z2VlwvirqGD0BOOeQQWu9ODnLsizP877vrbVglAuerImcGNEY0/e9cy63tjDZfD4v6xEQ d63TmXYuZEYhU2Z06EPv2swWoKDvfUieCLTWRAQJU0pGKWZ2fcizLKWEw3wJJkQmokjQsksKcDis +f2IHCn/mhLw/2fvzpYcSZJ0Mf+qambujiUiM2vrZnPOnCHfiQ/BGz4eryjCt6DIiHDO8Jzu6aVy iwgAvpiZKi8MQCCXyqroqWpkVeonKdYohIcHGm6Aq6ltZGykBDuNnxNox9rPB/TxpmS2YilE1WJ1 TjHu7h+22+04jqUUVGXGzeZ2yVOStN8/pJRaL5iIHA6Hvl+ZpCVXs7rkab1KMYbDw77ve1Xt+9Xd 2wdDFRHVkoa+KkK/vdvv+1VPhk6tS2G/HEg4BC5LDpU4hJl0WZYUus16eLh7/fDwsFlvRSLAzDxN U1s7n8imeQwhCIeccwiJY1KESnT1T+JnWpIBIDvOpiclO+4e3L5yNShS1S7bUJBKDRUwC8QQgMlI i6lqBRBCWJYFQBeiEFu1tvLkbtp3XRdCMAPUrO2ApERES55qrTEKgNQnM5tLGeKQtY77h/XNBlX3 0yiguZRvnn+T1UhtXMYhddny/v7h2VfP5zyVsgzdpgtp3E8wjpJymZOEcy+QUpvDidPSTu6HPWXp kiLlvh72ZU9C+3miQKnvxnEfk6QQp/3BtAbizWbz8s3rZ7fPx3laahmGwcxevnz5/PnzcRyZmYjm eX7x4kWttdaqqiKyWq32+32ZS9vFAMBms3r58uV2uz3vvSki8zyLxN1u9/XXX799+3a7XRt0t5+G 9Xq3O3RDX5Y8DF0AAdqn+Ob+buhXS8mp34zjeLtd39+/zTmnlGKMRKSqbarD8+fP37x5U2tdr9fT NLVBq91quN89rPoh11KWnPouz4vChrT68PsW+KIzo6GIVqiZBRYyIEBVK0G2Xe1kQY6rlYColtGq rWIhimGDVYfMLNjVxYDhxe08zzSkVbwFoGoKzUIAokhVuT88LLqMqqvtikhzySHFXBccdsyQPmaU aZ5nzLTp189uuSy5ViKqVudgEuNcK6hkthjIDEVtQtt1Wj86oP4TwWhbIc/LD0sASkTQ42bUx/fW zKzvktVCpqplWaZ+SMw8l5lF1jebGEVVhZiMLSBEhqGUJdcC4bbBdBel6+I4HtqOLMVqobpMM8B5 msjYqDOAIlfWeZmq2rAZpmmMfVCzeZyJKMRghlL0zf7uxYsXzLzfP5hpjGJaSq0kRG3lNrUWkrZV 3Lz8e0pqy0Uyo+ppbCBQCcWMay2k0dTMjI1L5UOZsRr2ZBOj26771JWy7EGLkqyHRWeLkUGlFGaz dV/6flxUNh1By1iXFArjgW1GJWJE4ec3qrq0zdtC1FrzOFopbbHoeZyWZbHAXZcO4wg1Ii6lLlYh wVRfvn6VNv163ac0TNNSioYQKvcc4/6wW68HSkG6YEr7u7sUeN11Zcqwz6AZ8LmWAAx6SnXxORg1 M24zgdsDMmZuCVSQtX3RpiXPy8KCruuWce773szyvBhL369KKdPhcLN5VkppQSvU2spQh/3u2bNn pmHoeoXVWrWg63pCyXPZ3Kz7EOc8CfGQ+lU/qNHb13erzTZIEESoROYkhRSbbv1mLnlaKLIpxRhi CkVzvUz1tXuH8fGRLxX3CU8J1o+DiQEDtTCuDRidpxxWsl6vl2mepmmcFyZpEV6QtHs4dF33zdff dV23zEVEhmHouxIk5WWEsbDUUsfDXLIGSSHGfkg5591hzFWr6bzM6/V6WZailvphtVp1Qx9CR8JE JBL6vheRm5ubfjXM47QsUy2162Ippc2vijECCCEAaFvMbzY3qno4HERku719eHhYlhJj1/cSQojR RCSEkHNO0kWOphSiCMeQhEOwWh9Hi55KfDJu+c2T/+3/+N/blwtg1PYDYCImFjboNC+pC0sppeai mrqUS5EgqrrkTKBa61xy6juOQc3GZVa141BcQy4lBFFTNQ0pLNCQgtbapcjMuWZlhBhiCNVq1oLI EALbNM1Fc5BIbBVYdAGLsUERAgnYrJJIy4y9O+jiVBKB9KMlQQlE5OX7ZeuUUtOWDCMyIoNVglm1 eZ6EebNeq9bDYU+ErgtLWVio1AwoBICCTbVIEAksgWOQIMyEwMTMXUpVKzMvZen6LqaQUgJZYokx wIxgIpJSEBEmgE1rqSWHEEMIc15KLn3fxRRKzdM8oUWo0FoLCMJtq3TA7KLDmWCGdmv08ikljmtk KaElodE257IqqCiLUiUCMYhFQgwUuGom4q7r1HScZpgxy5wXCVFCPEy5Fuv6FUj282wgETFQLrOq gYiYoyQiqWo5VwWxhJAiS7CiUZgUxkRqbGCWrJprDbGHKhQQAYOY2QDQuMxKNB7mu/sdQ0JKWqyo phjHeWISlrjMCyjEmOa5RPj4jh/+R2ptYOjpY9U+YwSQAaSsJqAEC4qoEDICSiltz24WCSEIC4EC d0GkFs25MLGZtfzW4TCLhK7rmankYmZ932+323mezSzGWEthkZyzKZVcVdXUVGteSghScmEOealE IhxVreQSQhz6gYjLUmAKoIu9UCiltPSVoaqpoXUKGcBteh5AbdcP97NQYLZlzCMJQ0RhIiwSAIMi 1xxjjCHM8ywiq816nmdhYZEoUlWtVmLuYjQAqiCqORPzqu9BZLXCTKt1Xbcsc855vV4PwxBj6Pt+ HMeu64Zh1fpkdrsds6xWQy1lyQuIU9eZYbfflZxXq2G73pgpAavNuuv6aZ5z0a7rYNrqZOtjaftF 5ZyHYZimab/ft8myLX07jiNBGJxiJ0y1tkUa2keJmOi9koi+5GA0cKlESsbtUyptWzQzzaVCqRYx 3Y2H1AWAyHQVu1rrMk1m1vUDAJ3GZT/269UyLzovHMJpegMEtJtGIouQYehmq6alLosFygZKjMCZ ah2XmhcjZlixOh7mutTAxFggZsRmNRcNTAEcaiUzg2nJRXOUdNwh5iklAwovPygNxmIA6JgVO/WT VahqrYGTkAkALVoWlQC2h2nH1WIIqAoGEZZlyXMNMYqImlUzVTVVVV11K6olT9Nh3N3cPl/qEjmS Fi0oVklpmg+mtFr3Br7fP6zWPQFQZSMRKTmjIsQUQry/v885xxhrLq0zl4jO3YrtBvmY07F28/Ty KeUZHVMgdMofRaaSTUBtN+c20C6QBM2cawgpVNvv91LL0K9NbRpzNwwMGhAlSUSYlonmulmvypSZ eUMRZkEJ3AViVeSpomroRIhRFdWyIhBilxbSWksXeyKal6qKEGKparUQEEIYl1mLrro+WhAOJuj6 2MdeEMZcc82b7UaXKQXK00hVb9YbKxqpDe3QzyEH+TmWx15EJTABBDtH7kxEJmImVc2sfdyrAdBq VU21WkRgDiCoqkiYDmMpJaWOA+32e7P6/PlXqRumaXrz5o2IrFc9gMNhV0oJIbThOmY2dKtlLstS VLXr4uFwiEmIKKWUc6617nb7Z89ezHM2RS06HiZmZmZVnUaNMZFxLtWMFDbnxawCAB1nH5BZm0iP ts4TPDP6CU9Y96qF/qogVYlhqctSclsyaZmXWmtYcYzRRmIOtdo8576LXUxaa1myEoUYraLUst/t bm5vo6Ql53E/hRhTGpacxzwuy3I4HPS0CkjLsA7DkHN5eHjNzDF0N9tnZrbf72+3m2k2NW450Jxz lMDMr1+/nqZDn+L22W1bRa4qcs6BOEiC0TIXptB1Xa119/DQ93p7e/vVi2/GcXz79m2tdbvd3myf laVO01SzqmmeS5smZfrRSqUAvtxVRgH6P/+f/7tF8S0kJyI2VJiAjKG5rrbrt2/vtttNziXnzBwE x4Pb4Ixci4gooU2USymRWp4XEYldmupMRHVa1uv13WGXuq4ueb1eLyUvWherVmoP6WNSQjU1s1pL hMQgudQKDV2nbFpNCJbVaiEjDowQFGrVPj66ifgHRj29/8xvvXwCI4C4krIpkwmxkJEZmRE4iJRS ai0SYkyhrakWhzRNkzB3IdZaGRRCmKaJhGOMFTbPM9o6fyECmKYlpa7r+9d3bzebzf3uIYWYUkoS 7u/uYoybzWYcx2ma+r5frVavXr28vb2F2n48CInEYBUGwEzNupRAtMwjBwks0zKH2LUsy7k+n0v3 VEo4LmZOBTBuE+otkkaqwzJT0D6lFVXM82xaRShEzPPcxcShLeuY+r5/eHjYrG+WZZlzaav3TdOU l3Jzu9Vqd/dvY5TValVLW7CatCLFmItGCbFLOed5nomMiOZlvHl2W0DTNA2hBzDmRVJ82O2//uqF FH379jW6uN4MyDXPM4MIIiJmpHqsEiIyTWMIoe/T/f39arXp+/7ly5fb25u5zNd9zz9vCrQmfWBD Wwmu3T2Fo6FSNapKhbmaZGWo1pxSEpG81JwrEUUOFCRPcxp6NiumzGjTpVNKrV1RawFAROO4J7X1 zXYZJwrChrvd/uuvv97v9zGmGKNqned5vV6P4x7AOI5fffVNrTpN0zKX1WoTQjgcDsyISZZlYaYY Y13KlJfUdSmlUnPOcxtIcGqAMRudan5VUjb28mPl04aBZdEs5fv71xIjd/F+d2dmXRdVtU8dSOuS VdWqppRIQruh4NgzDuZgVktREVqvt+O4V0UIXIqWsohEIguxAymMWdAyrCGEWus0Tev1uq36VErp uo4gpS5WCzODqRQNKYlIrTbuHzablZZKDCIap7nrOpK4LEvkSGymVDVrBQuCJBZM49L1cZlLLvPQ r1frfpnL/f39drPZ7/fDMIQQ9vt9jJJSP4771uP/kQ/XF7yoLf3bf/xf7z91GbgZ2XsjhoCP3tjf S6O89zx9cAwuNupoQ4sef0qPIaOdMxUghsEec1+GzyFX8NmXT2nWK0EimxlDNOuyz1aMIaoaYzpf Ur5svZEde29/EgbovRO8c6Yf8KTQ+wtuW/78lAAcF73n1nC3QBaWQ4VFrgITaPspGR834Gm3HwCf +m41breNj47Ju7yNfeRXAbz/rcLnb5TLn77/F89+YCDg01pvXxiCilUAlQRAsMqmsAAgpQ6mqjpl 3X73h/WLr/f7fQiBTI9v9enNP2+yeblU2IX3Kox+cPwP1ajzmS4P4A9+CuDDevX+WrqX8xCuHfB9 zuXTgtHKukD/9Jc/SQzMvNTSIkUiko+kTi6v0Ie15qeUn/ZDx3z6d5/0Gj70E1/blyj8bijXfg3u l2NPGn1vwFIXgwkiwBMKjNhIVZHz6ahj6MnGQMuO/PQ7OD11r8WfHOYeeST681LSY6OGjI1ImcyA krNBC2swM2o1wQBSw2fRBPu7S/gEx09McCRlqwYqHAAEy2QKiwBoOTAZMycJ2z702yj9NnbSpmU8 cTDAZ9Gj5OUvUR5yuZlu2oiLNvqiBaM/PFbSv9C/FEGX+2u/BveLelojbIidgUgBAwPVVGBGrEXf CwzJlO1pwS4AIP/4If8Zntr6+SjBzoHmsflRyQALqG00XQGYVKmtvmMqbbu/a4dNf3eJX3kw/YuW lVUJ9bjyFYIZwdpjAghGpmxKpgAIBqBtMf05hEFefg5lG+zXBo+2CWS11jac91rfcu4zETp4ZvQ3 7SnBooJJs1UIyFS1VlJjY7O2iMvpKACAtH4306fFu/SkTKq7JjUyBByzE8rGAJMSUMjM2uI+VuUY xJmQEpSgIAjwqyxx3AjXyw9LMVQCgczMCAHWFqAFWEKb9mOmpZYZ85zzpEgguXoDw8vPpzQ8juO/ HNDfxuy6L1kIXgd+2+gpBxuqZZgwqqmxVhixtUWn5b2gU8xAqk/LjP4dmVR3NQwzVJwzozC0aATU FhyFwYzEGKREZKSVntg4+fx8DjnIz7MEQAaGCtgARmGDtlnA2lokGigEBqJ0CNJFBVViMjDhp5X6 k4/08ldXcqmPKx+1By1L6nNMXWhT4N1v1hODP5YINjIDGTGIjIkUhvNEhHbW1u/ytAGj7tfo8voe J1OTPs49YqNTxSBA7RSV/LqRlx8p2SAKQJUAUzYQTEwNaDlyYzVjMoCIBcw8zovRk4aJ/7pbMu7T qpbzINH2oNZqZl/y+pquCRTjtV+D+4wo2or32maU2nE7JsPjMi5GaKkxxcWSCD+VeSr+V+WYEAPQ 4gxig7FWUhgxQfk8oQ1GVE38rvJbRaZmSlap7S1iRjCFwUzYKsgAM1MtKEupxUqJIj88//3jf+SX ee3us2CRYpIQhJmJLQThipYfvfZLc1cWinolcI+IoKZkaobatpswbbtKAGibU7dkWctgGN5f/uuT 3XyEp6VJjn/tJw6Qd7+AU/KbTquStAGi1J5RM2ozphUwIwZ7aus3y0DQ84IYfPGpOyW3GIS2v07g KCHkqvSEj6b65/i3rS3z2baJv5zAxPzlrq/pmmDkmSp3QmqwEJItiCkd7ncxdJpNQjjNdry8VbCR GkFB7+2x+0Ml0AKbp33v/PQB8u7npu2CkwHGaHNVCKRMZCCCtoVjAQBEbAAoqN9XfquIYKDTjC8i gAhizGrtZ9WIlRigWo1UzeyYRn0Cb878NilYRCIWsWwAACAASURBVNq2rsuytHWdPrb8u/sSBfZP vjs7dckagGOfLJsZ2bG3tjl3yyoY0BZltgDk0yVO87Kf9Ir49Od+tITnVX52hmMI0i6i8XlVUUPb MPaiJ/94Ifwr5beJHjeJISNTMNvjUvNG0IsRxn/v0GGvPL9ZjHfuI85dCm1HDedOSE77PoqCCTCI 8nvzoMiO3yxG/JS7jvIT0yRPvaV5fvTnRgDajsnHbQ6Oi0iyKbGyKZ3mt5CRKvuEyN8yUehx2DgA KLGBFczn/npiAwMMYyOmJ99fPK3+m2WeKnA/LJC3RN3ZcTtmsLXxYWA7pr4+bNG2BTseR5D9FG3k 6FMm+D81uPSvu5+ZCU5X4TED2urDOSd6kRkFoW3f+zksRfR3LF3kfswPftyV1JfWcM79fXy4hvvQ B/vqnsPHyzjytNn0k+7iT20cP3my/hOPd592TngBuKgY57e5zTjh0+M2eOPXWrpPIwCkDJDZ6YOs bfv4C9pW4MCvf8VZ59w/THjqXuHut+zU4aoEIdhpa/L2772MZj3Pqn7K+ZXwpJ64p4YIv4VFLj8n 5122To9bhMFGMLLKdKoUCqJTZTiO3Pg1lh6SfoIBbPpOGGqPvfZsWmFkj59uTzY7536iUOHrjLoT OqY0lCGsRUwYlQAyZcN5ndHWLcvHlUefFo8+cZ1RDy6vy1qwSQApGbMRKUBayYwFBmM9ziE7Vo/w q75kHj59ApkSnbOex6eOyxADRmADk7G1OPV4zBO/Hzw58tt1nN343r9P1I/WFvYq8UVgXDsV4eVn Veq7waVehJstEsWFJ0eij37K5HsvP4fykeExDXZZ6gePj/ePX2Gpx7Sulx8p8TF8OVzng+HgPmfF nalXBvfDwmmpQHjp5TGZcVqXvk2ZbzuD4rhDBuHU+8bGsGM//lPouw+8/KzL076vx3VGgeNjMoO1 +W0M8PmyPq710x78OksyMLx8v8SxTpybpAxru8KCoacag1P8ykaMpy4y+sTti92vDb/7z36okfPI q8SXIeD0LeOll3SeXIyGYEzQ9sz5btS+PNrBDPxde3h9FpGWlz9aMnCcHn/EZDiFGER2zpVzqx+n A6//yn+GKNzLd0s8zpc/BxCnB8Y4ruqlxye9d9U595P594VzzjnnnLsaD0adc84559zVeDDqnHPO OeeuxoNR55xzzjl3NR6MOuecc865q/Fg1DnnnHPOXY0Ho84555xz7mo8GHXOOeecc1fjwahzzjnn nLsaD0adc84559zVeDDqnHPOOeeuxoNR55xzzjl3NR6MOuecc865q/Fg1DnnnHPOXY0Ho84555xz 7mo8GHXOOeecc1fjwahzzjnnnLsaD0adc84559zVeDDqnHPOOeeuxoNR55xzzjl3NR6MOuecc865 q/Fg1DnnnHPOXY0Ho84555xz7mo8GHXOOeecc1fjwahzzjnnnLsaD0adc84559zVeDDqnHPOOeeu xoNR55xzzjl3NR6MOuecc865q/Fg1DnnnHPOXY0Ho84555xz7mo8GHXOOeecc1fjwahzzjnnnLsa D0adc84559zVeDDqnHPOOeeuxoNR55xzzjl3NR6MOuecc865q/Fg1DnnnHPOXY0Ho84555xz7mo8 GHXOOeecc1fjwahzzjnnnLsaD0adc84559zVeDDqnHPOOeeuxoNR55xzzjl3NR6MOuecc865q/Fg 1DnnnHPOXY0Ho84555xz7mo8GHXOOeecc1fjwahzzjnnnLsaD0adc84559zVeDDqnHPOOeeuxoNR 55xzzjl3NR6MOuecc865q/Fg1DnnnHPOXY0Ho84555xz7mo8GHXOOeecc1fjwahzzjnnnLsaD0ad c84559zVeDDqnHPOOeeuxoNR55xzzjl3NR6MOuecc865q/Fg1DnnnHPOXY0Ho84555xz7mo8GHXO Oeecc1fjwahzzjnnnLsaD0adc84559zVeDDqnHPOOeeuxoNR55xzzjl3NR6MOuecc865q/Fg1Dnn nHPOXY0Ho84555xz7mo8GHXOOeecc1fjwahzzjnnnLsaD0adc84559zVeDDqnHPOOeeuxoNR55xz zjl3NR6MOuecc865qwnnaFSf9HtkAGD0qf98fOYx5OUP/o6ef/IjL4QBvSiPBzMAGAAlsEFBF8d/ 8EfcT3C8aHZ8A+3xLQUAhqFdYVJqb/3Tz0/2k8rTX/zIOQDCxXX9sOq5z8Hp2j1+Zj/xUfyh74/H a0rK9s73gJKysZLCGB+Wzjnnfg0CmwEwgOkYyRm9fxDBALABgEIAABkA2mOy4y2GGHb+qQIMYoPA +BiTvhfXtCcBpfPpP3LAxYHvle2EFaTnkzMYIBi3Y5Rw+n+k7Z5G+sN/4YtnBCU+Xgtie3y+3ftb JKoEZbSQkdWY6aNv6UeiQgUZwcAgNQJgdrxABLTnW6h7/ClAYiDl0yU+nZNUwThV2nbO1hoBqcej V2TEOIaPrZK0bwY9VwcmVgDgi++Z4zHnOJXp2BZSYgAMJYOxkmlrBeFUth8dm7imSgC0/Wr7KiH1 kPQfwb9WnXP/GXyKPem9OFDpo98v9Kmefbv4KenpmXfO+nh6w7tZEn38Lei7/y5/9/IAKB3/QrvT fRCE8AfZEU+R/qj33iK+fPBz3HKOLZMWMhIUAJkdnzcmY4BPPzUYf9g6wrnt8s6LfKeh4q6EP3oh 6P1j3jnyndxn+18DADawgewc4MLosX7aY1MT8HjoH+h8dS599HPqnHM/RTBiI4WxQnHxhXL5RWPv doleaJ3kCjrdXYxBpwfHO42C1AAyKJ1vUAaokQHawlIjABUf/0arP/DiKwA1vB9/2PnWd3zJnir7 icjAAJMaAGs39+N7aO2ytowT8fk9NqIfCPA/fmsSffeHdlEjzh6v4DsRRkugUrviRNYiWXA7X0uN +7W+Lno/QHlszLz30T4dycfBNgoiwJhblbA2HoQfq0DLxLf2pzGopcyPj3H+rcvnnXPO/RqE2u4W raP8h+KKR/zug1O4iYvhocdIgo+JUjqGkm0U4OMfoMdspv1QrPvjuNJ5WOq5HxmnzOvZYwfg3/VX viAEI1MYg/WdCLHd2klbeFHpMVx8yukfU1zv+9iTRjDS8/jRenyFeC9Df0qj/h2vx/3sPvL+K5hP n9B3j2Q+NybbKIv3PrnHhsd5yKlWYiOAQMZtpAYIfGoDt+Q64JGoc879mgR7r2P9NEL0kh3Hkp4m C5279I+3Cj6P0DohEF9EHu3MbPTREalGpxQI3kml4EcDC20DDYHT/UzVjlESH/t/zz/7T8W8XxSG KRT2fq7xnBy9dJk9/fjJPmDvDwn5mHbeY2hMfDmn6uLxOQDlUzXzvtprazOKAEAvPnn6QU04XbJ3 e/PPozIMABPemSOnx377D/4kvfPs5WP98Qa2c865KwvttnH++j5Homyn+emn2c2nI85DOS/uIsfx XKchnqf4hdrU13N8aQQcb1RtxisbYG06gh2DV6WLv/Uj6Q0G6inn+q6LqVLn051ye58+5xeN7HGS mV0+/fj4dONno9P0lKfQc4vg/Wv2mP06zzZr+Dhd5Rh78kVIepwoczFv6cP8m/uHacM82rjPi0iU cWrJXFQYPTdolY4BqJy+Z9q15vN/HpuX7/wh55xzvxnh8t5NdtFZdp6f3uamXqYnyHB5UznHoMdI QI8/NWlPnVKSH8xsOA4LUwCs5xm1F7MZPt7V/sgI9BiltNm19v7BxHocMPB3LmP1xSKArE0oeUw4 HqPVx+lHyu+n0i+Tk++81fpeZvzcMDh2s35wXc5rHxjz6QC9DEkf5709ToH5qf/33C/ieBEv49H3 MLR1x7fVGyqdkuUKgtppuGclFWUl1NYlcxqM8WEk2trS9G7WlPDRoR/OOec+OwE4ZZ1MT4mx44z1 dtNv84uYCAallrJShiqYTZW49eqeVv8rCjC0lecEpZ2SrHaRc23ofC8BYMzn1OnRh2uLPiJTJoOh jSd8t0P5HB+fGHta9EcYKdmHSzW1eFTfHZp5ylA++Y5vBDKztkwpKRkbKZmcVhhVMjM6T7Q//9rx d08151xNWiR6HijCHo9eDWmb92aPGeoPH5y6Vo7j1NtAZL1cdE2PK3k9tjeMjvGrtJHhP5lnyp1z 7vPHDGVTaFVVVCUDMzMLUyBjq+0gZiZiEyIrmaHCwtBaioCExWoVJquZzGKgmpeyTAySEDjGUnLr vAusQaiWJRBqWQgahCITkcGMiFio1hwIbKp5YdPAIK3QYjXHwDFKWaYoFIeuLJMQkDPVJQKJAxvq kq3UKEFLJQMH4SBgUpjC7Cm3sS+UURuZdxHRKZnVnIWQggjBaoFWJouBYoyAmlVmEFEpRbWGIKq1 1kJEMUYRYWYi0lIYBDWtlYDAAjUttVWBmktg6lNnqnleGJRCZLUACkZioKooSloJSo8xjSlpC2iM 1MeMXhczizCgZlY1l7K0utF1UbXkPBsqM4tICAHQFCTGSEQ1FzZ0MaQgUF11fc2L5iUSE5GZEVEX 0/iw67ouEub9Tsi6KNBSayYyIstlLnWJXQiRzWqI/nn/ByEiIgKgqmaG02MRaT8NIYQQzExVAYQQ lmWptYYQAJgZgFprKcXMmJmZzwe3x6WUdh5VrbUSkapqhVYwhSCRKZSsJaspEYQgMLa2Ou3p3xXf IgegXdxSiogsy9KqR4yx67plWXLO7U7RDi6lqGoppR1jZofDYZ7nVpdSSqWUdhIzaw9ijO08IYR2 nlbBaq2r1ao9bnU1xgggpWRmOWdVVdWcc865nQ1Ae3kA2qvKOV/hLftiBIaZwQAhImLCqY/dYEYg AqhWNTOFmVmKgcgAY4hRsKp2XE+FGEZsIBIRUiIimNW8LCUzsxHMVMSAIhykT6WUupQKiAgx15rz UrquA6mhsgCkqgAZgUIIWiuLtKocgFZNY+Baa8mZCcyhT7HUmqcSYmr3MNVaW7qWwfyDCxG55mNL azGAvu9zzrnUELlLoWTNeVkW4yAQRElKqEuuMCEGS4wJzGQ2zrMVkxSTRBMioxTDsix1KZQ4UUTg 2A8oFQfUpTIQOaQuAFjGhUFVj7sqEFMgAjMR1VpB5zXHVAHfdOfqjGBmRS1rZQ5MrNB2sXLexRhj n4honue8zJHFjJjr7mGXqa5XfTRZHvZVqFuv9w+7wNxJKqVCYGTzNC/lcLu9QSk1l81mwymVZSai 1Wo1Hg7MzCEwc9Vjcj3nbB/fkcH9g5RSaq04hZsAmLnFBCJyvtmrKjMDGPpB7Rh/HFuwqi12aWFu O885ZCGidpJSKoCU0jkmxkWI3B4DUCv/wP/37uPo5NwImaaJiFJKLUg1s5bFaMeraos1nz171lIe pZQWkraztfZtrdXM+r5v9aTW2hotIjKO4ziOtdZWzdqP5nlureJ2HpxCXjPrug5AC1JbzWHmFrle 5R37EgQhqJma4fi5ldZEAFo2ywCYKQgCgBQkVSugREyczEytSujNihGrkSjAQsRqZGokLElCkqy1 autML9BMRELIXAmspETEiEEYQqVWhbKw4tgyFhEIjYdx6FcSYymFzGLXpSBacwhJK5mKmggLs9Rs TGJQ1VKrFTMiEoB84sOPO09Yvtwwi1St1mqEyImZUTPMhFkBM5tzMYKwdClBaVryMs3d0AeWamjB 5Gw150JFh2EgZSiskpkuyzTtF+bQvjXKbLUqMyQQg0PszjchwjGJbloZ0Pc6YB+XtnVXYmyBzMyy kbCIlFIAbTlyCVS0qmquBSzS96QsHPukQbRPHbIxRA1kEKIu9kDE4aGYdasusJCaVi0ll1KiEM3T tCwSA/JihGrabirTMgcWFsk5n+9n7ira+38OIluGuwUK52dwEaHmko8f9ndbES2GOP/iZTAKoNa6 LEuLZs6Jt/PJLwOIH5sT635Z7Vqcg1FcNBtagnOe55YfZeb2zS8i7eBlWeZ5Pv9ii0dbXpOZY4yt GvR9P89zrbXVgVqrqm42G5xSra3ytLbQ4XCIMbZ0+2XlbI2fc3zcWkSt4l3z7ftNC+dHRgKOClTj CjOFMAtahaiBufXD1lqzVjMSkSC9KYwWCpinnUHUSKEGgVFVMWtBoSgHraYwOY31K6VQiJFTNSxL NdMQUoyd2lJqZmYJsVZTK0RkEOKYi3UmxKHUSkxEsRpPy7LqIseuzHVZwEzMYpRqVT1Ou2qVDyzK Pg33yRgwA0/TFELkILkiL4tWMCdiLrUEYRIqpWQlqUREBqbQgaISh8gWjIgIskqrOi0gCSGQBAZx JKbuMM1sgUNg4goNEkMnQihas7UdaCsIwlCr0FJriTG2wcenF3nax9x74q5HCUAwRtYKE1MUVSKa c171fVE9HA5EElNPRBk8TfMQIV1vood5HjJC6kkwTgtLOIzzqgssMdsSicFkWmer3WqFUrKpqsow 9H1/v3sIIdRcWmfKnEsfeehSreazmK6r3eAvM2HnfFgIofW/t/9sUcKyLCmlFBOAUss5RYpzavMU NLTzhCil1JbxYubW0a+qrRPWPhA8mLiqc8PgvWB0GIZ27Wqtrde+RZ8iMk0TM6/XawD7/b6UklLS C8c6k1KrGDHGw+EAoP1KrbVFq8uytHEjl6/hPHSkxb6tvrUo9pwIawe0iufB6C8nmBlARgxwAYGC CSmMghhzUSt1JjMiNiOtSpxEUinFLAErQGs1KmZIzAywWiUyEIOSES+WKxCsKwCMiQMTGSWwwqia FEMlNpOqsiwmHKrWFHpwNC1GQiRqVDUZVqB1VS1ViSMRFVXIajahEqtFSAAzTFXHuszERGLMHJiJ xI4zcPzm9GltOOZpXZ52nYgpJo5dNR3nbAhdNxDJlOeqNYQupmTLcjhMWkpKqetWkqjWOi/ZzIik lCKCm27FXVzKHCgUwzJPCd3QbyJHMq5GSykK62IqREstY64IEa3hA1MC1aVaPcegLYV7WizMw9Ar M/Ch1NgNhTMMtWpV67vEoU5L6SQYSz+sYzeM87wUnXI11MAys6kB1Tpo4VA4BImvdy8Dp5h6q5hA OZeSZ47JmGbTdhdZTNW0iBhzJYJBQow9EUtRKEjaLH13JfM8ty7Uy3hUVUMIBGo98udOVSIahqF1 fxzHnl7kPs+BbIsMTpkztEF+wzAwY1lKrbWNJjz/xXeypD+4n5+7pvv7+zbKs0V7bXSmqrZxF/M8 t0u8Wq3OwzpbTTiP/jwPMO267jzEs4WhbWhpqxgtzdn+RCllvV637vuu685J1naGds5lWdrZzuOY r/o+/ZYFa33wJEoMY6IAiSFIjB0z17KAmFSDmGopVbu0kpiwLKVAqYcgl7LMU0yr0AVTymU2VKJA 3KfQS5/mMidhG3fQSgwzWjJS6JdcinKI/WazojTUbDnPpRw4JAm9gUqdWfoYu1LKYSocthy2Wko3 9MMwmBkJIDqN47JQl/o0bMGMedJZcq5EKkZErWFdjWAV5D25n0QXW3E2RjBw6tZZdVZQWm1vbtNm C8V02LEu+8PD7n7X9/2zr75tY8zvduPNzbPUhWgmIiJxv9/v9/u7cV6vNqHrUxcT1Pb7aR7HaVbV 25tnQ9+D2UoZp8PD4SASNl8949QbCWu1upT5UKZix829zkv3EBv0ccaVRx5XxBRSf/OMQrSStSwi PNw+7/rx7Zs3EhJVla6n2JWlbl7cfPWHAUWXMnG0SMCb/e7u3ohuvvo6rrZ30zIaLVDerle3m5gL SZimw1Tybl+/en6bUv/nP/8ps7z4+qvDfjKzotx3XXfzvE7jYTdqVY7svSFXFGM8j9JrI/BaAqzv +zbIrwUc50F7qjqO4zRNAIZh6Pu+RQBtTOG547X9bq11t9u1TvlaKyDnpOn9/X3rhw0hnCdQElEb Kuau5Tz64nL4b+tkX6/Xfd8DmKZpt9vVWodhUNVvv/0WwKtXr968edPi0ZRSy30CaDnRVmdSSq3O tJ73+/v7cRyfP3/ealEppU1vWpZltVrFGFW167oYY8u2ElHf9628v78fhuE8u67NbWqB6XXeuC9A KGrMx+yjGYM5yBBSqhVgMgYnRAIFwjTWeSwmEtfBYilVZE0hJNiSCWQceqjmYoYCa9MPtkirQDNg RgiiHASMXApUwF3X9TENiGuwSBelq9PDG2ENMeacS+UhDdKvbZrmh/vNZsNpY+WQUsKwoWVBhOqh slGKodsgDliyifWbQIdqtoepWdGSiQ1KZiAmT6F9Chm3VZwe11RiAxdgLqDYbW5fxPUGJkbon68w 37+6f3sYl9XN8/C730FV/uOvh7vdbUzp+XNIQCnoV5tnJb5+ff/w0H/9DWJEnsDYfPNNeP3q1avX q+22+/pbhAAOBF1N+3J3x4z01TdtxVvUJY+7Os/ZQMQxJsDa7ginncoZdrl4kLsCI3Trbfzq29g/ zA93h30VEmzW3KWwOyhhqdjETvq1TTl0Kzx7jmlKcZuGgLwcDnWWXdqs4rffYL19kZfD928fxnH9 uxfp22/s7h5D3+Omr2U06p7dhpvnw3zoQpf+6X+Wv7467O4Pd3uTgJtnorosD10S7wm5rnPWalmW 1gfakqCtB7YlwFJKwsehva/fvG6Jz9ZL284gIvM8t/Gg7aftVKo6jUvr0t3tdu1UzNxyXQDa/Kdz j7Cnta7u8kKcg1ER+ad/+qcWnjLzMAytdbHdbnPOq9UqMKeUXr58Oc9zjPHFixevX78upRwOB2be bDYtV7per29vb1uKdD0M7fzfffcdgMPh0KYl3d/fl1JWq9UwDC0rf3Nz0/LuMcYuJQPakNOu61ar VSmlnby1ozwY/eW0bnptG+u0WagkLLG7u7sLIRCUQCEFYgGWUlEn7VbJiCstFDoM60RQcNUR1BmV YpMqmJg4gOPh7jDnJYjlRVdJQuhC2hAv85S3t1te38D48HAYpxLTsFoPElcxMCTmebdUG2SDeEM5 Qmq/+gohlrIAQTLdP8zMlnU04iGtwMO4Wx4eHvou3nyzjXWnJde8WC2VMoNIQUawCOBi7VIv3yn5 nenHjx+8UlRB69U63t7YWP7yt78yyXe/+/b+bm8IN7cvNi++g/Q47AvFzfPvHg61X9M07V+9erXZ bJ69eCEhKUekvmr99z/+hbT+L//rv6h0Frpn3/wOLH/985/fvLl7fnvz3e++6dabu9ev7v/HH1c3 z5k51JznfZkOVHMXpEupjPPxxtK+0Mw3fvwlXexyZsQwkJ2fYCMoAcSVKHY9NhuYlsP+kDUd236y KPJcctU4rHF7a/d3f3n5N377tlr59g+/T6u0e9i/ubs3yHq9RtdjmbvNZnqYxv3+xdDD8P/+8Y+B +A///F/ielvl+zf7/dfDoCHUwADkm6974jd3h7mijwkk2XTbD7pMV3vTfqPYuJ6qw3GVZwBQGCvU 6J39WltA2bJKALquSykBaDFiy26qqpq2jtRSyna7Hfqhar27u7u/v08ptZigLQF22VPfOus3m42Z vXr1qg03JKJpmlarVYtyWuINHol+Ti5ns+E0LvP7779/8+ZN3/fPnj3DKWNKRP/6r//KoP/yX//5 f/rd7//yt79Oh3HZLM9ubsd52j/sSimBhZmF+ObmJuf8l7/8ZZqm3//+94fDodWuw+Hw5z//ebPZ fPfddymlNnj04eHh7u7ucDi0oaXTNPV9/+LFi1LKy5cvV6tVG6765s2beZ6HYYgx+mz6XxRL29LE Mlthqty21al49uyFVmFezTMdDoqC/W6OYei6NaQ3i7lILhWLwoaUnjO2oMGMtUIgbIwKVIqBg9DQ 9YAWrRBerBZmHsJUF9R5nu6neW82z/NdXg4xdrtdnqcqspa4Id4Aq8NEw+oZuJ93y2HSXElN1tvn m+2zTXeDmawK86AgsLAMmE/DjREDYqDABiMxEhw3gvJ/H/+nxxXLGWgBB5ExGVlVq2VYr1HKX/77 f6u7h22gv/37f9Np0cw3268RVvPLh2mh1c3vK60yeqOVoiuVSwVCktgZuBZeioSwAQ2HXRFe3d58 DYRXL1/vdoc+xYe7u4fXb7ubm1VI88N+fHN/Mwzz7m5++6bnwnUKlvM8KaESt/GFbYtRsSJW2NOi P6/TalkGMjpvHE9QDUZWrNZKEiFhEcZq6Lbr+z/9h5quX3xtXf+QC7ZfTVOZKhMn4rTbPUBYoUp1 nHfdakir9fS3t9//+59yLuvb2816i6X89U9/ptUmrYZhGLDP+e7w4vlXCAkWUdmIQowUSFFnq1Dd v72PX327efFdpogQ3x4OqY+l1toWGCac/4EJTPYzdZBcnvnX+O/JleG9NStI2wbR1VQJJmTHrfCI BER2XpIpxtj6T8+/2qUOp3V52oKjzGxKfTeUotO4bNY369UWxkO/Eo55qXmpWmFKwjGGrhZrudIY 5dmzZ21AYVuHchzHUkrrvRUhZjqnZt0VtTEVdFoBtOUmX7x4cTgcDodDS1K+fv36/v5+u91O0/Tq +5erfrjdbP/H//ffBVRzSRLI8PbV61U/fPPiq3mcrFSoPb+5ncfp+++/J6Ku63a7XcuGTtPUZtPP 89zy8efE/Ha7/Zd/+Zeu69rI5ja9aRzH1WrVFmcQkfV6/fXXXw/D0ELYy8lw134vf2uCqgoxSVtp nlU1T3NZJA3b1WqThg0ZB6pIXYwP4zSnIQJMIcZYK4yXRRUhxBQHiLCOLCATAhMEbDFGYg1Dv6or IgMnhZRaSqmbzYCYbF7MaggiEoKoWa46U+F+WK1lnbXSNIbAMbSdS7Xv03o9UAplmXNZyHQ99DEm aOn7tN6uYTzuXtb5wJgDKEgkqQAXPe456j7twynqIIsxalWQIYbtqr+/fyjTvg8yTfOQuhACiorE 0A8KkZRszNz161W/vtlg6DDu7u7fsICIhvXmn/95ABnUXv3lP5Y8bW+2gWm7Xm1W/XQYUXJ9+T2W 5fcvXuyKgpAYJAhtS0irMDIO9bRvZNsMjitCTwAAIABJREFUltuSdb6u5M/utHXZ5XDiKMGyMYhj VGDMmfu0vr3BZh1rJWbEuL199mpZsGROiUOszBxD6jswimZm3Nyuv/6nP9T7/f7ufuhWliz1A6ce qjebLeZ5td3c39+TId4+e9F1L37/B3A6vH5Zljz0z6HVrK66FZj3+72ZvPj22+X+AUvpum4/H7KW tnyHL+/0cyOGncaXa0uWt++K82oW56rSlmw8HA4tEGkhSBt+l3M+99u2XtdhGM6z42MMql0p5e3b OxFJKXVdVMVut8s5tznXLZqp1Vq//Dkb2v50y8i2MLfNdPF1Rq/rvJZCu0ZtQHDO+Wa7/dOf/mRm bZhmu7htkHHktiAtEeHF7TMiGnf7cRyH/aHrum9efEVE0/5Aw3C7er6U/ObNm/1+v91uU0qtCdTS 5y2+fP36da11s9nEGOd5LqWcZyy1ytPaMK3CrFarNghkHMe23n6rzO6XEIySglnFiM2IjMAsRHdv 3qa4SqFb5rlSTas+xD4USylBFy1LYA1sWuZSlCAhUmslB0JrJDMbzPZvv19K7ud+PMwxdl1QlCAm tVKdRaWgcBRhBlNlLFpL1YPlst4m6frDw/1+qqvVKqSAZb/MD6qlqNmE/W7UOgsyqVXNVHsSSFyB U+CqrDCDQVXbXDiAj1vYH6mXH5Z23ij8mDsxozbRuajp8nCXhId1W8itDMNKSZ89v8EqIc8wAyoz Pd8Ob+cJy76WRbXGYHn3dnf/Oq3WTGV887dpHG83W45J85THfR13ty9u/vhv//aXN39bD8OL3/0O /UBv37x6+Xb7zbdtcS5mtF127HjDu5jyT1CAfDfyX9p5WwEyIq7aNqyQqqal9HEVbm8ROAhpzdLF 29vt/d2rOh8kChjViuL/Z+9Ol+RIjjzB/1XNzI848wAKRx1ksaenZ7r3feZR5tM+z8q+z4jMrAyb TXaTxSLOzIzDDzNT3Q/mERkACiCLA1SgSP1JSVSmZ1wIt3BXVzNTyzln9H1K43y1vHrwEDF9993v +65brVaOuZ7VqEO6vW1Xy7zbufW63cwGGds0bO9uFrpG0O3N6+72Tq/XCEQxcUpgphif/+EPi3/6 l2q9wjg4gubI3k+rDb9zhfKxZjX9/c2O4rLISUH6ofQqKba7XekxP66ldMhlhtLvWTKjJQqp63ro o3Ou1C3f7fYllCyjS1NKMU7Vf0oytczKB1Ai0VK9vPT5zmYzACUNdpzAxEw2f+m8TsvHHks79X1f +sFLYfkyEf7u7o6I1uv1y5cvlWl5sc7Azeauruu6rpPKzeZuvV4v1itVTSpJpwbmvW/bdr1elw76 zWZTCukvl8vjxPxxHLfb7Xa7PU5OKs2vxKMAVquViLx48eLu7g6HZZzm87kl1z8d7101XVlKYvYu uNBUCM1VYCWGU+eIsiJHH9wyLBAkDnf9vvPeO0dJRGVMkbxnJEXeEw3KUBGFhzh2mXOSPEAjUwV2 y+WqzGsZh15ybmZNww3yoCJU+W5z410SiSl67xTSxdgRERxy3mjauMDBV3Ds14FdBenSvoNT32Df 7169fD1rls2ydhwkJRliSgk5MZf1l0g1gxQqdvvurU7DvUTLUaLkw0iEyqoIuu+2oa7c5fp6scAY Udf+5gbzGTT1u7uYhPttFZowm63mHhr77U3X7x7wVZjVl5cXKSVQHHe329vbSuL8wYP1vPLaI/dA eHi5rMIVOQYrbl+Nw64NzJIRB0hmEOnxWCYAs4q8EUmbT+LNwbhSPvyYk4rytEaGhhDqUEFl+7vf 7cfROV4ul9V8frFcuibA+afffgPJad8TKSTN6mo9W2DWIuKLy0u6vnZVKPNhMQy3L17M9vv9fn/t 3Hw+6/s+bzb729vd69tH/+Wfv3jwQMd9BSA0LXPadxhj6/2Lm9vh++/rh9dgxG7vBAz9adrGTzGa +9PcfhQnI0fBZTDx4ffjlPbS9dl13W63G4ahjMkrY0bLBJGyWuNIqdSVBLDb7Zxzi8Wi9PUPw1Bq nocQjnNc+r4vo1HLINRjyaeyuA4OYUSRsx0ozuyYGT39dRiG3W731Vdfle5v51zpqb++vr54uCx5 zTIvbbvdlqRpXdf7/f5Y16ltWwCvX79uZu0XX3zBzE1V3W23+/2+NInvvvvu6dOnD6+vLy4uxnE8 jj8upfL3+31phKXyaJl0X1VV0zTHq52+7y0S/aTc//3f/5sCotPcQ1/6OMoKB2MvcZTUq0aSUTVy 45G33XCT48b75FwU2Uvek+uTbFQ2KhtQD41AhKojCbV3JN4xIEwITJoTaYamOPZx7DwLQdK4z2nU 3A/9XV0DklIaAkvOQ869d8npMPa3kvvgtByaCIkqRe4goyIr4jjs4rAj5NplSK86aC7V6sos+oqm 8ukCIsBu37ktdeOJJZPn0O9HZpdFmR2Aqq7HOPb9vnUMRR46jANDKY/d7U2/3+Ycd7vbsd+3DuN+ 63LUPKQ4MLKvPSNvN7eUolepHFVOnabYbWK/1zxov6s803KBnOLNq/3NS01psVqOKQXC0O0oj44V KuygIIAB0jK2teRwy+x6W2XroyqpaKCsygtSIjAr8pDYeSZOWZNo3dShqmgYX/zpT0hZU0x9P3OU xyEQoeugCsec0n5zF0QkxboK1PfoOu8r11R56IeuQ0rx9c3Ns+cYYx6GlMa6CqQydF3Iur+7XVUB AA0dSXYpDputjrFVHncdq8a+a1JizbuXz2dtk9PgcL9OTzEd3T4SLr0ICqKf5e2P/bKUxLgQE8Dl wn6azMalv30EVevrarVWyeSY2E3V5r0nopLXPKYwjyMIy0xnZm7bWdd1x3n0y+UyBLfb7UsZyBIr VFVV17X3U/XQ44qOJdVa8qBlUGDZeHwJVVsd9pwUyFm2u+1xoddjyny/389ms5KzLIvLl+lHXd/7 EKq6fvHyxctXr0JVLVfLu80dCGOMoqLQru+IOaa077qS2hzHcbvb3d3dlSXpAZQRn6VKT7naKQM/ SiK2rC8aYyyDTUuBUudc27Zt25ae+jIc+XQ2PVlj+qho//z/BeDKAVpZlRQuK4lyP0bvSyl7Uc2k mM3rlPsYR2INwQHIUQD23o/jHhSDz86xZMqJmWaOq6SSJHsKSTIpE7s05jI311chp1EBggrUEcfU OZ9m8yYmDGOqqxmzTykRqQPFODgQBy/QGGMWeEcp9k2oEvwYs6tc28416X5/19YgjQxXuoGInGRW zaARZF0176XETE5HDlzfvth61+ZRnQspaz1r+37c7XZNPfPej2NEltVq1Q/dOI4uhDIKJ+e8nM/7 fR+CLzVZxhRdXfkqxJgcsSNOw5hSauqKmWMcBNq2bd/3qllV21C1TTX2MWVNvq6bJvY7yn3lCTkR q5ZKZERQj3IyhDCkDGu07MdHVA69cghJSckJs/q8F0ZgcUPMEajaGTnXjwMpee/BtN3vZ4v5MPbB V7v9VpMu5zNS2t7dLlYrEQl11e87TVK1TXa0G/vK+cqHtO9ZUde1EPZprBczEo3DOPPVZrOLilB7 DyHSnEZVndWzmDWlfHl5vbnb9X2/Xs77bnt5fXn7/FmZu/1WMIqPN7eaf8499WV8y4/CgIAzOUCD jgRRsIAFBMeCvFUsvv7H+ZdfpzRS8Ko0xFFVy44o5/i6qlNOzFwG4TFxTDH4MIxD8HUZsVfKQJY4 crfblYCgxC5l8F9JbpWE6KGM6HSdoSXO1vLfG3NNrOj9GQkwDPG77/9YrkzKwN9jCfoyvqJMIVou lymlkgd1zpVUJYCSqtxsNqUgaHnaUjzhmCBvmqbrutJ4SsRZhpDe3NyUBGp53TLauKydUYZ5pJSu rq7K8IBjuFwaWLnaOd6zsGD04/KgaQg5gVhJRHJSVcxmi6pmJs0aUYrDxTQOSVUZ7BgQzTkji3M1 cgrssiRkIibN0AwwVKESidWxsieHLBTLgE7KVLUqUZIKKytx4NAPI3SkHAM5YZXUwQVHyDlDNbB4 752HKmrnM0hEaldXTQPhHXXOc+10zJERdRohCmZ2ICiX/mZ1bCMLP4D0jaGXpMIAK1RSHvpAvF7M Sx37pqoYNAyDpOiZAhNpbAK5ECj3bSDHqhIDCZhSHJWxXszzGCXHmDpNyVXcVm0OTc6ZkWdtAEIa RskxDuLA5Fk1axpYIgCalndVIqUpAyrASf17EN6Y62s+mtPjLingOI2ZQd77lHMaB3KMMTau1v1A la+zuiHyOAbyVRbvQg1UPmgIDTDESCI0DG3VImUkrbPOg2dBVCxm877vAW2Jule3wbk2VOiHi1m7 HwZyHIigOSo5x0E1xjHA5aGfVWHY38WRHSN3ex9+irbwd1m2+LSTv8yvvz9mnN7Pe6/gnKdi844D E4sgjhnI45i8q5Q1RVFJ3X6IPjdN4z0D6PtUelTn8/lhvXIq405L/36ZC3Ws93QsVFm69UsYAUwL jZYA6Kf6fMx7Hcu+lj1Yfl0ulyWCrOu67/uS5AawWK92u13OeXV5QUSbzWbb7du2jTmXGU5lwKgQ +jjOZjMnU6a8zF4qESeAMlGpNI/5fM7M2+22DOQAUO7c9325c9M0JZNKh/VCj4Hp+T62v33eeUIW zaIKJXLMPnBN1A8bF7wIDXFk8k3TBHLjmAJVikwiIFXJzgdWHYexnTUxRiZiKesNkxNPDO9YdJQc kadxf0RSscua0zD2/VhXjfNNikmcak515TRFctQGP8aMPDryKjH4oKJIQ06DKJF3RE5idMyx76Fc EaU43mw33vuL1RKIknKZZanKQII6VWWFgD6H0Vqf4W3BKBPTp15wAQgSCON+x+ybtmVo7LuUUnlQ cBRCSGnsNvuq8rPZXDO6fschpCjOu/ly0cdx34/Rdfu721nbrhdzACLS7beqyt6lmKjUBCQFgVRz GrPA1S1LVgh0eo9lHTg4pqlErgWfnxzrNEv6+Fmr6jCMlaeqrrzomJKDr0KoiXf7be1mjXeOMIh6 QhMqT4wspMkrcVYdk2/8qp3nnDVLYCLA5UwKxChxlDgCWF5f6auXrDqrqpvnLy4eXO8kN64eur1K Ws1aVR2HNK8qX9XPXry8vr6ezdqmDl23u717vVqt4vhpM2F/h2cnLZ37J9es+ubUwdNCxV038Mmy SVUVRLQMDj7GjqViTpl3Un7u+2kZ8TKphXmainSc+wxMi9SXn481yQE450LwMaZSmqdUMz1mVd+d ymZ+esdisSUVWuYVlWuMEqduNpsy5/3ly5el+75MNiKiUne267pStqnMly/V7IlIdVoqqfT4930/ n88vLi66rpvP52WBwNK0RGS1WpUSYCUGLQNDS5n9qqrKigw4LBbF05wTy2R9KhRf/z8AnJx0NqmA oNMCNxAqi90wKUM9qyuPA6apDDRVnhNQwtQJ4qCepFUSxag0gkoXqhw6UcvtoWqdTuU/SYWQQFoG BZYOIC75OWZADgtAAjSVw1R5+2pXKQHyxqw99QAfCncnJaFDnRq7Pb0FkMZI5BzVGrXbDDmq50Dk MI39p8POY30rCiQhBUNIwXrIFikpIRNnLvsLrALIW/GjvJleKkEwKaCcuUyGFp5W0JrO/gouLRNT S7p/rPm4ykJX5WdSYmUSP3QZ6klYhQAWAhGxoiWeum552q1TFKsA4KaLnGPt0ml21LGz+62O47e2 K3EmKIEgpHAqPKXHWYnLCx3eqJAeDjKHV3/jH1XWPX93uwUrH0QKJc4IIKkkAlI+/JxzUmFPHfv2 8a8WX/9CNCWoqn0jzUQI4zg+e/G8JBrL4I1S3ut9SWv5kd/Hd7/pH/a+4NKS6D89LxE4DkE/6WkR lXIYUSIoA1oK90xHeMqgMrMsq3pAGSJlJcmSRwGxRCEoIigfulOPMc+h8N/0irk8v5JwCTjUC6lC S2tRKHM+7QgSwnSgk6k1Hd+8ckZZJ+YY++r9NAxASxdvCU3t9vQWJJ48QAAThIm0RJ0KRw732RAS Os4iKgRwYCF1JRKlY/QCOOJMEGJAGAS4t05Qh1BjesA0NUkBTNMiQETqAL2ffKKlAPvpJcdf0N7N X+n+u8fKRK6srwtmBgHMgBAIiDkRRAiiyMci+eWRephqfVqTiwRAOFwMKyHyfUt4d/vxkoYVqmAI MC38I3QfieK+PQjef4p6tx3+KFP4+xl8c//K7zvwgQ/n/f9qFTAgJJkhAlVSVwWIsINnX4pCMjFb MGpO0TtDeI/TI98T/P3YmPBjhZAWjP70fB6IAFWwThV9uIQaJPclXUpYoAqoIgECiodgFKX/VJWV RCFKUup7qqgSFAlIh9OPg/I7DWYKb8pRrjTOw3lFhXI5gSUuSbWJEOsU+Jb5nUkVrB4QZQGgJVNX 5iopsWY6vJjQ1O1ot2/dAojjwCAmjTFvN12O4uGcOiYqwYQQpqwl8dt9lCRlZ9HJGU4IWlaMxJTT wpvnPzmsBHM6Bu3k0ojl8Mz3rQUAiRAO6wMRfvw51fwY98Fo6SEZB1V1KkzKqgRlRwRIcNPqoErI J5eAdCz6Axz6T8p9QECUafcJISnKd9Xp29sVIORydXR4NgFUCUJZcRxWzHgz0HzfieUH28yPSsbo zzwY/StOuYpyMBWVOGXBiWUcUs7ssCc3tne8vOs1JagI7HtpivLNKusdHLvpy6jf04lB7z7kL2dn gZ8vj6yqTEA5r2DqOBMpOVEAx8O6EqBQFlZGmXYEAbOSTIuDl0C2JE2URYXAECGwsoBYWcCsfH8f hZAwkhxiTZ0SJ6pUqvZAyxuQt/LpU5WOrJkUoHwMpjHVaQ9liicgUFVFiW9Lbu1z6BP/DG9Z4TmQ ErFnJkdeNRG5cuqZUpU6nYDxbp2Uacnh8uPJmQ8KKnVkZEp0ncQKdAhG75/tjVKFJd48dvwf7oHD RQcALTmze2c/zf8t3mrprlcQVJlZlUFOxZULQgYAHjUrRLXkKXOJSsulxVuXKKWRZAbpVOi2HGPi IUOZ39mO0tEvUCDfP5sKid7nNcuIoL8oGH3rmPJjz3wnL/pzVS4dfxQhzQBBsmSCZFJgGlGH6apS p0GcJU/xCd62+TlSoBRRKhPnywjRMg74tGTSGywY/bvhSYhUWTwpnXSfEYgIApRcFx/GhpKCWUqt QUcAg0k9w5EykxAikxCElUk9K4iEwSSOiUnLMjp8LBFJKgwmMIvQfT6jdPydts5pOaUTdOhsB0ic Kindn+qUBaTqwAkgFiI95OQOPX3mB0zd4GUwblYlgFVVhQKX3V2SUcQ0dcIeRuZhyqoDpEyHWgas olS69KAAEx+PLaeBrE49tuUhIIDouJN4GqJ6H2rct5Ljcym9EReUAop2+xFuwUpy+Pmwl9WnMqz8 nesRUcpEUNJpuHmJX6GHH6ZdqIc9LiBFPnwnpQzSOXTTv7UdwNR5ogzcF+lRkBIOKyAcBgccjgan XdJvt/e3th8C37/cz/7cpz/2nyBaKiaRZiiXfleod8GhdFQxM4MJAiJidj/7j8h8JEQoedASjAIo P5RE6Q8+xILLvx/eqwLT4MAp90GuhKFyjAzKRCFlHHrQMF0DT/21BIa60rd2+DvKyYgQSKdOYAIp gaDTqW4KIZRQSvUcwhlw6Z3TY4llJYI79tWWkssKR0BGPsyJ4ftRUFRuGJpBmeCIpJyiBGTJ0ffd gpBSJhAo56wpSczJK0Mp5jJlpGQoKRPylLo+dLmCDjHEdFFRLjYwnd116o4/hC9v99QfggaZ2htk usPUxX94ntK6BFA+duxrmbzyM09SfZ6mYTD3H3Wp/ZUSqbCKAgwhBk0XD45LNwhpWTVyGjN4Wo/T lWsPhTu5LixlERiA4jR+Od2OQ+sCcNzdSigRLJSP75OUjinVH4wYD/Xs3vy3Et7d+Gf8zBvdj3/7 JERKBBCYVAlEpBRjTJKVtdekcRzHMeYYVSwWNUdCUw2E45bjEFJb3Mh4Qr4/y9+nrRQoE2Uzpono U8DCxEICZKC0Hn8yi6XMpo+HaUMMEGkAPENEwUgCYUBIp3JCBAGx4n705zvuQ0zFMWo6/E2mqdgl P3e4J4GoTPcmLkNaWQEt/5bPYnTmZ3tbVS0AcGDOsVHH3qtzRBTjaTBKBCIG4JRAZVAHH3r8mPSN YLQMnMBhGj5A04C/w5jCqdP2kME67dIVkBJLiUYIKB39JIcJ+3LfNEA/tpvV/FmHb+X0OQug8IAj ZsGhj16IlMpaRyklARgMEghPNRb0jdxkubpgUlI4IQCZUfp4SeEEx5d8aztIpysTIpz2b5TcLaHM jSvdOq5kT0nuL51PTBMU3txefvtR0dPPvZPlxw0zoJJGKHOfS415ApyWFb0zwSEIlXXnIwMqxP7P P635+yCEYRiOBTtLNa5SzrOU6Prp2Wz6z4c/JA5KAqKc03E6meS+1sr90jaC02VuSKAMSoC+eZ9D WuX+bjLdhwAVUOn1LVOaGICAyxjTwxsRpbdODqdNZKolhCmjesiLHIYPEkQPqRSZ5mXbZfqfkdKg YEdIY84pSUoZgIKgTsv1h04dr1BMX+ZDH6werloOPbM8dXxq+eTLL2XD9D8cNuG+x7Bszvcbtayb oqWJHl62jGY8eZzt3Y8vT4O4S+9G1sOY4ZRSVqGMDIUogwUKpfuM47Qv7yPRY4hJh/q1h5pwwDsp OjpcdZ5uZ6X8Zo+7vvWQN3/+Ky5OrAn9OfyDv5YIQ5UEKpJEkoiIyo9f48n8zRIqIzf42Dtfys6X hWHP85beU8f+vWNYzSfjFW6KGt9YRnEqwQOaRqDfd6EDx9VDgcM4svv5JgTi+3sSVEtKTLRMgScR LZMQym1Jk7BOfbVymH1w7G6bnqk8/PhzeZMAGA5TdvUwUqAMeUTEMTMHURI5nAEPr2W3P3BbUmFM 5BkeCgGXYRXgzIewge53jRBNAzpLynS6sAEOCbBDKzmkNqf05nH76Q497NfTGIKAY4/9tCuP93k7 1rBI4uM75J9L74OW6sLqGI7IgTwwFWrT8vdyPDmGorgf7P1O7QVSRXLTqxxbRIlfpiD1ne0nm/Tw 7sog4/vGUJpGmbRI7+2Jfk9G5M9/In9Tfty/t1xUUGkGIPEMyWXg+PRxlmADoilLcr768fOjzN8s IpQlOsdxrKqKmcdxLPXnz5WJPC7CZM7Ov5G8fPcqVo+DtX5g+w8/8Ad62+Xk1DR1tr99izduf9B7 //T2mzztWLx/eyfZmR94Rbst1wCqoKnMVukun8b8lQnTelLB8aRP882p7CdONtPp7x+OGt//V/kL 7mM+usP3982uBZrqK5StUtrPoYTwyTf+/WeZH/zTNJX+z9/5jSbw7hQlK3D5KUwf6v2csLLGwWSa GQDYF9QY86NYLtoYY4wxxpyNBaPGGGOMMeZsLBg1xhhjjDFnY8GoMcYYY4w5GwtGjTHGGGPM2Vgw aowxxhhjzsaCUWOMMcYYczYWjBpjjDHGmLOxYNQYY4wxxpyNBaPGGGOMMeZsLBg1xhhjjDFnY8Go McYYY4w5GwtGjTHGGGPM2VgwaowxxhhjzsaCUWOMMcYYczYWjBpjjDHGmLOxYNQYY4wxxpyNBaPG GGOMMeZsLBg1xhhjjDFnY8GoMcYYY4w5GwtGjTHGGGPM2VgwaowxxhhjzsaCUWOMMcZ8cqqqqt77 lJKqVlWVcz73mzKfBQtGjTHGGGPM2VgwaowxxhhjzsaCUWOMMcYYczYWjBpjjDHGmLOxYNQYY4wx xpyNBaPGGGOMMeZsLBg1xhhjjDFnY8GoMcYYY4w5GwtGjTHGGGPM2VgwaowxxhhjzsaCUWOMMcYY czYWjBpjjDHGmLOxYNQYY4wxxpyNBaPGGGOMMeZsLBg1xhhjjDFnY8GoMcYYYz45IiKilJL3nojG cXTOnftNmc+CBaPGGGOMMeZsLBg1xhhjjDFnY8GoMcYYY4w5GwtGjTHGGGPM2VgwaowxxhhjzsaC UWOMMcYYczYWjBpjjDHGmLOxYNQYY4wxn5yqqqr3PqWkqlVV5ZzP/abMZ8GCUWOMMcYYczYWjBpj jDHGmLOxYNQYY4wxxpyNBaPGGGOMMeZsLBg1xhhjjDFnY8GoMcYYY4w5GwtGjTHGGGPM2Vgwaowx xhhjzsaCUWOMMcYYczYWjBpjjDHGmLOxYNQYY4wxxpyNBaPGGGOMMeZsLBg1xhhjjDFnY8GoMcYY Y4w5GwtGjTHGGGPM2VgwaowxxphPjoiIKKXkvSeicRydc+d+U+azYMGoMcYYY4w5GwtGjTHGGGPM 2VgwaowxxhhjzsaCUWOMMcYYczYWjBpjjDHGmLOxYNQYY4wxxpyNBaPGGGOMMeZsLBg1xhhjjDFn Y8GoMcYYY4w5GwtGjTHGGGPM2VgwaowxxhhjzsaCUWOMMcYYczYWjBpjjDHGmLOxYNQYY4wxxpyN BaPGGGOMMeZsLBg1xhhjzCenqqrqvc85i0gIIedMROd+X+b8LBg1xhhjjDFnY8GoMcYYY4w5GwtG jTHGGGPM2VgwaowxxhhjzsaCUWOMMcYYczYWjBpjjDHGmLOxYNQYY4wxxpyNBaPGGGOM+emoKhGV CqOqeu63Y87PglFjjDHGGHM2FowaY4wxxpizsWDUGGOMMcacjQWjxhhjjDHmbCwYNcYYY4wxZ2PB qDHGGGOMORs//Z8EALTEpgxI2UIKBROgAEGUjvcpWOntZyQFICe/n/z8xmNxfKj+BXc2P43DTjm0 B3VKIAUplEDK5U/05v0V5a+lxdDpxvtnPinfUbaTojSt8rfjHRQ0PdvktCXIO7+++QLvtkjzf4oB mfYGnX5djwhgQMth4rgfjnsZp3tcf3g7TnbdfUsgkN7v75Od/cYd/uw+f99rvfXz6fO82QLfdXwv dpgyxpj/U3w4mGYgE4SUy38MEDKj/O6ZiKGaMzSXIzaRU7CAk1ASUvICJ2AFE7lSQIwgEIEIEZjJ eSJWlZTi4JgZxCokGZpBQqxgCJJPjbuWAAAgAElEQVRSBlSRoQohzZASGhGU5PgfSN4IXs3H4AQs As0CzcqKCuqJHAAP8upYiHLOOakqwJzJE4N0SGPMkRy8Y02JFSKSlSJzr7lLo0LqKrCjJCmRCkFy JlHHJJI0p+CoZXYqClEmAY1jkqQQIqmQgyoBrPApO1GXZWpeSuWiSFTzhyMI89dRghBlpkwsBCEF qyADQkSiFJOKMrtKszDglTXrEFM/Rs3CzEMeKXDbVHVwzOycc2BN4hgECc555hhTFvXsSTUQSxpT HEhzUHVRXNKKfB5GR1R574gY8OxI0O97zQoBgz17z95R+TuREoNZCVlFlIi9MmcAlLPomL2yIweB JtGs4zgKlD0pa9aUJCaJKSUiqnwVnCeFamYH8lI+gXPvnM8aHZRf9eDDj9ITf/lr/XWPMp+DnDMR OeeYWVVzzqUQaYYKIUPHnKJkIcAxHCcVoSk6EUJSSSplvztiBmkWzeLZeXblGpgUDHLEpJCUNQuD xnEUEeecc660Umb23uecReSthmTt6pM6ZEbBJ7cAWJMQUzmaA0JQOPbOSS7HX1ZVIiaC9w5EKlIO OqyAZpRHEicRIgKTKolAldgFdkEyysOVpqOHkjKTKAB1qiXp5oiUPVhFEgCh8uZ+0s/o7wcpAxlK h8wnQ6f0UY5RmR354D0csmpOlHOugs85gqlpWhLJcSTkpg5ZgKQ5Z/ahrVqViBSHoRuGyCFAmYgd s+SchlFVlrN5HHvKXFcVHPUps/JstvDQlBKE4VmhMY8q2fmQc55OcCWFT+TYEWlKZ/v0/k6UlGGM ETkzsXPw7MoBQQQhVJqTiATnuG7Zgcecc1KmPo457iVKJvY+1Fx578c0DmNXUe2rCt5l1ZiTiqhm Dp4dAKQ+55zgKg9tZu0QYz+OzjkAkhKzWy6XAs05jynmnAGUeJeZswoJKnJV0yTSGGNKmZkBeO8d NOecFeydI04qVVNn1ZhVSeEYJJ6D4zDs+5xFUk6SiNTDwUEgRM4ufz7g9Px9GpWKfCiIP94Nf3EE QERlt5bHfvj5zeembduUUowRQAkNp5CUpvL4IYRyTxEpv5Zg8dg8VDWLjONYVVVwnhxDNOYkKcec PDswMUigDAITFElyXdcppd1uV163hKEppaqqjk9ebkvrtXj00/ElOUri3/pD1sDKRKqqIhkkjhw7 UgVKOkqV4MAEcqXrlJmZAVFBUlUmgmOoFybAZVIFgRDIe+eGfcdMzEFVE3JpVixwHKBCRCpEcFLS q1Nw9ObxxfrxPzYFlBgA0+GzJQUJoPN5KylropwzkMvOJqIYI1gZFYQlR1VS6BQQqHpizsoiCoVE gJezhQttH1POufaNUnKSQxMkJmiQjDgiOSI4B++ERfoUB4h6CkRRJRHIM2lWZmbnVCFZFaIE5h/u RTZ/tdPOa9Lp02WgDpUQVIgUgEJUtBwTSHLmDIHICCLlJCJ5dbFIKTkOXCGBUpaYs6rWqzY5IQ2h qYUwphhFiFlIM1RIGDSf1zXPolKfIkTUEflAJZMhAiCSBPbE7EMop5DpRAWw5xxTn7NLMkqOMc7Y 103dx8E7Tw5RclZlBTkHAdilOIgIeVJCTplUvZe6rVWIvXhJzMSeFFESWXP7sBJJHH89/fnD9z9d m0dVS6D5Pm8Fr3/2VcznJsaYcy4nDlUteUrnXOVcjJFA5cI0pcRE3nkAGSqqU5TIpKpCMpvNOHgH GnOCqjKFuvJcIwt5R6JRsgO5KpBoiX299957Zi5J2ZSSiJQ/lebHJ8p28yl4IB0668uJXECi4FDV qmWEV2SnqhBVScqOAeWSy1RRUUECoOyn8XykKqKqQlwi1AzVEogeji+l2+u4+0mEAGJiZoIQHDET FHI4r+TMngCwTslR84lIGYSH4+cspGCScehVoCWPLTETCAqw5NSEhjn0wwDSpm6Qcz/sq6oKIVTk c9KUR9VUVVxV1dAlcB7HPmdtXa1KQ4oaOcXUhMoz+nHIyKFqCBiHzgd1jpQk5R7IzETgnDMzM0tp P5IhAk1JBCfJfvNx0CEAnShIEXwYJaesolOXiCdHDs5RCJ6UxhSHlERk5lxd18MQYxxc1srX8KRK JMysQx9JmRR93w8EJTglgcZxcMFnFRLtMgVXRdUxxRTHWd0QUzf0pKjrWlW7rmtCfewRno4aIqpK jsgxE3LOSTMzgzmJgCmrMJGvgqoINEl2znl2EczMVVWRd+M4ppSYXLcfADCRcy6wIyBK4qwW9nzY W2HiaR7rB+9/zEK99aj3xZflCIB3+ug/HLyaz81+v/fel+6OEpKWM8gwDCVOLZnRlFJJgnRdRyeO zyMEl5DLULKcNWk+5Fm9claJMSaiiklE+qFnRQihqioA5cteIpPTbOgx125p0U/KE3WAVwSAQQnI JRgFOVGoRnbqvACQhBQz1BOBmKesqSpUVQUQKJfOEQVpmfIgUs4DIqkcxwHkJDnnKoQSzRBpIBEo CEzcD+rIAWBiovJsGSqAK1kaVrw5qMC6Yz4aJUjpxJg2CCAlYdr3fVVVTbN03kcaRhHJHsrOV1k0 5ew5OE/QnJDhg5JTZhJmEs8OBCDGlLpxaAOHiiriEHQYxiQRCVUVsmZHVLWeSLMOFDNIiFzTNJJd N/Sq6pxXoWEcmZlJHYH4vgNFygWQ+dgIb2ScSdEPvSaQVt6xMpf0qbDuh56IWDlDk4JUx5hjTvVy NmaXYpQ0Ah7sqyp4xm572zaVh+v6QZnqtqqdB2mXUl013FRxGPN+HGMP7+tQLapaVTXnQEwgyuqd q2YLzaKqSCIiAHti5wJYb/eb2WJeVyHmBIgj5iT7vqNZPcbI5JqmIeiu7zSLY9/vehlGIbCo814l s4IUTV1rUog6BSdRiEsCBfkfmMRpjo49m2/dfiBYfCvu/HC3+2l88G4ga34uQgh86G0rcUJJWjni 4Hxw3nsPwJWOO5BnVzKaAMoAUwDkeNd3CoQQqrouHe4iIikRER16SwCUuNI5V/ugqiXeLc0yhOC9 L1Hp8cxShpCKSHlF8yl4kCiknGkUU3+4EO+GURQgdaoOyswKFvbjtJPUleQ4K0/ff9YSGCqDnDIU LEBQKeMOiZyAVbUM11BxollTmQTAwiClzJBMSqQEz2ACM0gJcAItGTvziTFK2QQoSAjToMzFcknE Sakbx1FHISYiZhd82N1tKMlysSCm7b7LyLPFbBwjRtE0eOIQKud1N+Zuu1ssVkKk7FLW291ehUI7 46oGaLvZBuhyOSfK+80NJ1nOZruhDwIQMjGcY2bi4Erfr2TVVA5gzjmQB2DXrp/IcQDENERShMgF F9j5KBpjjDllQrua5ZxFqAphXjVEmruhH/b9GNl5PwsikolBrks59cOibqpQIQqzZ9acdEQCpK7b fTeM+733vg3BE4+iMYsPft91DFoulyS62Wxy1tlsFmNyxM55XzkCVDUmlSx100KpG4ZhHMVRVVUV s/dhTBJThgrYCZMoRKSP4+XiMrc5SRZkITh2AIRYmbUEvCoiQpIdu9pXUe1i+C9STurH2/eFjKdT nY5biOh9wWiZ+HJ0HDZasmvm56Jt23EcY4wlHCSicRyHYWiq+jj+G4BzLuc8DEMJXnHIiB+ah85m s5hSjPEYTZbgcr/fly0lmixxZ9M0JJpSyjl776uqYuZxHHe73bHn9thWj63LfCJetQIY8AoSsEIA iDrylWdPrElSjAMA71ofKuaoEMkpq5IKKXkCE5zzWSQpiIhdIKKsyDnHrN4RMQtIRBQagg+tp6Qp jinlDHHOU5hmJYWWKWVoFhkVGQxmgBjy1sGFpxJU5hMgBStYVabMKMG5fpT90I+i8IBnAWvUmXI1 WzqRlFMaozrv6lnyIWntA/msEsdBQOJyNXdu5pv5Zr8rsayMqKrGV20XI/vATdCUtiNlhm8uKxAc AbxL4pxr5nPiNI6jZA112zJSijlvs0ggYgdoOYFZXuSTeCvId84RSnUMjSklyWCummoXY1ZFBmLU fUcKFlUVVmqCE+a+GxM0NJ6cE2jy7q4fdEyhbqqm2g5d3HdVCJfL5TB0u2FomSvnUpIoWZlUQHWt wN04qKpUXjLuUmTHDCIoyTTsTACoXCxW/XYz9qOvgvMuxcxMVd1m5FmoMKa+H1H5ZjaH6NCNf7q9 aZoGDjHlJBmOk+RuGOq6JaLGV42vNCeJIxjsWLMdgj6kTDfBXzzBiA4dbm/1k74veC1ZtKPT/Kv5 GRGREoaWNCQAIqrrWkXLpUjf96paOutzzs65ErziMOhzehJAch7HscxGosPQQMdcAlDnXEqp73vn XNu25WKmPG2MUURKMnU+nx+Hnpc2XAJTmxj36XjAlUJ+ZcK8ICgY6mYX1/A1mHK33263Oefg23o2 Q/CSYhr7NA4559KvKwTngiDlJCAfOMD5lCQh5Tw0rg6hyjkPcQAQ6gUvWghXQ0djYmgIgUJpTMkz YRzzsM9jynlUyZ6JGQQuk7z1vhyV+RQEAEjK1CUqFyeElBWunl8sHq5WfjWHo902bu9229evv/3m S+b07He/7Yb+4ZMnbr6+2ez8rFq0s5pkc3t7t7lRpcXq0XK5Tv3gsmsXi4v1BaLChXGMr/7wB8/+ 0RcPEeOf/videvr6yy998LuXLx588fjFzS2RX67WKXe3f/pjHNJFtZivl3236fdDikPU7JUBzTmG UJ/58/vbcuyD1pMCoqQQEZUkGEU5C1wIy/VqfrnOVeCqIqG7u7ubV69zTBer1cXFimctiLrbm913 3w0xzmbzy8trR3rz8vnm9UCOrx590V5fNXe3u7vNaj6frxcXXz1GFZDz6++eb5+9rJaLp1899c5j Mcs3d7/+9a9F5Fe/+lW9XsfNJtTVbre7vbnbbreqOpvNLlar+ay9+dPzXUptM3/89BHV9bNn3/d3 ++ylXV9UTYjb4dWrF+zrxdW1h3v16lXmYfHgerleghVEqHyM8W67c+xDCPOmBbNsd5uXz4fdfszZ Ln0+7DSmPM4CATCO4w/en5lPZ0mfPvAH7++9L+FCPigPP06+Nj8LwzDM5/OmaWKM2+1WRBaLxWq1 Cs475/q+v729BbBcLpumKbnM/X7fdZ1zbrFYzGYzZs45P3/5gprman2xWK+aUO2Hfr/ZduPw1ZOn Y06emIMf9t3N5s4TL5fL8sAY4+vXr29vb4nowYMHDx48yDmP49h1Xdd1pfzT8bLKfCJM7OE4YSRH oWlFGWhmD56gbiVluNatvlBadUMFt8DsMkbm5qK6fDpbP/L1SqgRnof2ii+f1qtHSashOXHzavFw 8eCrUK+FmjFz9fBp3SzHTIv1dWiXEKejop6H+UU3qlDFy6us3vkWocVhmFEp8cDO4eTy91gzjFSs qMqn4EgZIBUu0+uJFARfjyD1jb9+hGau3MwffXn9+Kvl9QO+ukaobvab5fVll3P94DFV69ed1E++ wRdPl48e3UWJvr148it3+bRePUhVu7x6hIdPMF9mRfX116tHjyNXzcWD7Gc0Xz748hf+8gHIbaNg dXXx5Jc3A3j1oHryTbW6jlRHCry+nq2unr26XVxclvmORNQ0zbk/vL9BpXy90H0deyX4qkoqznsf AnkXIftxoNXaX1zsYpQQ1t980y5XrqqvHj/hy0tklTi2Tx7/w//1L/BhN47t48fV1ZU0lc5baZr2 0cPoefXl0+x9dB7zJeoZ6ja7kMi1F+tHT7/0XzxBVWPfucurr7/5RQaqtoV3YblIRPOvv54/uNam 3mqOlV//w7f+6dPLJ49fbDYSPF2s8fjRF7/6dmTapURNPfvlL+/iMDrOla9Wy/qbr6+ePB4h7XqJ 4FDVuFhllXB19erudvXwav7Vk10elYRXy17Sfhy6cbABox+mqiWntV6vLy7WRJRSKn2ss9msaZq+ 75l5tVoBKKf8tm1ns1lJkVZVVdd1+VPbts65uq7rui4psVLfx3s/m83KHJRSJNLSV5+t0uFeZgjF GMuYjdIknjx58vTx4/l8XjKdIYTZbLbf79Mwzps29oOm/ODyKrDTlC9X66ePHrNiVjePHjxkBbIQ 0Xq58sSX6wsS3d5t5k3b1k3lfI6preqHV1dj16+XKwe6WK2Xy+VutwshNE3z+PHj6+vruq5Xq1XO +e7urrS9lFJphwCGYXhrnpz5iPx+6J1z7JERx2Hvw6KeX4DDi+//IEqgu+Xi6uKLpxdZhv5u2A9d L8Ptq1lbz+ct+SYNwhw4zHUQCrNmrjd3t31Eg0Aa5teP0hjH2KEbRKmuWseh7N2h611XOm4Y5DDE u92eJHPqWaJHqj05diqS05hz9lVDSm+nRa3o/cd2/+GS0H1JV97uOoS5b+Zw9Z/++O+/+/d///Lr X335zbcu3GjXp6HnOiRHUSQPqY/CYQZ46Kh1W68vq9kiudZz1es2sxfP3bPvf/+b38Yx/VMIDx4/ utntadam29t2vV7+8pv+2Xf//ptfL5dLVO1mtxnVw9Xw7vrRU6LZ7ctXjwSo6rqZ5axjioErVR2G wfvqTJ/c3yadBpEfbhXlujClJKoCjTmVuqFcB0D67e5ff/Pbppn90z/+5y8ePcnXSR39/jf/9uLZ n5bL5fJq9egX36wur169fg0FfHj45ZO7fq/KaJvALkneDMPDx09A9Ps//GHT7SBai/vmq6/9+uLV v/3u5sXzOPZ104zj6Fyg5Tre3v76N/+6H/r/8s//dX11+f3zZ+zCoy+/Amj/8lUzax98/eWru916 t11cXmC1/Oo//cP/+J//4zL4cXt303Vd33399El4cI0+1teXy5vX//P/+1+O6Ztf/GIxb37961/f 7faXD67Jue716//9r792wMPFuu+6tm1nVej3uzPunc9f0zQln9R1XVVVRDQMw2azKT2kJXYs06gP Har3ZX1QRoMQxRjrui7JsBIEDMOwWCzqut5ut3d3d23bLhYLEdlsNkQ0n8+TFRz+LJUsY8l/H/vH x3EsVxq3m01VVW3bPnv27OrqKoRQ1/X3f/y+ZMdXq9UwDM+fPz/2pLdty8zPnz9/8eKF976u613f VVVVVdW43b58+fLFixfDMHjvx36Yz+fzdra5vdvebTTLarWKMb548eI//uM/rq+vf/nLX4YQ2rZd LRa3m015rKqWxlmStcvl0trVp+OdI3Za1W6Ise/HdtHCe6QB0Pmi3e/Tfr9tV1eieRi6+Wo+m82G lJ2v2Ldj2os6HxqQv7u7Xa1WzfKSdj1TRS7sNrv5rFqvV5ubEUNPktsquODS0Pf7fRzG0hZJ4FTA dLlccOWRI8a9jnuSHqKk01iNwxu2SPRTm6bPn6wsQEpwVRWVUhYQtW27Xq8XswaOlvOWHIemrufz BGVfuXbWNN0QFUn6rqtr/8WTp+rqIaYk6qqw6XcPKJOT1WpGRMSJvdTzsNu/vrheor7Km5t/+91v Yuoezr8Au30/KkiIaRh8u7z+our3PQRgrqoqpSQpU01EnKNYZaeP7ge/ZkpT9RyBCtQ5BhNEYox1 qNbrNXkvY+/qWpGevXzx8Po65/z69etH//ifHj58uNlskPN2c7t4sLp++IASRDRDc9Zd31VtA+8u r68ez7/a3t1996//se+71Wr16tWr1A+kaEPT+Pp2s8FmqzEt29lyvmpcDV+nMVc+zBfL3ctXv//j d99+++3Dr756/b/+98BUD0PX71aPHn2xuUHTJO9n11fU1e3lZRzH3/72d7/68svHjx/fvnjFhNh3 UKxm87ubTeX8uO/a1eq//uM/Vcw05u+2m/3dZoDOWkvGf0iMsQSUZbZyCSDGcdxsNmUMXxnYV3Ki JU9R8mSl9GOZsHKcX1KCjxKqVlVVEqVlrOFU5U3kzfOF+by8NQj4+MNyuRyG4bvvvvvyyy8vLi5e vHghItvtNoRw/cXDnPPz589f3d7Us3axXgG4uLjYbDbPX71cr9fffvvt9RcPh2HYbrfMfHt7u7vb XF5czJt2u92+evXKOXdzcxPYOZAn3u/3y+Wycv53v/ud934+n9/d3d3e3j548OD777///tmz5XL5 L//8z69vbl69eiUiVVWJyDiOlg39pLwnJsekzKrM0JQRI3xdJitDFSw69t1+nyW6tnFRrtcLv1xi GLbbbdNU9XKZx6Gu66QS6uCcU2Q4GvptHrB6dLXUNZzLKQoUpVJ6zlVTL+cLqtu43wOAKrsAFR3H 2O/jsKU8eIoMeCZyQUQBJp0Wfjz8Bxs/+lNQdt7FBKiCaHV1ubpYoF70z/6422wv1wv2LmW922/W FzUIkkfPDpo3mw3RYvHwofbx2fPXdV1fXMz3+84Rt5dX86aF88h58+qlxgEpom0BdF1HrG1VQwRZ SLWqKgJuX70m5PXi4ptffANNGKOKlBPV/9/ele04lhzXE5l5V66194w1Pa0eGRoBBvQ3/hH/gD/G gD/H8JseZC093V3VtZHFu+Ua4YdksVtjWYDgHs9A4kGhcEkUyVs38zJPRsSJo5RS0DgWiv3AONxs VVVx8kopDSQWG7xEA60Xpye/qOtiuZZxfPf2zfn5ebNaaE0kMg0dqgKTjdNU6wLO9bttYHv2xQvA 3H33TtXlfLkIMbro6sVp5CTeKWOW68VitUJVCsGUhVa4+vJLtBX/1+9T9OXpyc/Oz6AUvLv+wx/G qX/51SuURmt9ero2xkhTm7IoylIUvb+5qal8+c03u2kEwMwnJyfr9dpHZ4zRTY2UFqvFNPbTNJ0M Y1s35yenY9eXL0tobYzhGKOfGFLXZVNWMfz52scjMrLwWWsdQrDW5pR6XdfjOOJZ1XSo+MzlnuM4 1nWdY2aZoWaNs1IqxnggrznJWxTFbDZTSo3jOAxDJqbOuaPw+aeJsixp3IvcQwg58d227Wq1Sinl ktDsz7nZbMZxnDXt+fl5YXQW1+dYqXNuu922bXt6emqMyfr3HD6Pzjvn7u/vc7T18vK8aZr379/n AOdBw9Q0DQDnnCmLuq4zkS2Kous6a+3FxQWv16vVCsD19bVzLheH5CDrj30J/2ZhUlCatXMJqmyr JrEOLhTz02V7MnmnyZysT6gtq2g5aUx27HemLMCGXU88zZo5KsPjrl7N4ziAuDIpRge4phTvPaxH u0BZJutH1xcx6qaZgbabTbNQhdKexXtbsEzODv3TelboZIFUGDKqIIkck6SgVclQOHSWOXQ+zP5e R3w2qBwZBdKntqvW2iRFaQwIcXPn7NDW8/t31ymlWU11vTg7u6rGcbVag51Mu7JpYThNrmdU8wU7 659uT66+gFCBslQVAtsPjxoStR6maeqG2etvp/v7+/v7r/7p22/b9nf/+R9umKDRGIgBIXCcdo8P yvnFVy/hbewfOAZV6vz9BbAxJvJx8/qZofBRS5/vvuzyzCkpLYUuIpL1waSEqoDI9LjpN0/eWrvb 6ZMTNPXPX3714c13huj169dQavf40GgN5kVVfXf9/uTiFOzv728vf/ZlVRVFqUMItH14e/3OxtCU lbhQbu9PDJ1cnd2/f+9iGN3QlnDskwGm/u3bt1+//jmKYtc/zeft1YsL+ElrOlktlCIDWc1nhlCW RUG4/u7N1//4erlep6nvt5vz9UtopXz68uwMKYpR5XJ2c3ezWM3RVo+/f7AhilEhheH63Zs3b5IP y6qS4EsWcVOhj3agfwnZVjGTj+z36JzLQc1DF/H8uyzLrEaKMcYYc36/73vn3CECGkLIQukYY1VV ZVnudrvcET1LsA89gI74aSKPXY6Ixxize+fJyUkuLL64uAAQQlitVs659Xr97ru3fd+vVquyLNu2 DSHc3t4+Pj6enZ0tFovVahVCCCE8Pj52XXd6esrMpxfni8Xi9vZ2fP/u17/+9WwxC5yKuqraxgbv U/Qpjs4GTl9//fXdw/0wDFdXV5eXlzc3N0VRXF1d7Xa73/zmN7/85S9ns1lZllnYlKP1P/b1+1uG qY1mKI6iqVBKBx/81Bd2Vp+dVP1IRYGmQHc/7J7KsgR8dDsOqtRRActFXZqEaTuN2+h759y60fNZ aUcP3xlx/dhtJa1Pz1EaIIbg7DjMZrNmOWvqEnUDRlHqsq6K9Wqu1Xm/JB1he3YdkqUUkPZuXwCU KN7nX45NnX4oMPBprxTaG0JyWzXdmILtGzf6bnt7/XYxnxfMKYl3Yy3L5dU/LJnBCd1O3FNREqJT MTjn3IfCu5HsU6kv4Kd5XbFzyQ7d423yzrTtOI6LdoFpSNP4dHe7etMsX5z+7MWlGydEW1L00cG7 Vsku+sf7m0XbYNZK8EZBQYzS3vkkwRgFOi5FPwgONBSAAlIIEpNoJgWF5w58McnT5ua7PyZSbdtW wPC0LWfV6uJiNZvBTThZYrO1XXe2OoX3KgSZxt3bd2H0MoxzY+DDTBtMtlpefPv6tW5qAHd/+K7b bmez2fmrr89PTyAJZR13W0DKWYvI280j/U5e/upXX11dZhuOx3fvh36MMa5Wq9PT01dXL3wM/LQr E7b39/1iMb8UXZgXq/XJfO0+3F5fXxfGhOBfvvr68uJ8++G6UBpFqZMUpIqyLouqPG/XiyUBELb3 d/3dwzSMpdL/+zU7AsaYzDPatl2tFtn08dkhiw+ad6VUVVU5Y5uDpngOiz7braksNMk8ZpqmHCIF 0HVdXdeLxcIY03XdPkJ2rO37SSLvNA59l/JoVlW12+36vs/is/V6/cUXXzw9PdV1/erVq6xg2263 AJbLRR7r2WzmnPvw4YMx5vLifPGLbx4eN1kUFUJo2/bVq1dPT0/TNDmncm1xrkKuqipr87XWZ2dn l5eXWQNnrU0p5VKQuq7X63WeTgDm83mW02UC/eNewL9h6H/9l38mYkUaIOHICILIYTIsLFGpEMeH 27s/htA1TWEUE3thyxyMEkXM0ftp8MGO3ZOwLyRqigpR/BT9ENyglHB0OoycHEmQZCk6gwiE1G2G xzs3PHk7iO1V8JK84uhdbzRGdgIAAAdnSURBVMfBuzEFD2ajNKkCooBPzE6IQQkkz0amR3wOkBIo EGkCoiTHnIRICZExtYCc9Q2iggvTtuDY1sUw9CzkbEQQCcl22+72nRufCsRGZPc0SpTgLIWJ/K4p MI5TjI7Y+mHTUkSYtBZnh+VyNmzuGqM42evrPzYIbVux3ck0eWvdOJYk0Q5gH0eXvG85ubET9poE QiklRQIIqeN8+JwgEAFZRk+AApEQiQo+kShT1jEkFuiiEIhhTuOUvG+qulBKXBjHrhs6zb4sDEK4 f/vm9uZarC8EirnbbGEnmnzYdEVCU5ThqcNgtfd14v7xMU4TOZ92vd8N466b7h90iorj9Li9vXn/ 8OGuInG7LlobpqkVFAA773b9sNnYzS5a67q+MUWRZOr6/mnn+qEIbIDt/X0RUwNlSN29e9c9PIZu CNaRgDipkHw3VNPkhqHSJjqXJqt8oBB5su5x090/pMEWmhTpv6vpRgAI/GxzQoA8R4YFIFAgKhaL cjYPLEppAX3Sd4lzw8hc25ezsZlu5oODTjnT0IPaGsA0TSLivc8kxlrrvbfWZt55ENHnwr6DneMR PykIwTlnncuDlXcjhzqNaZoeHx9zzDuL1Xa7nVaaiLque/PmzcPDA573vTk1P01TSsn74EPIxVr9 OGy2m8na2Xzezmab7ebD7QcQWWfrpk7MIUYWiSlZZ2OKAGaz2d3d3fv374loHMftdpv7OWy325ub mzzHsuSfnvv8ZBxLkz8vSH77b8wg1SaWmEJZF8qU/TDqYgZFAPswgtJ8PhdWD3f36+UipZQkJ0RM SBGiiqpUSknivu+1gjGGOLVNIwCT2XWdiMznc1MW49h7G0yhqqK01hoy8+UyJdn1nVJKFyalwBw1 cVVQpQnCEoUYgOE97xSAQQwkAEJ0TNN/LgghidYkhpCsd7sYLSulGaob3fr88qmblPB8rtzYqSRF XTsWVc/7iVmUUaSQKHRNpafB1s1isFTWs5RSW2tv74VoTGa2OFHwU79bl8XY72bLhSjdTTaJbqsm CpMmrSX2O2Z2CWW74ICmaazrmqax1hNDKTKaNIUYoyYjIkYjpQClcWy38zmhANBzIkKJgigSEzy0 aZSpn3YDK13N2sFNIlKIFNrAFMMwVNq0s9ku2MQh9eOLy6u3dzfz+XxRtrvNbr5cT9MUvZ03tYb2 kSM4icyaZpqG5XK57basqCxLFRKRhilsDNCS/VSqquCYyrKcpmk5XwDq7u5uVs+yhKVpKmftfLHo ugGAHae6bYq6EpFaF9M0JQURUUkUMHp3enrqrSuq0nN62N5/efkiWuenEcBsubLOuRigKKWkQFWh C6KKtDFqcuHvarqRQAhREQkMiwKY9pUxSUBQg1LNF1/MLq+GmLQpTVHleNIwDLk90yG8lFLK5Xo5 lpm7NQEwxuQuj7nANJvxACjLchiGHFTL5ac51w/gUEJa13UuIvxeM/wjfgpgwjRNwzQe4uWz2SwX gzLzarXq+75pGmZ+eHhYLpfGGAXKHUZzpn4cR2vtwaIp1xaP45gD513XFVW5XC7Hcez7fj6fK6Ws tW3b5mrjvKWp67qqKu993tXkTVEuCzkEPodhaNs25+VzP4eUUmbJh3/nSEY/Lyj99t8ByEcRMgsp AHLYBBAfPDO+7yksHx/kTg1ERNDInDHXAz3/Qdof8t5wUoSIzLOj1/79iERIiMECYiUMQH2kmx8/ LZ9YPofPeDmOYAgRGVLs0vTkgmMiBVGkDUj7yIJUaCFhyb4UumBIEi2SBfisP465EijZ580ZFAEk lAAgSQkrYU0iioiIhZiZSGuthTilBE5KKRbNpPI7H6Yi9jaAQhAi+sg+81J5xOfEYfgEubGCGEgR g4IULDqn7pmy7S8UlBLFxACUgEnygChOzCyktdZKSBIYorWGJABgydYbUKRApCSlRJoARGYFKNJM SML07CepFIFlb6CitTDkeeiJKPesFBGti0PeNkG01tH5qqoSRESIhQSH8BuQO6pyrpamT9abxExE ea6qPMP/LquT/1oyCtLf68t4aOGEP13OP33+z2LfvYH5e8ffP0Oi70WwjviJgAne+4fN48GqIO9M /kKZb95bfur8eXg+7zfyHMgdGz7xBf0r8Km9Qn54IDM4Ms7/Rxg5LDbPIGEARCLPjvWUE1HCh6nw /GXNOCiKhAlE0ESyJ4hC+waFxALoj4yTAQgSgWj/6bJ/n0xGAYHsl7bnzyf5k5MEjjT0BwITCGIA EYIQE1Tm/QRWiCJCQkBekYnASoQkPZNREB1iEszgAz/Mw6+zl/ezozdDaRFCtjBggmgRBkQ4O3vS /iX7Vx2mAiHR/8yPHpnoD4KP993BbnV/pZ/t6hV4f8dKLu8+PP881pJlT9B7GycmJtp/xeC5RUau CiCSnP4lADrPnz0VFi0kAlKihAQsYCVEoj+eDED76Sp7bvn8oyQ342CA1X5hExBIhEBKwASSj7Pq 02OVqe4+Mf3xChzVS0ccccQR/3cc+dwRRxxxxBFHHHHEET8a/htZ0NE+nbvXjQAAAABJRU5ErkJg gg== "
       style="image-rendering:optimizeSpeed"
       preserveAspectRatio="none"
       height="127.79375"
       width="238.125" />
    <path
       style="opacity:1;fill:#acded5;fill-opacity:1;stroke:#2d343d;stroke-width:1.92743778;stroke-miterlimit:4;stroke-dasharray:none;stroke-opacity:1"
       d="m 73.473826,118.33617 h 49.067454 c 20.2667,-0.44105 21.93742,0.73872 23.15432,19.39821 v 30.58949 c 2.50221,19.88962 -6.10018,15.29474 -24.53374,15.29474 H 72.094419 c -20.782365,0.38502 -24.533726,4.1666 -24.533726,-15.29474 v -30.58949 c -2.502219,-19.88963 7.479577,-19.39821 25.913133,-19.39821 z"
       id="rect1679-8"
       inkscape:connector-curvature="0"
       sodipodi:nodetypes="ccccccccc" />
    <ellipse
       style="opacity:1;fill:#24221c;fill-opacity:1;stroke:none;stroke-width:2.1801064;stroke-miterlimit:4;stroke-dasharray:none;stroke-opacity:1"
       id="path2814"
       cx="74.839279"
       cy="150.72322"
       rx="23.056549"
       ry="24.757441" />
    <path
       style="opacity:1;fill:#b5eecd;fill-opacity:1;stroke:none;stroke-width:1.89999998;stroke-miterlimit:4;stroke-dasharray:none;stroke-opacity:1"
       d="m 72.40134,120.48513 c 16.34005,8.17556 31.70242,4.13009 47.05803,0 19.43674,-0.44689 22.36197,-3.40926 23.52902,15.49702 -6.66224,9.9807 -12.13823,20.02385 0,30.99405 2.39975,20.15268 -5.85036,15.49702 -23.52902,15.49702 -18.52511,-5.39428 -33.55437,-4.14647 -47.05803,0 -19.93129,0.39011 -23.52902,4.22171 -23.52902,-15.49702 5.20808,-9.14552 9.61612,-18.3968 0,-30.99405 -2.39975,-20.15268 5.85035,-15.49702 23.52902,-15.49702 z"
       id="rect1679"
       inkscape:connector-curvature="0"
       sodipodi:nodetypes="ccccccccc" />
    <ellipse
       style="opacity:1;fill:#22280b;fill-opacity:1;stroke:none;stroke-width:2.36375475;stroke-miterlimit:4;stroke-dasharray:none;stroke-opacity:1"
       id="path2814-5"
       cx="115.8497"
       cy="151.57365"
       rx="23.056549"
       ry="29.104166" />
    <path
       style="opacity:1;fill:#b5eecd;fill-opacity:1;stroke:none;stroke-width:1.89999998;stroke-miterlimit:4;stroke-dasharray:none;stroke-opacity:1"
       d="m 72.401339,120.48513 c 16.340051,8.17556 31.702421,4.13009 47.058031,0 19.43674,-0.44689 22.36197,-3.40926 23.52902,15.49702 -6.66224,9.9807 -12.13823,20.02385 0,30.99405 2.39975,20.15268 -5.85036,15.49702 -23.52902,15.49702 -18.52511,-5.39428 -33.55437,-4.14647 -47.058031,0 -19.93129,0.39011 -23.52902,4.22171 -23.52902,-15.49702 5.20808,-9.14552 9.61612,-18.3968 0,-30.99405 -2.39975,-20.15268 5.85035,-15.49702 23.52902,-15.49702 z"
       id="rect1679-84"
       inkscape:connector-curvature="0"
       sodipodi:nodetypes="ccccccccc" />
    <path
       style="opacity:0.33800001;fill:#b5bcc2;fill-opacity:1;stroke:none;stroke-width:1.85306013;stroke-miterlimit:4;stroke-dasharray:none;stroke-opacity:1"
       d="m 92.037275,145.8097 a 75.406249,45.121133 0 0 0 -42.900224,8.0766 v 13.49491 c 0,18.75645 3.597508,15.11205 23.528797,14.74098 h 47.058112 c 17.67867,0 25.92853,4.42825 23.52879,-14.74098 v -9.49078 A 75.406249,45.121133 0 0 0 92.037275,145.8097 Z"
       id="rect1679-8-3"
       inkscape:connector-curvature="0" />
  </g>
</svg>
